<svg xmlns="http://www.w3.org/2000/svg" width="12.031" height="12.031" viewBox="0 0 12.031 12.031">
  <metadata><?xpacket begin="﻿" id="W5M0MpCehiHzreSzNTczkc9d"?>
<x:xmpmeta xmlns:x="adobe:ns:meta/" x:xmptk="Adobe XMP Core 5.6-c138 79.159824, 2016/09/14-01:09:01        ">
   <rdf:RDF xmlns:rdf="http://www.w3.org/1999/02/22-rdf-syntax-ns#">
      <rdf:Description rdf:about=""/>
   </rdf:RDF>
</x:xmpmeta>
                                                                                                    
                                                                                                    
                                                                                                    
                                                                                                    
                                                                                                    
                                                                                                    
                                                                                                    
                                                                                                    
                                                                                                    
                                                                                                    
                                                                                                    
                                                                                                    
                                                                                                    
                                                                                                    
                                                                                                    
                                                                                                    
                                                                                                    
                                                                                                    
                                                                                                    
                                                                                                    
                           
<?xpacket end="w"?></metadata>
<defs>
    <style>
      .cls-1 {
        fill: #494747;
        fill-rule: evenodd;
      }
    </style>
  </defs>
  <path id="icon:_filter" data-name="icon: filter" class="cls-1" d="M279.855,219.092l-2.949-2.948a0.493,0.493,0,0,0-.7,0l-2.945,2.948a0.493,0.493,0,0,0,.7.7l2.1-2.1v8.639a0.5,0.5,0,1,0,1,0v-8.639l2.1,2.1a0.494,0.494,0,0,0,.7-0.7h0Zm-5.118,5.116a0.493,0.493,0,0,0-.7,0l-2.1,2.1v-8.64a0.5,0.5,0,0,0-1,0v8.64l-2.1-2.1a0.494,0.494,0,0,0-.7.7l2.949,2.948a0.491,0.491,0,0,0,.7,0l2.948-2.948a0.5,0.5,0,0,0,0-.7h0Z" transform="translate(-268 -216)"/>
</svg>
