<svg xmlns="http://www.w3.org/2000/svg" viewBox="0 0 157 70" style="enable-background:new 0 0 157 70;" xml:space="preserve">
<style type="text/css">
	.st0{fill:#231F20;}
	.st1{fill:#F1647A;}
	.st2{fill:#9A258F;}
	.st3{fill:#FDB913;}
	.st4{fill:#DA2128;}
	.st5{fill:none;stroke:#231F20;stroke-miterlimit:10;}
</style>
<title>logo</title>
<g id="Layer_2_1_">
	<g id="Layer_1-2">
		<polygon class="st0" points="7.2,61.1 7,61.1 5.9,57 5.9,57 4.5,57 4.5,62.9 5.2,62.9 5.2,58 5.5,58 6.8,62.9 6.8,62.9 7.4,62.9 
			8.7,58 9,58 9,62.9 9.7,62.9 9.7,57 8.3,57 		"/>
		<path class="st0" d="M13.2,58l0.7,2.9h-1.6l0.7-2.9H13.2z M13.7,57h-1.3l-1.4,5.9h0.8l0.3-1.3H14l0.3,1.3h0.8L13.7,57L13.7,57z"/>
		<path class="st0" d="M18.9,58.7c0.1,0.5-0.3,1-0.8,1c-0.1,0-0.1,0-0.2,0h-0.8v-2.1h0.8c0.5-0.1,1,0.3,1,0.8
			C18.9,58.5,18.9,58.6,18.9,58.7 M18.9,60.1c0.6-0.2,0.8-0.7,0.8-1.4c0-1.1-0.7-1.7-2-1.7h-1.6v5.9h0.8v-2.5h0.8l1,2.5h0.9
			l-1.1-2.7L18.9,60.1z"/>
		<rect x="21.3" y="57" class="st0" width="0.9" height="5.9"/>
		<polygon class="st0" points="24.6,60.2 26.2,60.2 26.2,59.5 24.6,59.5 24.6,57.7 26.7,57.7 26.7,57 23.7,57 23.7,62.9 26.8,62.9 
			26.8,62.2 24.6,62.2 		"/>
		<path class="st0" d="M32,59.5h-0.6v-1.8H32c0.5-0.1,0.9,0.3,1,0.8c0,0.1,0,0.1,0,0.2C33,59.1,32.5,59.5,32,59.5
			C32,59.5,32,59.5,32,59.5 M31.4,60.1H32c0.8,0,1.2,0.4,1.2,1.1c0,0.6-0.4,1-1,1.1c-0.1,0-0.1,0-0.2,0h-0.7V60.1z M33.2,59.9
			L33,59.7l0.2-0.1c0.4-0.2,0.7-0.7,0.7-1.2c0-1-0.6-1.4-1.8-1.4h-1.5v5.9h1.6c0.9,0,1.9-0.3,1.9-1.6C34,60.6,33.9,60.3,33.2,59.9"
			/>
		<path class="st0" d="M38.1,58.7c0.1,0.5-0.3,1-0.8,1c-0.1,0-0.1,0-0.2,0h-0.8v-2.1h0.8c0.5-0.1,1,0.3,1,0.8
			C38.1,58.5,38.1,58.6,38.1,58.7 M38.2,60.1c0.6-0.2,0.8-0.7,0.8-1.4c0-1.1-0.7-1.7-2-1.7h-1.6v5.9h0.8v-2.5h0.8l1,2.5h0.9L38,60.2
			L38.2,60.1z"/>
		<rect x="40.5" y="57" class="st0" width="0.9" height="5.9"/>
		<polygon class="st0" points="46.1,57.8 46.1,57.8 46.1,57 43,57 43,57.7 45.2,57.7 42.7,62.1 42.7,62.1 42.7,62.9 46.1,62.9 
			46.1,62.2 43.6,62.2 		"/>
		<path class="st0" d="M49.3,58l0.7,2.9h-1.6L49,58H49.3z M49.8,57h-1.3L47,62.9h0.8l0.3-1.3h1.9l0.3,1.3h0.8L49.8,57L49.8,57z"/>
		<path class="st0" d="M55,58.7c0.1,0.5-0.3,1-0.8,1c-0.1,0-0.1,0-0.2,0h-0.8v-2.1H54c0.5-0.1,1,0.3,1,0.8C55,58.5,55,58.6,55,58.7
			 M55,60.1c0.6-0.2,0.8-0.7,0.8-1.4c0-1.1-0.7-1.7-2-1.7h-1.6v5.9h0.8v-2.5h0.8l1,2.5H56l-1.1-2.7L55,60.1z"/>
		<path class="st0" d="M58.2,57.7h0.6c0.8,0,1.2,0.4,1.2,1.4v1.6c0,1-0.4,1.4-1.2,1.4h-0.6V57.7z M58.8,57h-1.5v5.9h1.5
			c1.4,0,2-0.6,2-2V59C60.8,57.6,60.2,57,58.8,57"/>
		<polygon class="st0" points="8.3,68.4 7.4,64.9 7.4,64.9 6.8,64.9 5.8,68.4 5,64.9 5,64.9 4.2,64.9 5.5,69.9 5.5,69.9 6.1,69.9 
			7.1,66.5 8,69.9 8,69.9 8.7,69.9 9.9,64.9 9.1,64.9 		"/>
		<rect x="11.3" y="64.9" class="st0" width="0.8" height="5"/>
		<polygon class="st0" points="16.7,68.4 14.6,64.9 14.6,64.9 13.9,64.9 13.9,69.9 14.6,69.9 14.6,66.5 16.8,69.9 16.8,69.9 
			17.5,69.9 17.5,64.9 16.7,64.9 		"/>
		<polygon class="st0" points="19.4,69.9 22.4,69.9 22.4,69.2 20.1,69.2 20.1,67.8 22.1,67.8 22.1,67 20.1,67 20.1,65.6 22.4,65.6 
			22.4,64.9 19.4,64.9 		"/>
		<path class="st0" d="M27.2,67.5l1.1,1.4c-0.2,0.2-0.6,0.4-0.9,0.4c-0.4,0-0.8-0.3-0.8-0.8c0,0,0,0,0-0.1
			C26.6,68,26.8,67.8,27.2,67.5 M27.4,66.6C27.1,66.4,27,66.2,27,66c0-0.2,0.2-0.4,0.4-0.5c0,0,0,0,0.1,0c0.2,0,0.5,0.2,0.5,0.4
			c0,0,0,0,0,0c0,0.2-0.1,0.4-0.3,0.5L27.4,66.6 M29.7,67.4L29.7,67.4H29l0,0c0,0.3-0.1,0.7-0.2,1l-1-1.2l0.3-0.2
			c0.3-0.2,0.5-0.5,0.5-0.9c0-0.6-0.6-1.1-1.2-1.1c-0.6,0-1.1,0.5-1.1,1.1c0,0.4,0.2,0.8,0.5,1.1c-0.5,0.3-0.9,0.7-0.9,1.4
			c-0.1,0.8,0.5,1.5,1.3,1.5c0.1,0,0.2,0,0.3,0c0.5,0,1-0.2,1.3-0.5l0.4,0.5l0,0H30l-0.8-1C29.5,68.5,29.7,68,29.7,67.4"/>
		<path class="st0" d="M35.2,67.1L34.6,67c-0.2,0-0.4-0.1-0.5-0.2c-0.1-0.1-0.2-0.3-0.2-0.5c0-0.4,0.3-0.8,0.7-0.8c0,0,0.1,0,0.1,0
			c0.4,0,0.8,0.1,1,0.4l0,0l0.5-0.5l0,0c-0.4-0.4-0.9-0.6-1.5-0.6c-1,0-1.6,0.6-1.6,1.5c0,0.4,0.1,0.7,0.4,1
			c0.3,0.2,0.6,0.4,0.9,0.4l0.6,0.1c0.2,0,0.4,0.1,0.5,0.2c0.1,0.1,0.2,0.3,0.2,0.5c0,0.5-0.4,0.7-1,0.7c-0.4,0-0.9-0.1-1.2-0.5l0,0
			l-0.5,0.5l0,0l0,0c0.4,0.5,1.1,0.7,1.7,0.7c1,0,1.7-0.6,1.7-1.5c0-0.4-0.1-0.8-0.4-1C35.8,67.2,35.5,67.1,35.2,67.1"/>
		<path class="st0" d="M38.8,65.6h1c0.5,0,0.8,0.3,0.9,0.8s-0.3,0.8-0.8,0.9c0,0-0.1,0-0.1,0h-1V65.6z M39.9,64.9h-1.8v5h0.8v-2h1.1
			c0.8,0,1.6-0.6,1.6-1.5c0-0.8-0.6-1.6-1.5-1.6C40,64.9,40,64.9,39.9,64.9"/>
		<rect x="42.9" y="64.9" class="st0" width="0.8" height="5"/>
		<path class="st0" d="M46.3,65.6h1.1c0.4,0,0.8,0.3,0.8,0.7c0,0,0,0.1,0,0.1c0,0.4-0.3,0.7-0.7,0.8c0,0-0.1,0-0.1,0h-1.1V65.6z
			 M48.9,66.4c0-0.8-0.6-1.4-1.3-1.5c-0.1,0-0.1,0-0.2,0h-1.9v5h0.8v-2.1h0.9l1,2.1l0,0h0.9L48,67.7C48.5,67.5,48.9,67,48.9,66.4"/>
		<rect x="50.6" y="64.9" class="st0" width="0.8" height="5"/>
		<polygon class="st0" points="52.8,65.6 54.1,65.6 54.1,69.9 54.9,69.9 54.9,65.6 56.2,65.6 56.2,64.9 52.8,64.9 		"/>
		<path class="st0" d="M60.2,67.5c-0.3-0.2-0.6-0.4-0.9-0.4L58.8,67c-0.2,0-0.4-0.1-0.5-0.2c-0.1-0.1-0.2-0.3-0.2-0.5
			c0-0.4,0.3-0.8,0.7-0.8c0,0,0.1,0,0.1,0c0.4,0,0.8,0.1,1,0.4l0,0l0.5-0.5l0,0c-0.4-0.4-0.9-0.6-1.5-0.6c-1,0-1.6,0.6-1.6,1.5
			c0,0.4,0.1,0.7,0.4,1c0.3,0.2,0.6,0.4,0.9,0.4l0.6,0.1c0.2,0,0.4,0.1,0.5,0.2c0.1,0.1,0.2,0.3,0.2,0.5c0,0.5-0.3,0.7-1,0.7
			c-0.5,0-0.9-0.1-1.2-0.5l0,0l-0.5,0.5l0,0l0,0c0.4,0.5,1.1,0.7,1.7,0.7c1,0,1.7-0.6,1.7-1.5C60.7,68.1,60.5,67.7,60.2,67.5"/>
		<path class="st1" d="M56.9,35.9v-7.9h-0.2c-2,1.5-5,0.3-7.1,0.2v0.3h0c1.7,0.3,3.3,1.2,4.3,2.5c1.2,1.4,2.1,3.1,2.5,4.9L56.9,35.9
			z"/>
		<path class="st1" d="M47.4,53.7c-1.6-0.4-3.1-1.2-4.5-2.5c-2-1.9-3.4-4.5-3.9-7.2h-0.4v10H39v0c0,0,0,0,0-0.1
			c1.5-1.2,4.8-0.3,6.9-0.1c0.5,0.1,1,0.2,1.5,0.3h0.1L47.4,53.7L47.4,53.7z"/>
		<path class="st1" d="M51.6,37.3l-0.3-0.1l-1.5-0.4l-0.2,0c-1.5-0.3-4.9-1.1-4.9-4.8c0-0.7,0.2-1.5,0.5-2.1c0.4-0.8,1.1-1.3,2-1.6
			v-0.3c-3.3,0.4-6.7,2.6-7.8,4.6c-0.6,1.1-1,2.4-1,3.7c0,3.7,2.4,6.2,7.4,7.6l1.9,0.5c2.1,0.6,5.5,1.5,5.5,4.9c0,2-1,4.3-3.9,4.4
			v0.4h0.3c3,0,4.9-0.8,7.1-2.9c1.7-1.6,2.6-3.8,2.6-6.1C59.3,39.1,53.7,37.8,51.6,37.3"/>
		<path class="st2" d="M59.7,16.9c-1.2-2.8-3.8-4.3-8.1-4.8l-0.7-0.1c1.4-0.2,5.3-1.1,6.7-3.4c0.5-0.8,0.7-1.7,0.7-2.6
			c0-2.2-1.2-3.8-3.5-4.8s-5.3-1.2-6.8-1.2h-0.5v0.3c1.4,0.1,2.7,0.6,2.9,2.4c0.2,1.3,0.2,2.6,0.2,3.9c0,4.5-0.8,5.1-3.1,5.2v0.4
			c1.3,0.1,2.2,0.4,2.6,0.9c1.1,1.1,1.2,4.1,1.2,5.7c0,1.4-0.1,2.8-0.4,4.2l0,0c-0.4,1.6-1.2,2.2-3.5,2.2h0v0.3h1.8
			c0.4,0,0.8,0,1.3,0h0.1c3.6-0.1,6.4-0.5,8.3-3.2c0.7-0.9,1-2.1,1-3.3C60.2,18.5,60,17.7,59.7,16.9"/>
		<path class="st2" d="M35,0.1v0.3l0,0c2.4,0.2,2.6,1.2,2.6,3.7v17.6c0,2.5-0.2,3.5-2.6,3.7l0,0v0.3h10.3V0.1H35z"/>
		<path class="st3" d="M32.3,46l-3.1-9.9l-0.6-2l0,0l-0.7-2.3c0-0.1-0.1-0.3-0.1-0.4c-0.2-0.6-0.3-1.2-0.4-1.8c0-0.2,0-0.5,0.2-0.6
			c0.3-0.3,0.9-0.4,1.5-0.4h0.1v-0.3H17.5v0.3h0c1.4,0.1,1.6,0.5,2.2,2.5l1.9,6.6l0,0l0.7,2.4l4.2,13.7v0h4.2l1.6-7.5l0,0L32.3,46
			L32.3,46z"/>
		<path class="st3" d="M33.5,28.3c1.4,0.9,2,2.6,1.6,4.2c-0.3,1.6-1.3,5.9-1.8,8.5l0.3,0.8l1.3-6.3c0.4-1.7,1.4-6.8,6-7h0v-0.3
			L33.5,28.3z"/>
		<path class="st3" d="M20.4,41.5l-0.9,4.2L14.9,32l0-0.1c-0.3-0.7-0.5-1.4-0.6-2.1c0-0.3,0.1-0.5,0.3-0.7c0.4-0.4,1-0.6,1.5-0.5h0
			v-0.3h-12v0.3c1.7,0.1,2,0.5,2.5,2l7.7,23.3v0h3.7l2.5-11.7L20.4,41.5z"/>
		<path class="st4" d="M22.3,11.3l-1.8,6.6L15.4,0.1v0H4.7v0.3h0c2.1,0,2.4,0.5,2.9,1.8l0.1,0.3l0,0c0,0.1,0.1,0.2,0.1,0.3l0,0l0,0
			l0.8,2.8l6.1,20.1h4.1l3.5-12.9L22.3,11.3z"/>
		<path class="st4" d="M35,0.1h-9.6l-0.7,2.5v19.1c0,2.8-0.4,3.7-3,3.7h-0.2v0.3H35v-0.3c-2.5-0.2-2.6-1.3-2.6-3.7V4.1
			c0-2.5,0.1-3.5,2.6-3.7L35,0.1z"/>
		<path class="st4" d="M11,25.8c-2.5-1.2-2.7-2.9-2.8-4.1c-0.1-0.6-0.1-1.3-0.1-2.1v-7.3l-0.4-1.5v8.8c0,3.9-0.5,5.8-3.6,5.9v0.3
			L11,25.8L11,25.8z"/>
		<path class="st4" d="M78,61.5c0.3-0.7,0.6-1.5,0.9-2.2c0.3-0.7,0.5-1.5,0.8-2.1c0.3,0.1,0.5,0.1,0.8,0l-0.5,1.2
			c-0.2,0.5-0.4,1-0.6,1.5c-0.2,0.5-0.4,1.1-0.6,1.6c-0.2,0.6-0.4,1.1-0.6,1.6c-0.3,0-0.5,0-0.8,0c-0.1-0.2-0.2-0.5-0.3-0.8
			c-0.1-0.3-0.3-0.7-0.4-1.1s-0.3-0.8-0.4-1.1c-0.2-0.4-0.3-0.8-0.4-1.1c-0.1-0.4-0.3-0.7-0.4-1l-0.3-0.8l0.4,0h0.4
			c0.1,0,0.3,0,0.4,0l0.4,0c0.1,0.3,0.2,0.7,0.3,1c0.1,0.4,0.3,0.7,0.4,1.1c0.1,0.4,0.3,0.7,0.4,1.1C77.8,60.8,77.9,61.1,78,61.5z
			 M81.4,58.3c0-0.4,0-0.7-0.1-1.1l0.3,0c0.1,0,0.2,0,0.4,0c0.1,0,0.3,0,0.4,0l0.3,0c0,0.4,0,0.8-0.1,1.1c0,0.4,0,0.8,0,1.3v1.2
			c0,0.5,0,0.9,0,1.3s0,0.7,0.1,1.1c-0.1,0-0.2,0-0.3,0h-0.8c-0.1,0-0.2,0-0.3,0c0-0.4,0-0.7,0.1-1.1c0-0.4,0-0.8,0-1.3v-1.2
			C81.4,59.1,81.4,58.6,81.4,58.3z M84.2,58.3c0-0.4,0-0.7-0.1-1.1l0.3,0c0.1,0,0.2,0,0.4,0c0.1,0,0.3,0,0.4,0l0.3,0
			c0,0.4,0,0.8-0.1,1.1c0,0.4,0,0.8,0,1.3v1.2c0,0.3,0,0.6,0,1s0,0.6,0,0.8c0.3,0,0.7,0,1,0c0.3,0,0.7,0,1-0.1c0,0.1,0,0.1,0,0.2
			c0,0.1,0,0.1,0,0.2c0,0.1,0,0.2,0,0.2c0,0,0,0.1,0,0.1c-0.2,0-0.3,0-0.6,0h-2.6c-0.1,0-0.1,0-0.2,0c0-0.4,0-0.7,0.1-1.1
			c0-0.4,0-0.8,0-1.3v-1.2C84.2,59.1,84.2,58.6,84.2,58.3z M88.7,58.9c0-0.4,0-0.7,0-1c0-0.3,0-0.5,0-0.7c0.1,0,0.3,0,0.4,0
			c0.1,0,0.3,0,0.4,0c0.6,0.7,1.3,1.4,1.9,2.1c0.6,0.7,1.2,1.4,1.9,2.1v-1.6c0-0.3,0-0.6,0-0.8s0-0.5,0-0.8s0-0.4,0-0.6
			c0-0.1,0-0.2,0-0.3c0.3,0.1,0.5,0.1,0.8,0c0,0.5-0.1,1-0.1,1.4c0,0.4,0,0.8,0,1.2c0,0.4,0,0.7,0,1.1s0,0.8,0,1.2v1
			c-0.1,0-0.2,0-0.4,0c-0.1,0-0.2,0-0.3,0c-1.2-1.4-2.5-2.8-3.8-4.2v0.5c0,0.2,0,0.3,0,0.5v1c0,0.3,0,0.6,0,0.9c0,0.2,0,0.4,0,0.6
			c0,0.2,0,0.3,0,0.4s0,0.2,0,0.3c-0.1,0-0.1,0-0.2,0h-0.2c-0.1,0-0.3,0-0.4,0c0,0,0-0.2,0-0.5c0-0.3,0-0.6,0.1-1s0-0.8,0.1-1.3
			C88.7,59.8,88.7,59.3,88.7,58.9L88.7,58.9z M95.4,58.3c0-0.4,0-0.7-0.1-1.1l0.3,0c0.1,0,0.2,0,0.4,0s0.3,0,0.4,0l0.3,0
			c0,0.4,0,0.8-0.1,1.1c0,0.4,0,0.8,0,1.3v1.2c0,0.5,0,0.9,0,1.3s0,0.7,0.1,1.1c-0.1,0-0.2,0-0.3,0h-0.8c-0.1,0-0.2,0-0.3,0
			c0-0.4,0-0.7,0.1-1.1c0-0.4,0-0.8,0-1.3v-1.2C95.4,59.1,95.4,58.6,95.4,58.3z M103.1,63.1c-0.1,0-0.3,0-0.4,0H102
			c-0.1,0-0.2,0-0.4,0l-0.3-0.8c-0.1-0.3-0.2-0.6-0.3-0.9c-0.2,0-0.4,0-0.6,0h-1c-0.1,0-0.3,0-0.4,0c-0.1,0.3-0.2,0.6-0.3,0.9
			c-0.1,0.3-0.2,0.6-0.3,0.8c-0.1,0-0.1,0-0.2,0h-0.4c-0.1,0-0.2,0-0.2,0c0.1-0.2,0.2-0.4,0.3-0.6l0.4-0.9l0.4-1.1
			c0.2-0.4,0.3-0.8,0.5-1.2c0.2-0.4,0.3-0.8,0.5-1.2l0.4-1.1l0.2,0c0.1,0,0.1,0,0.2,0c0.1,0,0.1,0,0.2,0l0.2,0l0.6,1.6
			c0.2,0.6,0.4,1.1,0.6,1.7c0.2,0.5,0.4,1.1,0.6,1.5S103,62.8,103.1,63.1z M100.1,58.8c-0.2,0.3-0.3,0.7-0.4,1
			c-0.1,0.3-0.3,0.7-0.4,1h1.6c-0.1-0.4-0.3-0.7-0.4-1C100.3,59.5,100.2,59.1,100.1,58.8L100.1,58.8z M106.4,63.2
			c-0.3,0-0.7,0-1-0.1c-0.3-0.1-0.6-0.2-0.8-0.4c-0.2-0.2-0.4-0.4-0.6-0.7c-0.1-0.3-0.2-0.7-0.2-1c0-0.2,0-0.4,0-0.6s0-0.4,0-0.5
			s0-0.3,0-0.5c0-0.1,0-0.3,0-0.4c0-0.5,0-0.8,0-1.1c0-0.3,0-0.5,0-0.6l0.4,0c0.1,0,0.2,0,0.4,0h0.4l0.4,0c-0.1,0.6-0.1,1.1-0.1,1.6
			c0,0.5,0,1,0,1.5c0,0.4,0,0.9,0.1,1.3c0.1,0.3,0.2,0.5,0.3,0.8c0.1,0.2,0.3,0.3,0.5,0.4c0.2,0.1,0.5,0.1,0.7,0.1
			c0.3,0,0.6-0.1,0.8-0.3c0.2-0.2,0.4-0.4,0.4-0.7c0.1-0.3,0.2-0.7,0.2-1c0-0.4,0-0.8,0-1.2c0-0.4,0-0.8,0-1.2c0-0.4,0-0.8-0.1-1.2
			l0.2,0h0.2c0.1,0,0.1,0,0.2,0l0.2,0c0,0.1,0,0.3,0,0.5c0,0.2,0,0.5,0,0.7c0,0.3,0,0.6,0,0.9c0,0.3,0,0.7,0,1.1
			c0,1-0.2,1.7-0.6,2.2C107.8,63,107.1,63.3,106.4,63.2L106.4,63.2z M112,57.6c-0.2,0-0.5,0.1-0.7,0.2c-0.2,0.1-0.3,0.3-0.3,0.6
			c0,0.2,0.1,0.4,0.2,0.5c0.1,0.1,0.3,0.3,0.5,0.4c0.2,0.1,0.4,0.2,0.6,0.3c0.2,0.1,0.4,0.2,0.6,0.4c0.2,0.1,0.4,0.3,0.5,0.5
			c0.1,0.2,0.2,0.5,0.2,0.8c0,0.3-0.1,0.5-0.2,0.8c-0.1,0.2-0.3,0.4-0.5,0.6c-0.2,0.2-0.5,0.3-0.7,0.4c-0.3,0.1-0.6,0.1-0.9,0.1
			c-0.3,0-0.6,0-0.8-0.1c-0.2,0-0.4-0.1-0.6-0.3c0.1-0.2,0.1-0.4,0.1-0.6c0-0.2,0.1-0.4,0.1-0.5h0.2c0,0.1,0.1,0.2,0.1,0.4
			c0.1,0.1,0.1,0.2,0.2,0.3c0.1,0.1,0.2,0.2,0.4,0.2c0.2,0.1,0.3,0.1,0.5,0.1c0.3,0,0.6-0.1,0.8-0.3c0.2-0.2,0.3-0.4,0.3-0.6
			c0-0.2-0.1-0.4-0.2-0.5c-0.1-0.1-0.3-0.3-0.5-0.4c-0.2-0.1-0.4-0.2-0.6-0.3c-0.2-0.1-0.4-0.2-0.6-0.4c-0.2-0.1-0.4-0.3-0.5-0.5
			c-0.1-0.2-0.2-0.5-0.2-0.8c0-0.3,0-0.5,0.2-0.8c0.1-0.2,0.2-0.4,0.4-0.6c0.2-0.2,0.4-0.3,0.6-0.4c0.2-0.1,0.5-0.1,0.7-0.1
			c0.3,0,0.6,0,0.8,0.1c0.2,0.1,0.4,0.2,0.6,0.3c-0.1,0.1-0.1,0.3-0.1,0.4c0,0.1-0.1,0.3-0.1,0.5h-0.1
			C112.9,57.9,112.5,57.5,112,57.6L112,57.6z M117.3,59.5c0-0.5,0-0.9,0-1.3s0-0.7-0.1-1.1l0.3,0c0.1,0,0.2,0,0.4,0
			c0.1,0,0.4,0,0.6,0c0.2,0,0.5,0,0.9,0c0.5,0,0.9,0,1.4,0.1c0.4,0.1,0.7,0.2,1.1,0.5c0.3,0.2,0.5,0.5,0.7,0.8
			c0.3,0.9,0.3,1.8,0,2.7c-0.1,0.4-0.4,0.7-0.7,1c-0.3,0.3-0.6,0.5-1,0.6c-0.4,0.1-0.8,0.2-1.2,0.2h-1.1c-0.3,0-0.6,0-0.8,0h-0.4
			c-0.1,0-0.2,0-0.3,0c0-0.4,0-0.7,0.1-1.1c0-0.4,0-0.8,0-1.3L117.3,59.5z M118.6,61.4v0.5c0,0.2,0,0.3,0,0.5s0,0.2,0,0.3h0.3h0.4
			c0.6,0,1.2-0.2,1.6-0.7c0.4-0.6,0.6-1.3,0.6-2c0-0.3,0-0.7-0.1-1c-0.1-0.3-0.2-0.5-0.4-0.7c-0.2-0.2-0.4-0.4-0.6-0.5
			c-0.3-0.1-0.5-0.2-0.8-0.2c-0.2,0-0.4,0-0.5,0l-0.4,0c0,0,0,0.1,0,0.3s0,0.3,0,0.5L118.6,61.4L118.6,61.4z M123.9,58.3
			c0-0.4,0-0.7-0.1-1.1c0.3,0,0.5,0,0.8,0c0.3,0,0.5,0,0.8,0c0.4,0,0.8,0,1.1,0c0.3,0,0.6,0,0.7,0c0,0.1,0,0.2,0,0.4
			c0,0.1,0,0.2,0,0.2c0,0.1,0,0.1,0,0.2l-0.6,0l-0.6,0l-0.5,0h-0.3c0,0.3,0,0.6,0,0.9c0,0.3,0,0.6,0,0.9c0.4,0,0.7,0,1,0l0.9,0
			c0,0.1,0,0.2,0,0.2c0,0.1,0,0.1,0,0.2c0,0,0,0.1,0,0.1c0,0,0,0.1,0,0.2c-0.7-0.1-1.3-0.1-2-0.1c0,0.2,0,0.4,0,0.6
			c0,0.2,0,0.4,0,0.6c0,0.4,0,0.7,0,1.1c0.3,0,0.7,0,1,0c0.3,0,0.7,0,1-0.1c0,0.1,0,0.1,0,0.2c0,0.1,0,0.1,0,0.2c0,0.1,0,0.2,0,0.2
			c0,0,0,0.1,0,0.1c-0.2,0-0.4,0-0.6,0h-2.6c-0.1,0-0.1,0-0.2,0c0-0.4,0-0.7,0.1-1.1c0-0.4,0-0.8,0-1.3v-1.2
			C124,59.1,124,58.6,123.9,58.3L123.9,58.3z M132.6,57.8c-0.6-0.3-1.2-0.3-1.8-0.1c-0.3,0.1-0.5,0.3-0.7,0.5
			c-0.2,0.2-0.4,0.5-0.5,0.8c-0.1,0.4-0.2,0.8-0.2,1.2c0,0.3,0,0.7,0.1,1c0.1,0.3,0.2,0.5,0.4,0.8c0.2,0.2,0.4,0.4,0.7,0.5
			c0.3,0.1,0.6,0.2,0.9,0.2h0.3l0.3,0c0.1,0,0.2,0,0.3,0c0.1,0,0.1,0,0.2-0.1c0-0.1,0-0.2,0-0.3c0-0.1,0-0.2,0-0.3c0-0.5,0-0.8,0-1
			c0-0.2,0-0.4,0-0.5l0.2,0c0.1,0,0.2,0,0.4,0s0.4,0,0.5,0l0.2,0c0,0.1,0,0.1,0,0.2c0,0.1,0,0.2,0,0.4s0,0.3,0,0.4s0,0.3,0,0.4v0.3
			c0,0.1,0,0.3,0,0.4c0,0.1,0,0.2,0,0.3c-0.4,0.1-0.8,0.2-1.2,0.3c-0.4,0.1-0.8,0.1-1.2,0.1c-0.5,0-0.9-0.1-1.4-0.2
			c-0.4-0.1-0.8-0.3-1.1-0.6c-0.3-0.2-0.5-0.6-0.7-0.9c-0.2-0.4-0.3-0.8-0.3-1.2c0-0.5,0.1-1,0.3-1.4c0.2-0.4,0.4-0.8,0.8-1
			c0.3-0.3,0.7-0.5,1.1-0.6c0.5-0.1,0.9-0.2,1.4-0.2c0.4,0,0.8,0,1.1,0.1c0.3,0.1,0.6,0.2,0.9,0.4c0,0.2-0.1,0.3-0.1,0.4
			c0,0.1-0.1,0.3-0.1,0.4h-0.1C133.2,58.2,132.9,58,132.6,57.8L132.6,57.8z M136.2,58.1c0-0.1,0-0.2,0-0.3h-0.3l-0.4,0
			c-0.1,0-0.3,0-0.4,0l-0.4,0c0-0.1,0-0.1,0-0.2c0-0.1,0-0.3,0-0.4c0-0.1,0-0.1,0-0.2h0.5h0.5h0.5h1.4h0.5h0.5h0.5
			c0,0.1,0,0.1,0,0.2c0,0.1,0,0.3,0,0.4c0,0.1,0,0.1,0,0.2c-0.1,0-0.3,0-0.4,0c-0.1,0-0.3,0-0.4,0l-0.4,0h-0.3c0,0,0,0.1,0,0.1
			c0,0.1,0,0.1,0,0.2v2.7c0,0.5,0,0.9,0,1.3s0,0.7,0.1,1.1c-0.1,0-0.2,0-0.3,0h-0.7c-0.1,0-0.2,0-0.3,0c0-0.4,0-0.7,0.1-1.1
			c0-0.4,0-0.8,0-1.3v-2.2C136.2,58.4,136.2,58.2,136.2,58.1L136.2,58.1z M140,58.3c0-0.4,0-0.7-0.1-1.1l0.3,0c0.1,0,0.2,0,0.4,0
			c0.1,0,0.3,0,0.4,0l0.3,0c0,0.4,0,0.8-0.1,1.1c0,0.4,0,0.8,0,1.3v1.2c0,0.5,0,0.9,0,1.3s0,0.7,0.1,1.1c-0.1,0-0.2,0-0.3,0h-0.8
			c-0.1,0-0.2,0-0.3,0c0-0.4,0-0.7,0.1-1.1c0-0.4,0-0.8,0-1.3v-1.2C140,59.1,140,58.6,140,58.3L140,58.3z M142.9,58.9
			c0-0.4,0-0.7,0-1c0-0.3,0-0.5,0-0.7c0.3,0.1,0.5,0.1,0.8,0c0.6,0.7,1.3,1.4,1.9,2.1c0.6,0.7,1.3,1.4,1.9,2.1v-1.6
			c0-0.3,0-0.6,0-0.8s0-0.5,0-0.8s0-0.4,0-0.6c0-0.1,0-0.2,0-0.3c0.3,0.1,0.5,0.1,0.8,0c0,0.5-0.1,1-0.1,1.4s0,0.8,0,1.2
			s0,0.7,0,1.1s0,0.8,0,1.2v1c-0.1,0-0.2,0-0.4,0c-0.1,0-0.2,0-0.3,0c-1.2-1.4-2.5-2.8-3.8-4.2v0.5c0,0.2,0,0.3,0,0.5v1
			c0,0.3,0,0.6,0,0.9c0,0.2,0,0.4,0,0.6c0,0.2,0,0.3,0,0.4s0,0.2,0,0.3c-0.1,0-0.1,0-0.2,0h-0.2c-0.1,0-0.3,0-0.4,0
			c0-0.2,0-0.3,0-0.5c0-0.3,0-0.6,0.1-1s0-0.8,0.1-1.3C143,59.8,143,59.3,142.9,58.9L142.9,58.9z M149.6,59.5c0-0.5,0-0.9,0-1.3
			s0-0.7-0.1-1.1c0.3,0,0.5,0,0.8,0c0.3,0,0.5,0,0.8,0c0.4,0,0.8,0,1.1,0s0.6,0,0.7,0c0,0.1,0,0.2,0,0.4c0,0.1,0,0.2,0,0.2
			c0,0.1,0,0.1,0,0.2l-0.6,0l-0.6,0l-0.5,0h-0.3c0,0.3,0,0.6,0,0.9c0,0.3,0,0.6,0,0.9c0.4,0,0.7,0,1,0l0.9,0c0,0.1,0,0.2,0,0.2
			c0,0.1,0,0.1,0,0.2c0,0,0,0.1,0,0.1c0,0,0,0.1,0,0.2c-0.7-0.1-1.3-0.1-2-0.1c0,0.2,0,0.4,0,0.6c0,0.2,0,0.4,0,0.6
			c0,0.4,0,0.7,0,1.1c0.3,0,0.7,0,1,0c0.3,0,0.7,0,1-0.1c0,0.1,0,0.1,0,0.2c0,0.1,0,0.1,0,0.2c0,0.1,0,0.2,0,0.2c0,0,0,0.1,0,0.1
			c-0.2,0-0.3,0-0.6,0h-2.6c-0.1,0-0.1,0-0.2,0c0-0.4,0-0.7,0.1-1.1c0-0.4,0-0.8,0-1.3L149.6,59.5z M150.6,56.2
			c0-0.3,0.3-0.6,0.6-0.6c0.2,0,0.3,0.1,0.4,0.2c0.2,0.2,0.2,0.6,0,0.8c-0.1,0.1-0.3,0.2-0.4,0.2C150.9,56.7,150.6,56.5,150.6,56.2z
			 M99.4,66.7h0.6l1.2,3.1h-0.6l-0.3-0.8h-1.2l-0.3,0.8h-0.6L99.4,66.7z M100.1,68.5l-0.4-1.2l-0.4,1.2H100.1z M102.5,66.7h0.6
			l1.5,2.2v-2.2h0.6v3.1h-0.6l-1.5-2.2v2.2h-0.6L102.5,66.7z M106.7,66.7h0.6l1.5,2.2v-2.2h0.6v3.1h-0.6l-1.5-2.2v2.2h-0.6
			L106.7,66.7z M112.5,69.8c-0.2,0-0.4,0-0.6-0.1c-0.2-0.1-0.4-0.2-0.5-0.3c-0.1-0.1-0.3-0.3-0.3-0.5c-0.4-0.8,0-1.8,0.8-2.1
			c0.2-0.1,0.4-0.1,0.6-0.1c0.2,0,0.4,0,0.6,0.1c0.2,0.1,0.4,0.2,0.5,0.3c0.5,0.5,0.6,1.2,0.3,1.8c-0.1,0.2-0.2,0.4-0.3,0.5
			c-0.1,0.1-0.3,0.3-0.5,0.3C112.9,69.8,112.7,69.8,112.5,69.8L112.5,69.8z M112.5,69.3c0.1,0,0.3,0,0.4-0.1
			c0.1-0.1,0.2-0.1,0.3-0.2c0.1-0.1,0.2-0.2,0.2-0.3c0-0.1,0.1-0.3,0.1-0.4c0-0.1,0-0.3-0.1-0.4c0-0.1-0.1-0.2-0.2-0.3
			c-0.2-0.2-0.4-0.3-0.7-0.3c-0.1,0-0.3,0-0.4,0.1c-0.1,0.1-0.2,0.1-0.3,0.2c-0.1,0.1-0.2,0.2-0.2,0.3c-0.1,0.3-0.1,0.6,0,0.8
			c0,0.1,0.1,0.2,0.2,0.3C111.9,69.2,112.2,69.3,112.5,69.3L112.5,69.3z M117.6,69.3h0.5v-1.8l-0.6,0.3l-0.2-0.4l0.8-0.5h0.5v2.4
			h0.5v0.5h-1.5L117.6,69.3z M121.1,68.2c-0.1-0.1-0.2-0.1-0.3-0.2c-0.1-0.1-0.1-0.2-0.1-0.4c0-0.1,0-0.2,0.1-0.3
			c0-0.1,0.1-0.2,0.2-0.2c0.1-0.1,0.2-0.1,0.3-0.2c0.1,0,0.2-0.1,0.4-0.1c0.1,0,0.3,0,0.4,0.1c0.1,0,0.2,0.1,0.3,0.2
			c0.1,0.1,0.1,0.1,0.2,0.2c0,0.1,0.1,0.2,0.1,0.3c0,0.1,0,0.3-0.1,0.4c-0.1,0.1-0.2,0.2-0.3,0.2c0.2,0.1,0.3,0.2,0.4,0.3
			c0.1,0.1,0.2,0.3,0.1,0.5c0,0.1,0,0.2-0.1,0.3c0,0.1-0.1,0.2-0.2,0.3c-0.1,0.1-0.2,0.2-0.3,0.2c-0.2,0.1-0.3,0.1-0.5,0.1
			c-0.2,0-0.3,0-0.5-0.1c-0.1,0-0.2-0.1-0.3-0.2c-0.1-0.1-0.1-0.2-0.2-0.3c0-0.1-0.1-0.2-0.1-0.3c0-0.2,0-0.3,0.1-0.5
			C120.8,68.3,121,68.2,121.1,68.2L121.1,68.2z M121.7,68.4c-0.1,0-0.1,0-0.2,0.1c-0.1,0-0.1,0.1-0.2,0.1c0,0-0.1,0.1-0.1,0.2
			c0,0.1,0,0.1,0,0.2c0,0.1,0,0.1,0,0.2c0.1,0.1,0.2,0.2,0.3,0.2c0.1,0,0.1,0,0.2,0c0.1,0,0.1,0,0.2,0c0.1,0,0.1,0,0.2-0.1
			c0.1,0,0.1-0.1,0.1-0.1c0-0.1,0-0.1,0-0.2c0-0.1,0-0.1,0-0.2c0-0.1-0.1-0.1-0.1-0.2c-0.1,0-0.1-0.1-0.2-0.1
			C121.8,68.4,121.8,68.4,121.7,68.4L121.7,68.4z M121.7,68c0.1,0,0.2-0.1,0.3-0.2c0.1-0.1,0.1-0.2,0.1-0.3c0-0.1,0-0.2-0.1-0.3
			c-0.2-0.1-0.4-0.1-0.6,0c-0.1,0.1-0.1,0.2-0.1,0.3c0,0.1,0,0.2,0.1,0.2C121.5,67.9,121.6,67.9,121.7,68L121.7,68z M124.4,69.2
			c0.1,0,0.1,0.1,0.2,0.1l0.2,0.1c0.1,0,0.1,0,0.2,0c0.2,0,0.4-0.1,0.5-0.2c0.1-0.1,0.1-0.2,0.1-0.3c0-0.1,0-0.2,0-0.3
			c-0.1,0.1-0.1,0.1-0.2,0.1c-0.1,0.1-0.3,0.1-0.4,0.1c-0.2,0-0.5-0.1-0.7-0.3c-0.1-0.1-0.1-0.2-0.2-0.3c0-0.1-0.1-0.2-0.1-0.4
			c0-0.1,0-0.3,0.1-0.4c0-0.1,0.1-0.2,0.2-0.3c0.1-0.1,0.2-0.2,0.3-0.2c0.1-0.1,0.3-0.1,0.4-0.1c0.1,0,0.3,0,0.4,0.1
			c0.1,0.1,0.2,0.1,0.3,0.3c0.1,0.1,0.2,0.3,0.2,0.4c0.1,0.2,0.1,0.4,0.1,0.6c0,0.2,0,0.4-0.1,0.7c0,0.2-0.1,0.4-0.2,0.5
			c-0.1,0.1-0.2,0.3-0.4,0.3c-0.2,0.1-0.4,0.1-0.6,0.1c-0.1,0-0.2,0-0.3,0l-0.2-0.1l-0.2-0.1l-0.1-0.1L124.4,69.2z M125.6,68.1
			c0-0.1,0-0.3,0-0.4c0-0.1-0.1-0.2-0.1-0.3c0-0.1-0.1-0.1-0.2-0.1c-0.1,0-0.1,0-0.2,0c-0.1,0-0.3,0-0.4,0.1
			c-0.1,0.1-0.1,0.3-0.1,0.4c0,0.1,0,0.2,0.1,0.3c0.1,0.1,0.2,0.1,0.3,0.1c0.1,0,0.2,0,0.3-0.1C125.5,68.2,125.5,68.1,125.6,68.1
			L125.6,68.1z M127.9,69.8c0.1-0.2,0.1-0.4,0.2-0.7c0.1-0.2,0.2-0.5,0.3-0.7c0.1-0.2,0.2-0.4,0.3-0.6c0.1-0.1,0.1-0.3,0.2-0.4h-1.3
			v-0.5h1.9v0.5l-0.1,0.3c-0.1,0.1-0.1,0.2-0.2,0.4s-0.1,0.3-0.2,0.4c-0.1,0.2-0.1,0.3-0.2,0.5c-0.1,0.2-0.1,0.3-0.2,0.5
			c-0.1,0.1-0.1,0.3-0.1,0.4L127.9,69.8z M96,12.8c0,10.3,6.9,19,6.9,19s6.9-8.4,6.9-19H96z M103,38.1h4.2l-4.2-6.3l-4.2,6.3H103z
			 M113.9,0.1v50.6c14,0,25.3-11.3,25.3-25.3C139.2,11.5,127.9,0.1,113.9,0.1z M129.2,38.1h-8.4l4.2-6.3c0,0-6.9-8.7-6.9-19h13.8
			c0,10.5-6.9,19-6.9,19L129.2,38.1z"/>
		<line class="st5" x1="69" y1="0.1" x2="69" y2="70"/>
	</g>
</g>
</svg>
