<?xml version="1.0" standalone="no"?>
<!DOCTYPE svg PUBLIC "-//W3C//DTD SVG 1.1//EN" "http://www.w3.org/Graphics/SVG/1.1/DTD/svg11.dtd" >
<svg xmlns="http://www.w3.org/2000/svg" xmlns:xlink="http://www.w3.org/1999/xlink" version="1.1">
<metadata>
Created by FontForge 20170731 at Wed Oct  6 20:40:01 2010
 By Aleksey,,,
Copyright (c) Mark Simonson, 2005. All rights reserved.
</metadata>
<defs>
<font id="ProximaNovaS-Extrabld" horiz-adv-x="507" >
  <font-face 
    font-family="Proxima Nova ScOsf Th"
    font-weight="800"
    font-stretch="normal"
    units-per-em="1000"
    panose-1="2 0 5 6 3 0 0 2 0 4"
    ascent="800"
    descent="-200"
    x-height="550"
    cap-height="667"
    bbox="-172 -199 1037 911"
    underline-thickness="20"
    underline-position="-173"
    unicode-range="U+000D-FB02"
  />
<missing-glyph horiz-adv-x="471" 
d="M411 -90h-351v842h351v-842zM379 -60v782h-288v-782h288z" />
    <glyph glyph-name="fi" unicode="fi" horiz-adv-x="789" 
d="M216 0h-160v550h432v-138h-272v-64h266v-138h-266v-210zM733 0h-160v550h160v-550z" />
    <glyph glyph-name="fl" unicode="fl" horiz-adv-x="991" 
d="M216 0h-160v550h432v-138h-272v-64h266v-138h-266v-210zM963 0h-390v550h160v-412h230v-138z" />
    <glyph glyph-name=".notdef" horiz-adv-x="471" 
d="M411 -90h-351v842h351v-842zM379 -60v782h-288v-782h288z" />
    <glyph glyph-name=".null" horiz-adv-x="0" 
 />
    <glyph glyph-name="nonmarkingreturn" horiz-adv-x="333" 
 />
    <glyph glyph-name="NUL" horiz-adv-x="0" 
 />
    <glyph glyph-name="NUL" horiz-adv-x="0" 
 />
    <glyph glyph-name="CR" unicode="&#xd;" horiz-adv-x="0" 
 />
    <glyph glyph-name="space" unicode=" " horiz-adv-x="256" 
 />
    <glyph glyph-name="exclam" unicode="!" horiz-adv-x="214" 
d="M190 550l-19 -325h-125l-21 325h165zM201 82q0 -38 -27.5 -65.5t-65.5 -27.5t-65.5 27.5t-27.5 65.5t27.5 66t65.5 28t65.5 -28t27.5 -66z" />
    <glyph glyph-name="quotedbl" unicode="&#x22;" horiz-adv-x="438" 
d="M152 357h-65q-48 219 -48 240q0 33 23.5 56.5t56.5 23.5t57 -23.5t24 -56.5q0 -9 -12 -69t-24 -116zM351 357h-64q-48 219 -48 240q0 33 23 56.5t57 23.5q33 0 56.5 -23.5t23.5 -56.5q0 -9 -12 -69t-24 -116z" />
    <glyph glyph-name="numbersign" unicode="#" horiz-adv-x="527" 
d="M512 406l-23 -79h-75l-35 -101h77l-26 -80h-77l-50 -146h-99l49 146h-68l-49 -146h-99l49 146h-72l25 80h75l34 101h-75l24 79h77l49 144h99l-49 -144h68l49 144h99l-49 -144h72zM314 327h-68l-34 -101h68z" />
    <glyph glyph-name="dollar" unicode="$" horiz-adv-x="522" 
d="M211 -74v64q-129 13 -201 79l70 125q50 -48 131 -65v85q-38 8 -66 18.5t-56.5 29t-44 49.5t-15.5 73q0 64 49 113t133 61v70h110v-70q103 -15 174 -75l-73 -115q-42 34 -101 50v-75q38 -8 66.5 -18.5t57.5 -29t45 -50t16 -73.5q0 -73 -48.5 -120t-136.5 -60v-66h-110z
M344 164q0 20 -46 32v-70q46 8 46 38zM191 389q0 -17 43 -29v65q-43 -7 -43 -36z" />
    <glyph glyph-name="percent" unicode="%" horiz-adv-x="624" 
d="M299 423q0 -59 -38 -99t-100 -40q-61 0 -99 40t-38 99t38 99t99 40q62 0 100 -40t38 -99zM600 129q0 -59 -38 -99t-99 -40t-99 40t-38 99t38 99t99 40t99 -40t38 -99zM544 550l-384 -550h-81l383 550h82zM211 423q0 28 -14.5 45t-35.5 17t-34.5 -17t-13.5 -45t13.5 -44.5
t34.5 -16.5q22 0 36 16.5t14 44.5zM512 129q0 29 -13.5 45t-35.5 16t-35.5 -16t-13.5 -45t13.5 -45t35.5 -16t35.5 16t13.5 45z" />
    <glyph glyph-name="ampersand" unicode="&#x26;" horiz-adv-x="573" 
d="M574 0h-175l-34 32q-68 -42 -149 -42q-88 0 -143.5 43t-55.5 122q0 57 32 93.5t89 63.5q-33 64 -33 112q0 59 50.5 98.5t125.5 39.5q69 0 116.5 -34t47.5 -90q0 -57 -35.5 -90t-100.5 -60q33 -41 38 -46q6 -6 18.5 -20.5t19.5 -22.5q30 48 45 95l110 -49
q-34 -73 -80 -129q34 -36 114 -116zM235 94q29 0 56 15q-24 26 -51 58q-32 39 -48 62q-30 -27 -30 -62q0 -32 21 -52.5t52 -20.5zM240 421q0 -25 18 -59q68 31 68 69q0 16 -11 25.5t-27 9.5q-21 0 -34.5 -13t-13.5 -32z" />
    <glyph glyph-name="quotesingle" unicode="'" horiz-adv-x="239" 
d="M152 357h-65q-48 219 -48 240q0 33 23.5 56.5t56.5 23.5t57 -23.5t24 -56.5q0 -9 -12 -69t-24 -116z" />
    <glyph glyph-name="parenleft" unicode="(" horiz-adv-x="322" 
d="M304 -123l-97 -76q-76 76 -122 198t-46 244t46 244t122 198l97 -74q-53 -90 -76.5 -176t-23.5 -192q0 -105 23.5 -191.5t76.5 -174.5z" />
    <glyph glyph-name="parenright" unicode=")" horiz-adv-x="322" 
d="M115 -199l-97 76q52 88 75.5 174.5t23.5 191.5q0 106 -23.5 192t-75.5 176l97 74q76 -76 122 -198t46 -244t-46 -244t-122 -198z" />
    <glyph glyph-name="asterisk" unicode="*" horiz-adv-x="357" 
d="M215 355h-72l4 107l-90 -58l-36 63l95 49l-95 49l36 62l90 -57l-4 107h72l-6 -107l91 57l36 -62l-95 -49l95 -49l-36 -63l-91 58z" />
    <glyph glyph-name="plus" unicode="+" 
d="M478 291h-174v-198h-101v198h-174v92h174v191h101v-191h174v-92z" />
    <glyph glyph-name="comma" unicode="," horiz-adv-x="268" 
d="M234 61q0 -123 -114 -203l-64 52q25 13 51 41t34 54q-12 -3 -23 -3q-33 0 -55.5 23t-22.5 59q0 38 27 65t65 27q42 0 72 -31t30 -84z" />
    <glyph glyph-name="hyphen" unicode="-" horiz-adv-x="300" 
d="M270 178h-240v129h240v-129z" />
    <glyph glyph-name="period" unicode="." horiz-adv-x="270" 
d="M135 -11q-38 0 -66.5 28t-28.5 66q0 37 28.5 65t66.5 28t66 -27.5t28 -65.5t-28 -66t-66 -28z" />
    <glyph glyph-name="slash" unicode="/" horiz-adv-x="346" 
d="M109 -20h-109l237 707h109z" />
    <glyph glyph-name="zero" unicode="0" horiz-adv-x="624" 
d="M598 275q0 -123 -74 -205t-212 -82t-212 82t-74 205q0 124 73.5 205.5t212.5 81.5t212.5 -81.5t73.5 -205.5zM424 275q0 61 -29.5 98t-82.5 37t-82.5 -37t-29.5 -98t29.5 -98t82.5 -37t82.5 37t29.5 98z" />
    <glyph glyph-name="one" unicode="1" horiz-adv-x="447" 
d="M387 0h-172v330l-112 -113l-98 103l233 230h149v-550z" />
    <glyph glyph-name="two" unicode="2" horiz-adv-x="585" 
d="M534 0h-488v135q174 52 249.5 109t75.5 104q0 28 -23.5 45t-59.5 17q-98 0 -172 -73l-96 114q51 56 123.5 83.5t147.5 27.5q119 0 186.5 -49.5t67.5 -134.5q0 -69 -58 -134t-134 -94h181v-150z" />
    <glyph glyph-name="three" unicode="3" horiz-adv-x="592" 
d="M282 -129q-92 0 -163 28.5t-113 76.5l87 117q35 -34 85.5 -52t96.5 -18q54 0 83 18t29 47q0 30 -26.5 43.5t-92.5 13.5q-70 0 -90 -2v153q13 -1 90 -1q108 0 108 52q0 30 -31 45.5t-81 15.5q-94 0 -166 -64l-83 108q98 108 267 108q126 0 195.5 -49.5t69.5 -133.5
q0 -57 -42.5 -98.5t-103.5 -51.5q60 -6 108.5 -48.5t48.5 -109.5q0 -88 -76 -143t-200 -55z" />
    <glyph glyph-name="four" unicode="4" horiz-adv-x="616" 
d="M595 14h-81v-131h-173v131h-319v133l253 403h239v-386h81v-150zM341 164v236l-152 -236h152z" />
    <glyph glyph-name="five" unicode="5" horiz-adv-x="617" 
d="M309 -129q-169 0 -268 97l93 121q71 -66 173 -66q52 0 80.5 22t28.5 55q0 35 -27 56t-77 21q-79 0 -132 -50l-119 29v394h484v-150h-312v-129q55 53 143 53q89 0 152 -59.5t63 -157.5q0 -108 -76 -172t-206 -64z" />
    <glyph glyph-name="six" unicode="6" horiz-adv-x="617" 
d="M329 -12q-151 0 -227 95.5t-76 248.5q0 159 89.5 252t241.5 93q120 0 202 -64l-74 -132q-54 44 -128 44q-64 0 -110.5 -42.5t-46.5 -109.5v-8q25 34 70 55t94 21q96 0 163.5 -58.5t67.5 -160.5q0 -103 -75 -168.5t-191 -65.5zM318 140q46 0 74.5 23t28.5 53
q0 39 -32.5 59t-76.5 20q-70 0 -112 -45q4 -46 33 -78t85 -32z" />
    <glyph glyph-name="seven" unicode="7" horiz-adv-x="560" 
d="M309 -117h-189l226 517h-325v150h523v-119z" />
    <glyph glyph-name="eight" unicode="8" horiz-adv-x="618" 
d="M309 -12q-118 0 -200.5 48t-82.5 140q0 55 37.5 100t97.5 68q-124 47 -124 155q0 61 42 102.5t101 58.5t129 17t129 -17t101 -58.5t42 -102.5q0 -108 -125 -155q61 -23 98.5 -68t37.5 -100q0 -62 -41.5 -106t-104 -63t-137.5 -19zM309 411q37 5 66.5 20.5t29.5 38.5
q0 26 -26 40.5t-70 14.5t-70.5 -14.5t-26.5 -40.5q0 -23 30 -38.5t67 -20.5zM309 140q47 0 77.5 16.5t30.5 43.5t-34.5 44t-73.5 22q-40 -5 -74 -22t-34 -44t30 -43.5t78 -16.5z" />
    <glyph glyph-name="nine" unicode="9" horiz-adv-x="617" 
d="M260 -128q-120 0 -202 64l74 132q54 -44 128 -44q71 0 113.5 44.5t42.5 107.5v8q-24 -34 -69 -55t-94 -21q-96 0 -164 58.5t-68 160.5t75 168t191 66q151 0 227 -95.5t76 -248.5q0 -159 -89 -252t-241 -93zM304 254q70 0 112 45q-3 46 -32 78t-87 32q-45 0 -73 -23
t-28 -53q0 -39 32.5 -59t75.5 -20z" />
    <glyph glyph-name="colon" unicode=":" horiz-adv-x="256" 
d="M135 302q-38 0 -66.5 28t-28.5 66t28.5 66t66.5 28t66 -28t28 -66t-28 -66t-66 -28zM135 -11q-38 0 -66.5 28t-28.5 66q0 37 28.5 65t66.5 28t66 -27.5t28 -65.5t-28 -66t-66 -28z" />
    <glyph glyph-name="semicolon" unicode=";" horiz-adv-x="268" 
d="M135 302q-38 0 -66.5 28.5t-28.5 66.5t28.5 65.5t66.5 27.5t66 -27.5t28 -65.5t-28 -66.5t-66 -28.5zM234 66q0 -123 -114 -203l-64 52q25 13 51 41t34 54q-12 -3 -23 -3q-33 0 -55.5 23t-22.5 59q0 38 27 65t65 27q42 0 72 -31t30 -84z" />
    <glyph glyph-name="less" unicode="&#x3c;" 
d="M478 90l-449 189v111l449 190v-109l-344 -137l344 -135v-109z" />
    <glyph glyph-name="equal" unicode="=" 
d="M478 381h-449v92h449v-92zM478 195h-449v92h449v-92z" />
    <glyph glyph-name="greater" unicode="&#x3e;" 
d="M478 279l-449 -189v109l345 135l-345 137v109l449 -190v-111z" />
    <glyph glyph-name="question" unicode="?" horiz-adv-x="395" 
d="M385 438q0 -38 -20.5 -67t-45.5 -43.5t-45.5 -31.5t-20.5 -32q0 -18 14 -31l-122 -29q-23 24 -23 64q0 28 16.5 50.5t37 33.5t37 24t16.5 25q0 29 -48 29q-63 0 -105 -45l-74 96q74 80 195 80q85 0 136.5 -35t51.5 -88zM293 83q0 -38 -28 -66t-66 -28t-66 28t-28 66
t28 65.5t66 27.5t66 -27.5t28 -65.5z" />
    <glyph glyph-name="at" unicode="@" horiz-adv-x="783" 
d="M352 -70q-136 0 -226.5 90.5t-90.5 223.5q0 158 120 276t277 118q141 0 228 -87.5t87 -213.5q0 -62 -20 -112t-52 -79.5t-68 -45t-70 -15.5q-43 0 -68 20t-32 50l-2 7q-26 -37 -62.5 -57t-73.5 -20q-73 0 -115 48t-42 123q0 97 67.5 169.5t154.5 72.5q84 0 124 -62l9 48
h136l-49 -230q-2 -10 -2 -25q0 -42 32 -42q33 0 60 39.5t27 111.5q0 117 -74 187.5t-199 70.5q-141 0 -246 -104.5t-105 -244.5q0 -118 79.5 -197t200.5 -79q94 0 180 54l23 -32q-98 -63 -208 -63zM355 192q52 0 92 53l22 106q-22 40 -70 40q-51 0 -84 -37t-33 -86
q0 -35 19.5 -55.5t53.5 -20.5z" />
    <glyph glyph-name="A" unicode="A" horiz-adv-x="697" 
d="M708 0h-195l-33 96h-263l-33 -96h-195l251 667h217zM433 246l-84 251l-85 -251h169z" />
    <glyph glyph-name="B" unicode="B" horiz-adv-x="680" 
d="M450 0h-390v667h378q94 0 144.5 -50.5t50.5 -119.5q0 -60 -32.5 -101t-81.5 -52q54 -8 90.5 -54.5t36.5 -108.5q0 -77 -51 -129t-145 -52zM399 413q27 0 43 14t16 38t-16.5 38t-42.5 14h-167v-104h167zM405 150q31 0 48.5 15t17.5 42q0 25 -17.5 40.5t-48.5 15.5h-173
v-113h173z" />
    <glyph glyph-name="C" unicode="C" horiz-adv-x="692" 
d="M387 -12q-155 0 -258 96.5t-103 248.5q0 153 102.5 249t258.5 96q111 0 182 -51t109 -127l-148 -71q-17 41 -56.5 69t-86.5 28q-81 0 -133.5 -55t-52.5 -138q0 -82 52.5 -137.5t133.5 -55.5q47 0 86.5 28t56.5 69l148 -70q-38 -76 -109.5 -127.5t-181.5 -51.5z" />
    <glyph glyph-name="D" unicode="D" horiz-adv-x="727" 
d="M341 0h-281v667h280q160 0 260.5 -90t100.5 -243t-100.5 -243.5t-259.5 -90.5zM340 150q85 0 135 53.5t50 130.5q0 81 -48 132t-136 51h-109v-367h108z" />
    <glyph glyph-name="E" unicode="E" horiz-adv-x="589" 
d="M549 0h-489v667h489v-150h-317v-104h310v-150h-310v-113h317v-150z" />
    <glyph glyph-name="F" unicode="F" horiz-adv-x="582" 
d="M232 0h-172v667h489v-150h-317v-104h310v-150h-310v-263z" />
    <glyph glyph-name="G" unicode="G" horiz-adv-x="723" 
d="M387 -12q-153 0 -257 95t-104 250t104 250t257 95q104 0 175 -46t110 -116l-144 -75q-20 36 -57.5 60.5t-83.5 24.5q-81 0 -133.5 -55t-52.5 -138q0 -82 52.5 -137.5t133.5 -55.5q35 0 69.5 12t53.5 28v52h-150v151h322v-265q-117 -130 -295 -130z" />
    <glyph glyph-name="H" unicode="H" horiz-adv-x="741" 
d="M681 0h-172v268h-277v-268h-172v667h172v-249h277v249h172v-667z" />
    <glyph glyph-name="I" unicode="I" horiz-adv-x="292" 
d="M232 0h-172v667h172v-667z" />
    <glyph glyph-name="J" unicode="J" horiz-adv-x="492" 
d="M186 -12q-115 0 -183 60l72 131q47 -39 96 -39q41 0 65 24.5t24 66.5v436h172v-438q0 -120 -66 -180.5t-180 -60.5z" />
    <glyph glyph-name="K" unicode="K" horiz-adv-x="654" 
d="M663 0h-211l-175 251l-45 -56v-195h-172v667h172v-274l205 274h212l-259 -312z" />
    <glyph glyph-name="L" unicode="L" horiz-adv-x="525" 
d="M497 0h-440v667h172v-517h268v-150z" />
    <glyph glyph-name="M" unicode="M" horiz-adv-x="877" 
d="M817 0h-172v441l-168 -441h-76l-169 441v-441h-172v667h239l140 -368l139 368h239v-667z" />
    <glyph glyph-name="N" unicode="N" horiz-adv-x="740" 
d="M680 0h-166l-282 386v-386h-172v667h177l270 -367v367h173v-667z" />
    <glyph glyph-name="O" unicode="O" horiz-adv-x="766" 
d="M383 -12q-154 0 -255.5 97t-101.5 248t101.5 248t255.5 97t255 -97t101 -248t-101 -248t-255 -97zM383 140q81 0 131 55t50 138t-50 138t-131 55t-131.5 -55t-50.5 -138t50.5 -138t131.5 -55z" />
    <glyph glyph-name="P" unicode="P" horiz-adv-x="643" 
d="M232 0h-172v667h334q108 0 170 -63.5t62 -158.5q0 -94 -62 -157.5t-170 -63.5h-162v-224zM368 374q36 0 59.5 19t23.5 52t-23.5 52.5t-59.5 19.5h-136v-143h136z" />
    <glyph glyph-name="Q" unicode="Q" horiz-adv-x="766" 
d="M383 -12q-154 0 -255.5 97t-101.5 248t101.5 248t255.5 97t255 -97t101 -248q0 -137 -84 -231l42 -51l-119 -96l-50 60q-70 -27 -145 -27zM383 140q22 0 39 4l-61 74l119 96l63 -76q21 45 21 95q0 83 -50 138t-131 55t-131.5 -55t-50.5 -138t50.5 -138t131.5 -55z" />
    <glyph glyph-name="R" unicode="R" horiz-adv-x="661" 
d="M629 0h-197l-112 224h-88v-224h-172v667h334q108 0 170 -63t62 -159q0 -80 -39 -130.5t-94 -69.5zM368 374q36 0 59.5 19t23.5 53q0 33 -23.5 52t-59.5 19h-136v-143h136z" />
    <glyph glyph-name="S" unicode="S" horiz-adv-x="606" 
d="M308 -12q-183 0 -296 106l91 134q88 -88 214 -88q44 0 69 14t25 39q0 20 -28 33t-70 19.5t-90.5 20.5t-90.5 33.5t-70 62.5t-28 103q0 89 71 150.5t194 61.5q163 0 271 -93l-94 -129q-83 70 -195 70q-72 0 -72 -46q0 -22 39 -35t94.5 -24.5t110.5 -30t94 -64t39 -114.5
q0 -102 -73 -162.5t-205 -60.5z" />
    <glyph glyph-name="T" unicode="T" horiz-adv-x="589" 
d="M381 0h-172v517h-187v150h545v-150h-186v-517z" />
    <glyph glyph-name="U" unicode="U" horiz-adv-x="750" 
d="M376 -12q-155 0 -235.5 77t-80.5 205v397h175v-391q0 -61 36.5 -98.5t104.5 -37.5q67 0 103.5 37.5t36.5 98.5v391h174v-396q0 -130 -79.5 -206.5t-234.5 -76.5z" />
    <glyph glyph-name="V" unicode="V" horiz-adv-x="697" 
d="M457 0h-217l-251 667h195l165 -481l164 481h195z" />
    <glyph glyph-name="W" unicode="W" horiz-adv-x="936" 
d="M751 0h-182l-101 418l-101 -418h-182l-191 667h193l101 -445l114 445h132l114 -445l100 445h194z" />
    <glyph glyph-name="X" unicode="X" horiz-adv-x="676" 
d="M686 0h-203l-145 224l-145 -224h-203l232 342l-217 325h203l130 -209l129 209h204l-217 -324z" />
    <glyph glyph-name="Y" unicode="Y" horiz-adv-x="655" 
d="M414 0h-172v269l-253 398h194l145 -246l143 246h195l-252 -398v-269z" />
    <glyph glyph-name="Z" unicode="Z" horiz-adv-x="596" 
d="M557 0h-518v137l284 380h-284v150h511v-136l-285 -381h292v-150z" />
    <glyph glyph-name="bracketleft" unicode="[" horiz-adv-x="299" 
d="M281 -190h-230v868h230v-99h-122v-670h122v-99z" />
    <glyph glyph-name="backslash" unicode="\" horiz-adv-x="346" 
d="M237 -20l-237 707h109l237 -707h-109z" />
    <glyph glyph-name="bracketright" unicode="]" horiz-adv-x="299" 
d="M248 -190h-230v99h122v670h-122v99h230v-868z" />
    <glyph glyph-name="asciicircum" unicode="^" horiz-adv-x="445" 
d="M426 333h-109l-94 231l-93 -231h-111l149 334h111z" />
    <glyph glyph-name="underscore" unicode="_" horiz-adv-x="564" 
d="M567 -139h-570v99h570v-99z" />
    <glyph glyph-name="grave" unicode="`" horiz-adv-x="263" 
d="M263 556h-104l-159 144h136z" />
    <glyph glyph-name="a" unicode="a" horiz-adv-x="609" 
d="M208 550h194l218 -550h-178l-28 76h-219l-27 -76h-179zM369 214l-64 177l-65 -177h129z" />
    <glyph glyph-name="b" unicode="b" horiz-adv-x="602" 
d="M398 0h-342v550h331q83 0 128 -42t45 -99q0 -47 -26.5 -80t-67.5 -45q46 -10 76 -47t30 -87q0 -64 -45.5 -107t-128.5 -43zM366 138q20 0 32 9.5t12 26.5q0 15 -12 25.5t-32 10.5h-150v-72h150zM361 348q16 0 26.5 9t10.5 23t-10.5 23t-26.5 9h-145v-64h145z" />
    <glyph glyph-name="c" unicode="c" horiz-adv-x="587" 
d="M327 -12q-132 0 -217 80.5t-85 206.5q0 127 85 207t217 80q90 0 152.5 -43.5t94.5 -110.5l-133 -62q-15 33 -45.5 54.5t-68.5 21.5q-62 0 -101.5 -42t-39.5 -105t39.5 -105t101.5 -42q38 0 68.5 21t45.5 54l133 -61q-31 -66 -94 -110t-153 -44z" />
    <glyph glyph-name="d" unicode="d" horiz-adv-x="632" 
d="M304 0h-248v550h247q139 0 221.5 -74t82.5 -201t-82.5 -201t-220.5 -74zM303 138q69 0 106 39.5t37 97.5q0 61 -35 99t-107 38h-88v-274h87z" />
    <glyph glyph-name="e" unicode="e" horiz-adv-x="525" 
d="M488 0h-432v550h432v-138h-272v-64h266v-138h-266v-72h272v-138z" />
    <glyph glyph-name="f" unicode="f" horiz-adv-x="517" 
d="M216 0h-160v550h432v-138h-272v-64h266v-138h-266v-210z" />
    <glyph glyph-name="g" unicode="g" horiz-adv-x="611" 
d="M330 -12q-131 0 -218 79.5t-87 207.5q0 130 86.5 208.5t218.5 78.5q79 0 140 -36.5t93 -89.5l-130 -73q-36 59 -103 59q-64 0 -104 -41.5t-40 -105.5q0 -63 40 -105.5t104 -42.5q52 0 88 30v34h-111v130h270v-224q-102 -109 -247 -109z" />
    <glyph glyph-name="h" unicode="h" horiz-adv-x="658" 
d="M602 0h-159v212h-227v-212h-160v550h160v-200h227v200h159v-550z" />
    <glyph glyph-name="i" unicode="i" horiz-adv-x="272" 
d="M216 0h-160v550h160v-550z" />
    <glyph glyph-name="j" unicode="j" horiz-adv-x="438" 
d="M157 -12q-94 0 -155 55l60 121q38 -36 82 -36q36 0 57 20t21 54v348h160v-363q0 -100 -59.5 -149.5t-165.5 -49.5z" />
    <glyph glyph-name="k" unicode="k" horiz-adv-x="582" 
d="M588 0h-192l-148 200l-32 -38v-162h-160v550h160v-211l167 211h193l-224 -257z" />
    <glyph glyph-name="l" unicode="l" horiz-adv-x="474" 
d="M446 0h-390v550h160v-412h230v-138z" />
    <glyph glyph-name="m" unicode="m" horiz-adv-x="775" 
d="M719 0h-159v336l-135 -336h-74l-135 336v-336h-160v550h211l121 -303l120 303h211v-550z" />
    <glyph glyph-name="n" unicode="n" horiz-adv-x="657" 
d="M600 0h-163l-222 303v-303h-159v550h173l212 -289v289h159v-550z" />
    <glyph glyph-name="o" unicode="o" horiz-adv-x="651" 
d="M325 -12q-132 0 -216 81t-84 206t84 206t216 81t216.5 -81t84.5 -206t-84.5 -206t-216.5 -81zM325 128q63 0 101 42t38 105t-38 105t-101 42q-62 0 -100.5 -42t-38.5 -105t38.5 -105t100.5 -42z" />
    <glyph glyph-name="p" unicode="p" horiz-adv-x="569" 
d="M216 0h-160v550h299q92 0 146 -54t54 -133q0 -80 -52.5 -133.5t-147.5 -53.5h-139v-176zM336 314q26 0 41.5 14t15.5 35q0 22 -15.5 35.5t-41.5 13.5h-120v-98h120z" />
    <glyph glyph-name="q" unicode="q" horiz-adv-x="651" 
d="M325 -12q-132 0 -216 81t-84 206t84 206t216 81t216.5 -81t84.5 -206q0 -116 -73 -195l36 -42l-95 -75l-41 49q-61 -24 -128 -24zM325 128q15 0 29 3l-41 50l93 75l43 -52q15 35 15 71q0 63 -38 105t-101 42q-62 0 -100.5 -42t-38.5 -105t38.5 -105t100.5 -42z" />
    <glyph glyph-name="r" unicode="r" horiz-adv-x="588" 
d="M558 0h-180l-92 176h-70v-176h-160v550h299q92 0 146 -54t54 -133q0 -70 -35 -113t-81 -57zM336 314q26 0 41.5 14t15.5 35q0 22 -15.5 35.5t-41.5 13.5h-120v-98h120z" />
    <glyph glyph-name="s" unicode="s" horiz-adv-x="522" 
d="M258 -12q-156 0 -248 81l70 125q31 -29 82 -50t102 -21q80 0 80 41q0 18 -32.5 27.5t-78.5 18.5t-92.5 24t-79 53t-32.5 97q0 73 63.5 125.5t167.5 52.5q142 0 235 -79l-73 -115q-31 26 -77.5 42.5t-85.5 16.5q-33 0 -50.5 -10.5t-17.5 -27.5q0 -16 32.5 -25t78.5 -17.5
t92.5 -24t79 -53.5t32.5 -97q0 -86 -65.5 -135t-182.5 -49z" />
    <glyph glyph-name="t" unicode="t" horiz-adv-x="494" 
d="M327 0h-159v412h-150v138h458v-138h-149v-412z" />
    <glyph glyph-name="u" unicode="u" horiz-adv-x="657" 
d="M329 -12q-134 0 -203.5 63.5t-69.5 169.5v329h161v-314q0 -48 29.5 -78t82.5 -30q52 0 81.5 30t29.5 78v314h161v-328q0 -107 -69 -170.5t-203 -63.5z" />
    <glyph glyph-name="v" unicode="v" horiz-adv-x="609" 
d="M402 0h-194l-219 550h181l135 -378l137 378h178z" />
    <glyph glyph-name="w" unicode="w" horiz-adv-x="814" 
d="M655 0h-166l-82 322l-82 -322h-166l-165 550h178l81 -343l93 343h122l93 -343l82 343h178z" />
    <glyph glyph-name="x" unicode="x" horiz-adv-x="593" 
d="M603 0h-186l-121 177l-120 -177h-187l202 282l-188 268h186l107 -163l107 163h186l-188 -267z" />
    <glyph glyph-name="y" unicode="y" horiz-adv-x="574" 
d="M367 0h-158v223l-220 327h179l121 -194l118 194h178l-218 -327v-223z" />
    <glyph glyph-name="z" unicode="z" horiz-adv-x="527" 
d="M493 0h-459v114l231 296h-231v140h453v-114l-231 -296h237v-140z" />
    <glyph glyph-name="braceleft" unicode="{" horiz-adv-x="302" 
d="M285 -190h-60q-70 0 -120 47t-50 125v155q0 29 -13.5 47.5t-38.5 18.5v82q25 0 38.5 18.5t13.5 47.5v155q0 77 50 124.5t120 47.5h60v-99h-60q-26 0 -44 -20t-18 -53v-172q0 -70 -46 -90q46 -20 46 -90v-172q0 -32 18 -52.5t44 -20.5h60v-99z" />
    <glyph glyph-name="bar" unicode="|" horiz-adv-x="219" 
d="M159 -20h-99v707h99v-707z" />
    <glyph glyph-name="braceright" unicode="}" horiz-adv-x="302" 
d="M17 -190v99h60q26 0 44 20.5t18 52.5v172q0 70 46 90q-46 20 -46 90v172q0 33 -18 53t-44 20h-60v99h60q70 0 120 -47.5t50 -124.5v-155q0 -29 13.5 -47.5t38.5 -18.5v-82q-25 0 -38.5 -18.5t-13.5 -47.5v-155q0 -78 -50 -125t-120 -47h-60z" />
    <glyph glyph-name="asciitilde" unicode="~" horiz-adv-x="514" 
d="M388 667l101 -12q-4 -52 -12 -90.5t-24 -77t-46 -59.5t-72 -21q-45 0 -72.5 26.5t-35.5 58t-19.5 58t-27.5 26.5q-38 0 -52 -170l-102 12q3 40 8 72t16.5 66.5t27.5 57.5t42 38t60 15q45 0 72.5 -26.5t35.5 -58.5t19.5 -58.5t27.5 -26.5q40 0 53 170z" />
    <glyph glyph-name="uni00A0" unicode="&#xa0;" horiz-adv-x="256" 
 />
    <glyph glyph-name="exclamdown" unicode="&#xa1;" horiz-adv-x="214" 
d="M26 0l19 325h125l21 -325h-165zM15 468q0 38 27.5 65.5t65.5 27.5t65.5 -27.5t27.5 -65.5t-27.5 -66t-65.5 -28t-65.5 28t-27.5 66z" />
    <glyph glyph-name="cent" unicode="&#xa2;" horiz-adv-x="587" 
d="M268 -79v72q-109 17 -176 94t-67 188t67 187.5t176 94.5v69h110v-68q70 -12 119.5 -53t76.5 -97l-133 -62q-21 46 -63 65v-272q42 20 63 64l133 -61q-26 -56 -76 -97t-120 -52v-72h-110zM186 275q0 -46 22 -82t60 -53v270q-38 -17 -60 -53t-22 -82z" />
    <glyph glyph-name="sterling" unicode="&#xa3;" horiz-adv-x="462" 
d="M16 225v79h36q-20 42 -20 77q0 79 62.5 129.5t142.5 50.5q149 0 205 -100l-117 -63q-20 51 -70 51q-28 0 -46.5 -19.5t-18.5 -51.5t20 -74h121v-79h-89q2 -14 2 -20q0 -24 -11.5 -45.5t-25.5 -29.5q9 4 19 4q24 0 53.5 -10.5t47.5 -10.5q43 0 66 28l58 -108
q-40 -43 -130 -43q-38 0 -82.5 16t-67.5 16q-35 0 -89 -29l-49 94q78 36 78 80q0 22 -17 58h-78z" />
    <glyph glyph-name="yen" unicode="&#xa5;" horiz-adv-x="574" 
d="M367 0h-158v105h-183v78h183v39h-183v78h131l-168 250h179l121 -194l118 194h178l-167 -250h128v-78h-179v-39h179v-78h-179v-105z" />
    <glyph glyph-name="brokenbar" unicode="&#xa6;" horiz-adv-x="219" 
d="M159 -20h-99v316h99v-316zM159 371h-99v316h99v-316z" />
    <glyph glyph-name="section" unicode="&#xa7;" horiz-adv-x="492" 
d="M461 331q0 -40 -21 -74t-59 -54q80 -37 80 -123q0 -75 -61.5 -118t-157.5 -43q-132 0 -224 79l61 97q29 -28 74 -49.5t89 -21.5q72 0 72 42q0 22 -29 34.5t-70 21t-82.5 22t-70.5 47t-29 86.5q0 45 27.5 77t61.5 46q-89 38 -89 128q0 65 58.5 107t147.5 42q128 0 202 -66
l-58 -91q-57 52 -136 52q-66 0 -66 -41q0 -19 29 -29.5t70 -18t82 -20.5t70 -46t29 -86zM310 300q0 47 -69 63q-60 -13 -60 -61q0 -47 82 -63q47 19 47 61z" />
    <glyph glyph-name="dieresis" unicode="&#xa8;" horiz-adv-x="306" 
d="M339 615q0 -33 -23 -56t-56 -23q-32 0 -55 23t-23 56q0 32 23 55t55 23q33 0 56 -23t23 -55zM125 615q0 -33 -23 -56t-56 -23q-32 0 -55 23t-23 56q0 32 23 55t55 23q33 0 56 -23t23 -55z" />
    <glyph glyph-name="copyright" unicode="&#xa9;" horiz-adv-x="778" 
d="M734 334q0 -143 -101 -244t-244 -101t-244 101.5t-101 243.5q0 143 101 244t244 101t244 -101t101 -244zM695 334q0 127 -89.5 216.5t-216.5 89.5q-126 0 -216 -89.5t-90 -216.5q0 -126 90 -216t216 -90q127 0 216.5 90t89.5 216zM511 226l35 -33q-59 -69 -150 -69
q-87 0 -147.5 60t-60.5 151q0 90 60.5 149.5t147.5 59.5q92 0 149 -67l-34 -34q-43 58 -115 58q-66 0 -112 -47t-46 -119q0 -71 46 -119.5t112 -48.5q71 0 115 59z" />
    <glyph glyph-name="ordfeminine" unicode="&#xaa;" horiz-adv-x="389" 
d="M343 326h-109v31q-32 -39 -99 -39q-43 0 -76.5 27t-33.5 76t33.5 75t76.5 26q68 0 99 -35v31q0 22 -16.5 35.5t-46.5 13.5q-50 0 -89 -39l-39 71q61 49 147 49q153 0 153 -132v-190zM181 385q37 0 53 24v25q-15 23 -53 23q-48 0 -48 -36t48 -36z" />
    <glyph glyph-name="guillemotleft" unicode="&#xab;" horiz-adv-x="571" 
d="M541 63h-139l-160 180l160 177h139l-160 -177zM329 63h-139l-160 180l160 177h139l-160 -177z" />
    <glyph glyph-name="logicalnot" unicode="&#xac;" horiz-adv-x="521" 
d="M478 473v-278h-94v186h-355v92h449z" />
    <glyph glyph-name="registered" unicode="&#xae;" horiz-adv-x="494" 
d="M459 465q0 -88 -62 -150t-150 -62t-150 62t-62 150t62 150t150 62q89 0 150.5 -61.5t61.5 -150.5zM426 465q0 75 -52.5 127t-126.5 52t-126.5 -52t-52.5 -127q0 -74 52.5 -126.5t126.5 -52.5t126.5 52.5t52.5 126.5zM348 343h-44l-63 96h-40v-96h-36v243h99
q32 0 56.5 -21t24.5 -53q0 -35 -22.5 -53.5t-39.5 -18.5zM308 512q0 19 -13.5 31.5t-30.5 12.5h-63v-86h63q17 0 30.5 12t13.5 30z" />
    <glyph glyph-name="macron" unicode="&#xaf;" horiz-adv-x="363" 
d="M363 591h-363v85h363v-85z" />
    <glyph glyph-name="degree" unicode="&#xb0;" horiz-adv-x="321" 
d="M302 535q0 -59 -41.5 -100.5t-100.5 -41.5t-100 41.5t-41 100.5t41.5 100.5t99.5 41.5t100 -41.5t42 -100.5zM223 535q0 25 -18.5 44t-44.5 19q-25 0 -43 -18.5t-18 -44.5q0 -25 17.5 -43t43.5 -18t44.5 18t18.5 43z" />
    <glyph glyph-name="plusminus" unicode="&#xb1;" 
d="M478 327h-174v-198h-101v198h-174v92h174v190h101v-190h174v-92zM478 0h-449v92h449v-92z" />
    <glyph glyph-name="twosuperior" unicode="&#xb2;" horiz-adv-x="402" 
d="M370 421h-326v83q134 94 171.5 127.5t37.5 58.5q0 22 -16 34.5t-43 12.5q-32 0 -61.5 -15t-45.5 -34l-58 72q62 67 168 67q77 0 123.5 -34t46.5 -94q0 -43 -35.5 -85t-122.5 -103h161v-90z" />
    <glyph glyph-name="threesuperior" unicode="&#xb3;" horiz-adv-x="402" 
d="M373 533q0 -53 -47.5 -86t-125.5 -33q-116 0 -172 63l54 74q46 -47 113 -47q31 0 48 10.5t17 26.5q0 23 -20.5 31t-60.5 8q-41 0 -47 -1v88q9 -1 46 -1q40 0 57.5 8t17.5 28q0 35 -65 35q-62 0 -104 -42l-51 67q60 65 167 65q80 0 123 -30t43 -80q0 -33 -25.5 -58.5
t-63.5 -31.5q37 -3 66.5 -28.5t29.5 -65.5z" />
    <glyph glyph-name="acute" unicode="&#xb4;" horiz-adv-x="263" 
d="M263 700l-159 -144h-104l127 144h136z" />
    <glyph glyph-name="mu" unicode="&#xb5;" horiz-adv-x="592" 
d="M210 -184h-154v667h154v-289q4 -70 80 -70q55 0 92 47v312h154v-483h-154v58q-62 -70 -167 -70h-5v-172z" />
    <glyph glyph-name="paragraph" unicode="&#xb6;" horiz-adv-x="449" 
d="M415 -100h-71v696h-74v-696h-71v423q-71 0 -121.5 50.5t-50.5 121.5t50.5 121.5t121.5 50.5h216v-767z" />
    <glyph glyph-name="periodcentered" unicode="&#xb7;" horiz-adv-x="270" 
d="M228 244q0 -38 -27.5 -65.5t-65.5 -27.5t-66 27.5t-28 65.5t28 66t66 28t65.5 -28t27.5 -66z" />
    <glyph glyph-name="cedilla" unicode="&#xb8;" horiz-adv-x="229" 
d="M114 -198q-73 0 -114 33l28 58q41 -30 82 -30q19 0 33 7.5t14 20.5q0 22 -25 22q-18 0 -29 -13l-52 30l30 81h71l-25 -60q17 10 34 10q28 0 48 -20.5t20 -51.5q0 -40 -33 -63.5t-82 -23.5z" />
    <glyph glyph-name="onesuperior" unicode="&#xb9;" horiz-adv-x="311" 
d="M251 421h-114v255l-69 -69l-64 68l149 146h98v-400z" />
    <glyph glyph-name="ordmasculine" unicode="&#xba;" horiz-adv-x="405" 
d="M202 318q-80 0 -128.5 48t-48.5 117t48.5 117t128.5 48q81 0 129.5 -48t48.5 -117t-48.5 -117t-129.5 -48zM202 405q31 0 48.5 20.5t17.5 57.5t-17.5 56.5t-48.5 19.5q-64 0 -64 -76q0 -37 17 -57.5t47 -20.5z" />
    <glyph glyph-name="guillemotright" unicode="&#xbb;" horiz-adv-x="571" 
d="M329 243l-160 -180h-139l160 180l-160 177h139zM541 243l-160 -180h-139l160 180l-160 177h139z" />
    <glyph glyph-name="onequarter" unicode="&#xbc;" horiz-adv-x="865" 
d="M667 667l-428 -667h-86l426 667h88zM847 78h-50v-78h-113v78h-197v77l150 245h160v-233h50v-89zM684 167v138l-85 -138h85zM251 267h-114v255l-69 -69l-64 68l149 146h98v-400z" />
    <glyph glyph-name="onehalf" unicode="&#xbd;" horiz-adv-x="897" 
d="M667 667l-428 -667h-86l426 667h88zM865 0h-326v83q134 94 171.5 127.5t37.5 58.5q0 22 -16 34.5t-43 12.5q-31 0 -61 -15t-46 -34l-58 72q62 67 168 67q77 0 123.5 -34t46.5 -94q0 -43 -35.5 -85t-122.5 -103h161v-90zM251 267h-114v255l-69 -69l-64 68l149 146h98v-400
z" />
    <glyph glyph-name="threequarters" unicode="&#xbe;" horiz-adv-x="942" 
d="M744 667l-428 -667h-86l426 667h88zM924 78h-50v-78h-113v78h-197v77l150 245h160v-233h50v-89zM761 167v138l-85 -138h85zM373 379q0 -53 -47.5 -86t-125.5 -33q-116 0 -172 63l54 74q46 -47 113 -47q31 0 48 10.5t17 26.5q0 23 -20.5 31t-60.5 8q-41 0 -47 -1v88
q9 -1 46 -1q40 0 57.5 8t17.5 28q0 35 -65 35q-62 0 -104 -42l-51 67q60 65 167 65q80 0 123 -30t43 -80q0 -33 -25.5 -58.5t-63.5 -31.5q37 -3 66.5 -28.5t29.5 -65.5z" />
    <glyph glyph-name="questiondown" unicode="&#xbf;" horiz-adv-x="395" 
d="M10 112q0 38 20.5 67t45.5 43.5t45.5 31.5t20.5 32q0 18 -14 31l122 29q23 -24 23 -64q0 -28 -16.5 -50.5t-37 -33.5t-37 -24t-16.5 -25q0 -29 48 -29q63 0 105 45l74 -96q-74 -80 -195 -80q-85 0 -136.5 35t-51.5 88zM102 467q0 38 28 66t66 28t66 -28t28 -66t-28 -65.5
t-66 -27.5t-66 27.5t-28 65.5z" />
    <glyph glyph-name="Agrave" unicode="&#xc0;" horiz-adv-x="697" 
d="M440 728h-104l-159 144h136zM708 0h-195l-33 96h-263l-33 -96h-195l251 667h217zM433 246l-84 251l-85 -251h169z" />
    <glyph glyph-name="Aacute" unicode="&#xc1;" horiz-adv-x="697" 
d="M523 872l-159 -144h-104l127 144h136zM708 0h-195l-33 96h-263l-33 -96h-195l251 667h217zM433 246l-84 251l-85 -251h169z" />
    <glyph glyph-name="Acircumflex" unicode="&#xc2;" horiz-adv-x="697" 
d="M509 728h-92l-69 81l-65 -81h-92l90 144h135zM708 0h-195l-33 96h-263l-33 -96h-195l251 667h217zM433 246l-84 251l-85 -251h169z" />
    <glyph glyph-name="Atilde" unicode="&#xc3;" horiz-adv-x="697" 
d="M403 726q-28 0 -49 14t-36.5 27.5t-27.5 13.5q-30 0 -30 -49h-78q0 134 113 134q28 0 49 -14t36.5 -27.5t27.5 -13.5q30 0 30 49h78q0 -134 -113 -134zM708 0h-195l-33 96h-263l-33 -96h-195l251 667h217zM433 246l-84 251l-85 -251h169z" />
    <glyph glyph-name="Adieresis" unicode="&#xc4;" horiz-adv-x="697" 
d="M534 790q0 -33 -23 -56t-56 -23q-32 0 -55 23t-23 56q0 32 23 55t55 23q33 0 56 -23t23 -55zM320 790q0 -33 -23 -56t-56 -23q-32 0 -55 23t-23 56q0 32 23 55t55 23q33 0 56 -23t23 -55zM708 0h-195l-33 96h-263l-33 -96h-195l251 667h217zM433 246l-84 251l-85 -251
h169z" />
    <glyph glyph-name="Aring" unicode="&#xc5;" horiz-adv-x="697" 
d="M350 693q-45 0 -77 32.5t-32 76.5t32 76.5t77 32.5q44 0 75.5 -32.5t31.5 -76.5t-31.5 -76.5t-75.5 -32.5zM350 761q16 0 28 12t12 29t-12 29t-28 12q-17 0 -29 -12t-12 -29t12 -29t29 -12zM708 0h-195l-33 96h-263l-33 -96h-195l251 667h217zM433 246l-84 251l-85 -251
h169z" />
    <glyph glyph-name="AE" unicode="&#xc6;" horiz-adv-x="979" 
d="M943 0h-489v96h-221l-54 -96h-196l400 667h560v-150h-317v-104h310v-150h-310v-113h317v-150zM454 246v251l-141 -251h141z" />
    <glyph glyph-name="Ccedilla" unicode="&#xc7;" horiz-adv-x="692" 
d="M381 -194q-73 0 -114 33l28 58q41 -30 82 -30q19 0 33 7.5t14 20.5q0 22 -25 22q-18 0 -29 -13l-52 30l21 57q-138 15 -225.5 108.5t-87.5 233.5q0 153 102.5 249t258.5 96q111 0 182 -51t109 -127l-148 -71q-17 41 -56.5 69t-86.5 28q-81 0 -133.5 -55t-52.5 -138
q0 -82 52.5 -137.5t133.5 -55.5q47 0 86.5 28t56.5 69l148 -70q-23 -45 -55.5 -81t-89 -64.5t-125.5 -32.5l-14 -34q17 10 34 10q28 0 48 -20.5t20 -51.5q0 -40 -33 -63.5t-82 -23.5z" />
    <glyph glyph-name="Egrave" unicode="&#xc8;" horiz-adv-x="589" 
d="M395 728h-104l-159 144h136zM549 0h-489v667h489v-150h-317v-104h310v-150h-310v-113h317v-150z" />
    <glyph glyph-name="Eacute" unicode="&#xc9;" horiz-adv-x="589" 
d="M478 872l-159 -144h-104l127 144h136zM549 0h-489v667h489v-150h-317v-104h310v-150h-310v-113h317v-150z" />
    <glyph glyph-name="Ecircumflex" unicode="&#xca;" horiz-adv-x="589" 
d="M464 728h-92l-69 81l-65 -81h-92l90 144h135zM549 0h-489v667h489v-150h-317v-104h310v-150h-310v-113h317v-150z" />
    <glyph glyph-name="Edieresis" unicode="&#xcb;" horiz-adv-x="589" 
d="M492 790q0 -33 -23 -56t-56 -23q-32 0 -55 23t-23 56q0 32 23 55t55 23q33 0 56 -23t23 -55zM278 790q0 -33 -23 -56t-56 -23q-32 0 -55 23t-23 56q0 32 23 55t55 23q33 0 56 -23t23 -55zM549 0h-489v667h489v-150h-317v-104h310v-150h-310v-113h317v-150z" />
    <glyph glyph-name="Igrave" unicode="&#xcc;" horiz-adv-x="292" 
d="M235 728h-104l-159 144h136zM232 0h-172v667h172v-667z" />
    <glyph glyph-name="Iacute" unicode="&#xcd;" horiz-adv-x="292" 
d="M322 872l-159 -144h-104l127 144h136zM232 0h-172v667h172v-667z" />
    <glyph glyph-name="Icircumflex" unicode="&#xce;" horiz-adv-x="292" 
d="M304 728h-92l-69 81l-65 -81h-92l90 144h135zM232 0h-172v667h172v-667z" />
    <glyph glyph-name="Idieresis" unicode="&#xcf;" horiz-adv-x="292" 
d="M332 789q0 -33 -23 -56t-56 -23q-32 0 -55 23t-23 56q0 32 23 55t55 23q33 0 56 -23t23 -55zM118 789q0 -33 -23 -56t-56 -23q-32 0 -55 23t-23 56q0 32 23 55t55 23q33 0 56 -23t23 -55zM232 0h-172v667h172v-667z" />
    <glyph glyph-name="Eth" unicode="&#xd0;" horiz-adv-x="750" 
d="M364 0h-281v265h-75v132h75v270h280q160 0 260.5 -90t100.5 -243t-100.5 -243.5t-259.5 -90.5zM395 265h-140v-115h108q85 0 135 53.5t50 130.5q0 81 -48 132t-136 51h-109v-120h140v-132z" />
    <glyph glyph-name="Ntilde" unicode="&#xd1;" horiz-adv-x="740" 
d="M422 726q-28 0 -49 14t-36.5 27.5t-27.5 13.5q-30 0 -30 -49h-78q0 134 113 134q28 0 49 -14t36.5 -27.5t27.5 -13.5q30 0 30 49h78q0 -134 -113 -134zM680 0h-166l-282 386v-386h-172v667h177l270 -367v367h173v-667z" />
    <glyph glyph-name="Ograve" unicode="&#xd2;" horiz-adv-x="766" 
d="M476 728h-104l-159 144h136zM383 -12q-154 0 -255.5 97t-101.5 248t101.5 248t255.5 97t255 -97t101 -248t-101 -248t-255 -97zM383 140q81 0 131 55t50 138t-50 138t-131 55t-131.5 -55t-50.5 -138t50.5 -138t131.5 -55z" />
    <glyph glyph-name="Oacute" unicode="&#xd3;" horiz-adv-x="766" 
d="M558 872l-159 -144h-104l127 144h136zM383 -12q-154 0 -255.5 97t-101.5 248t101.5 248t255.5 97t255 -97t101 -248t-101 -248t-255 -97zM383 140q81 0 131 55t50 138t-50 138t-131 55t-131.5 -55t-50.5 -138t50.5 -138t131.5 -55z" />
    <glyph glyph-name="Ocircumflex" unicode="&#xd4;" horiz-adv-x="766" 
d="M545 728h-92l-69 81l-65 -81h-92l90 144h135zM383 -12q-154 0 -255.5 97t-101.5 248t101.5 248t255.5 97t255 -97t101 -248t-101 -248t-255 -97zM383 140q81 0 131 55t50 138t-50 138t-131 55t-131.5 -55t-50.5 -138t50.5 -138t131.5 -55z" />
    <glyph glyph-name="Otilde" unicode="&#xd5;" horiz-adv-x="766" 
d="M437 726q-28 0 -49 14t-36.5 27.5t-27.5 13.5q-30 0 -30 -49h-78q0 134 113 134q28 0 49 -14t36.5 -27.5t27.5 -13.5q30 0 30 49h78q0 -134 -113 -134zM383 -12q-154 0 -255.5 97t-101.5 248t101.5 248t255.5 97t255 -97t101 -248t-101 -248t-255 -97zM383 140
q81 0 131 55t50 138t-50 138t-131 55t-131.5 -55t-50.5 -138t50.5 -138t131.5 -55z" />
    <glyph glyph-name="Odieresis" unicode="&#xd6;" horiz-adv-x="766" 
d="M571 790q0 -33 -23 -56t-56 -23q-32 0 -55 23t-23 56q0 32 23 55t55 23q33 0 56 -23t23 -55zM357 790q0 -33 -23 -56t-56 -23q-32 0 -55 23t-23 56q0 32 23 55t55 23q33 0 56 -23t23 -55zM383 -12q-154 0 -255.5 97t-101.5 248t101.5 248t255.5 97t255 -97t101 -248
t-101 -248t-255 -97zM383 140q81 0 131 55t50 138t-50 138t-131 55t-131.5 -55t-50.5 -138t50.5 -138t131.5 -55z" />
    <glyph glyph-name="multiply" unicode="&#xd7;" 
d="M391 132l-137 137l-137 -137l-66 64l138 138l-138 138l66 64l137 -137l137 137l65 -64l-137 -138l137 -138z" />
    <glyph glyph-name="Oslash" unicode="&#xd8;" horiz-adv-x="766" 
d="M383 -12q-106 0 -190 48l-29 -36h-120l75 93q-93 95 -93 240q0 151 101.5 248t255.5 97q97 0 175 -40l24 29h120l-67 -83q104 -98 104 -251q0 -151 -101 -248t-255 -97zM383 140q81 0 131 55t50 138q0 68 -35 119l-235 -290q41 -22 89 -22zM201 333q0 -60 26 -106
l229 284q-33 15 -73 15q-81 0 -131.5 -55t-50.5 -138z" />
    <glyph glyph-name="Ugrave" unicode="&#xd9;" horiz-adv-x="750" 
d="M468 728h-104l-159 144h136zM376 -12q-155 0 -235.5 77t-80.5 205v397h175v-391q0 -61 36.5 -98.5t104.5 -37.5q67 0 103.5 37.5t36.5 98.5v391h174v-396q0 -130 -79.5 -206.5t-234.5 -76.5z" />
    <glyph glyph-name="Uacute" unicode="&#xda;" horiz-adv-x="750" 
d="M551 872l-159 -144h-104l127 144h136zM376 -12q-155 0 -235.5 77t-80.5 205v397h175v-391q0 -61 36.5 -98.5t104.5 -37.5q67 0 103.5 37.5t36.5 98.5v391h174v-396q0 -130 -79.5 -206.5t-234.5 -76.5z" />
    <glyph glyph-name="Ucircumflex" unicode="&#xdb;" horiz-adv-x="750" 
d="M542 728h-92l-69 81l-65 -81h-92l90 144h135zM376 -12q-155 0 -235.5 77t-80.5 205v397h175v-391q0 -61 36.5 -98.5t104.5 -37.5q67 0 103.5 37.5t36.5 98.5v391h174v-396q0 -130 -79.5 -206.5t-234.5 -76.5z" />
    <glyph glyph-name="Udieresis" unicode="&#xdc;" horiz-adv-x="750" 
d="M564 790q0 -33 -23 -56t-56 -23q-32 0 -55 23t-23 56q0 32 23 55t55 23q33 0 56 -23t23 -55zM350 790q0 -33 -23 -56t-56 -23q-32 0 -55 23t-23 56q0 32 23 55t55 23q33 0 56 -23t23 -55zM376 -12q-155 0 -235.5 77t-80.5 205v397h175v-391q0 -61 36.5 -98.5t104.5 -37.5
q67 0 103.5 37.5t36.5 98.5v391h174v-396q0 -130 -79.5 -206.5t-234.5 -76.5z" />
    <glyph glyph-name="Yacute" unicode="&#xdd;" horiz-adv-x="655" 
d="M504 872l-159 -144h-104l127 144h136zM414 0h-172v269l-253 398h194l145 -246l143 246h195l-252 -398v-269z" />
    <glyph glyph-name="Thorn" unicode="&#xde;" horiz-adv-x="643" 
d="M232 0h-172v667h172v-102h162q108 0 170 -64t62 -159t-61.5 -157.5t-170.5 -62.5h-162v-122zM368 273q36 0 59.5 18.5t23.5 51.5t-23.5 52.5t-59.5 19.5h-136v-142h136z" />
    <glyph glyph-name="germandbls" unicode="&#xdf;" horiz-adv-x="1044" 
d="M258 -12q-156 0 -248 81l70 125q31 -29 82 -50t102 -21q80 0 80 41q0 18 -32.5 27.5t-78.5 18.5t-92.5 24t-79 53t-32.5 97q0 73 63.5 125.5t167.5 52.5q142 0 235 -79l-73 -115q-31 26 -77.5 42.5t-85.5 16.5q-33 0 -50.5 -10.5t-17.5 -27.5q0 -16 32.5 -25t78.5 -17.5
t92.5 -24t79 -53.5t32.5 -97q0 -86 -65.5 -135t-182.5 -49zM780 -12q-156 0 -248 81l70 125q31 -29 82 -50t102 -21q80 0 80 41q0 18 -32.5 27.5t-79 18.5t-92.5 24t-78.5 53t-32.5 97q0 73 63.5 125.5t167.5 52.5q142 0 235 -79l-73 -115q-31 26 -77.5 42.5t-85.5 16.5
q-33 0 -50.5 -10.5t-17.5 -27.5q0 -16 32.5 -25t78.5 -17.5t92.5 -24t79 -53.5t32.5 -97q0 -86 -65.5 -135t-182.5 -49z" />
    <glyph glyph-name="agrave" unicode="&#xe0;" horiz-adv-x="609" 
d="M208 550h194l218 -550h-178l-28 76h-219l-27 -76h-179zM369 214l-64 177l-65 -177h129zM395 606h-104l-159 144h136z" />
    <glyph glyph-name="aacute" unicode="&#xe1;" horiz-adv-x="609" 
d="M208 550h194l218 -550h-178l-28 76h-219l-27 -76h-179zM369 214l-64 177l-65 -177h129zM479 750l-159 -144h-104l127 144h136z" />
    <glyph glyph-name="acircumflex" unicode="&#xe2;" horiz-adv-x="609" 
d="M208 550h194l218 -550h-178l-28 76h-219l-27 -76h-179zM369 214l-64 177l-65 -177h129zM465 606h-92l-69 81l-65 -81h-92l90 144h135z" />
    <glyph glyph-name="atilde" unicode="&#xe3;" horiz-adv-x="609" 
d="M208 550h194l218 -550h-178l-28 76h-219l-27 -76h-179zM369 214l-64 177l-65 -177h129zM359 604q-28 0 -49 14t-36.5 27.5t-27.5 13.5q-30 0 -30 -49h-78q0 134 113 134q28 0 49 -14t36.5 -27.5t27.5 -13.5q30 0 30 49h78q0 -134 -113 -134z" />
    <glyph glyph-name="adieresis" unicode="&#xe4;" horiz-adv-x="609" 
d="M208 550h194l218 -550h-178l-28 76h-219l-27 -76h-179zM369 214l-64 177l-65 -177h129zM491 682q0 -33 -23 -56t-56 -23q-32 0 -55 23t-23 56q0 32 23 55t55 23q33 0 56 -23t23 -55zM277 682q0 -33 -23 -56t-56 -23q-32 0 -55 23t-23 56q0 32 23 55t55 23q33 0 56 -23
t23 -55z" />
    <glyph glyph-name="aring" unicode="&#xe5;" horiz-adv-x="609" 
d="M208 550h194l218 -550h-178l-28 76h-219l-27 -76h-179zM369 214l-64 177l-65 -177h129zM306 594q-45 0 -77 32.5t-32 76.5t32 76.5t77 32.5q44 0 75.5 -32.5t31.5 -76.5t-31.5 -76.5t-75.5 -32.5zM306 662q16 0 28 12t12 29t-12 29t-28 12q-17 0 -29 -12t-12 -29t12 -29
t29 -12z" />
    <glyph glyph-name="ae" unicode="&#xe6;" horiz-adv-x="857" 
d="M820 0h-432v76h-177l-44 -76h-179l338 550h494v-138h-272v-64h265v-138h-265v-72h272v-138zM388 214v177l-102 -177h102z" />
    <glyph glyph-name="ccedilla" unicode="&#xe7;" horiz-adv-x="587" 
d="M324 -198q-73 0 -114 33l28 58q41 -30 82 -30q19 0 33 7.5t14 20.5q0 22 -25 22q-18 0 -29 -13l-52 30l22 61q-115 13 -186.5 91t-71.5 193q0 127 85 207t217 80q90 0 152.5 -43.5t94.5 -110.5l-133 -62q-15 33 -45.5 54.5t-68.5 21.5q-62 0 -101.5 -42t-39.5 -105
t39.5 -105t101.5 -42q38 0 68.5 21t45.5 54l133 -61q-29 -61 -85 -103.5t-136 -49.5l-16 -38q17 10 34 10q28 0 48 -20.5t20 -51.5q0 -40 -33 -63.5t-82 -23.5z" />
    <glyph glyph-name="egrave" unicode="&#xe8;" horiz-adv-x="525" 
d="M488 0h-432v550h432v-138h-272v-64h266v-138h-266v-72h272v-138zM363 606h-104l-159 144h136z" />
    <glyph glyph-name="eacute" unicode="&#xe9;" horiz-adv-x="525" 
d="M488 0h-432v550h432v-138h-272v-64h266v-138h-266v-72h272v-138zM447 750l-159 -144h-104l127 144h136z" />
    <glyph glyph-name="ecircumflex" unicode="&#xea;" horiz-adv-x="525" 
d="M488 0h-432v550h432v-138h-272v-64h266v-138h-266v-72h272v-138zM434 606h-92l-69 81l-65 -81h-92l90 144h135z" />
    <glyph glyph-name="edieresis" unicode="&#xeb;" horiz-adv-x="525" 
d="M488 0h-432v550h432v-138h-272v-64h266v-138h-266v-72h272v-138zM459 682q0 -33 -23 -56t-56 -23q-32 0 -55 23t-23 56q0 32 23 55t55 23q33 0 56 -23t23 -55zM245 682q0 -33 -23 -56t-56 -23q-32 0 -55 23t-23 56q0 32 23 55t55 23q33 0 56 -23t23 -55z" />
    <glyph glyph-name="igrave" unicode="&#xec;" horiz-adv-x="267" 
d="M216 0h-160v550h160v-550zM223 606h-104l-159 144h136z" />
    <glyph glyph-name="iacute" unicode="&#xed;" horiz-adv-x="267" 
d="M216 0h-160v550h160v-550zM307 750l-159 -144h-104l127 144h136z" />
    <glyph glyph-name="icircumflex" unicode="&#xee;" horiz-adv-x="267" 
d="M216 0h-160v550h160v-550zM293 606h-92l-69 81l-65 -81h-92l90 144h135z" />
    <glyph glyph-name="idieresis" unicode="&#xef;" horiz-adv-x="267" 
d="M216 0h-160v550h160v-550zM320 682q0 -33 -23 -56t-56 -23q-32 0 -55 23t-23 56q0 32 23 55t55 23q33 0 56 -23t23 -55zM106 682q0 -33 -23 -56t-56 -23q-32 0 -55 23t-23 56q0 32 23 55t55 23q33 0 56 -23t23 -55z" />
    <glyph glyph-name="eth" unicode="&#xf0;" horiz-adv-x="639" 
d="M304 0h-248v222h-48v106h48v222h247q139 0 221.5 -74t82.5 -201t-82.5 -201t-220.5 -74zM320 222h-104v-84h87q69 0 106 39.5t37 97.5q0 61 -35 99t-107 38h-88v-84h104v-106z" />
    <glyph glyph-name="ntilde" unicode="&#xf1;" horiz-adv-x="657" 
d="M600 0h-163l-222 303v-303h-159v550h173l212 -289v289h159v-550zM383 604q-28 0 -49 14t-36.5 27.5t-27.5 13.5q-30 0 -30 -49h-78q0 134 113 134q28 0 49 -14t36.5 -27.5t27.5 -13.5q30 0 30 49h78q0 -134 -113 -134z" />
    <glyph glyph-name="ograve" unicode="&#xf2;" horiz-adv-x="651" 
d="M325 -12q-132 0 -216 81t-84 206t84 206t216 81t216.5 -81t84.5 -206t-84.5 -206t-216.5 -81zM325 128q63 0 101 42t38 105t-38 105t-101 42q-62 0 -100.5 -42t-38.5 -105t38.5 -105t100.5 -42zM415 606h-104l-159 144h136z" />
    <glyph glyph-name="oacute" unicode="&#xf3;" horiz-adv-x="651" 
d="M325 -12q-132 0 -216 81t-84 206t84 206t216 81t216.5 -81t84.5 -206t-84.5 -206t-216.5 -81zM325 128q63 0 101 42t38 105t-38 105t-101 42q-62 0 -100.5 -42t-38.5 -105t38.5 -105t100.5 -42zM501 750l-159 -144h-104l127 144h136z" />
    <glyph glyph-name="ocircumflex" unicode="&#xf4;" horiz-adv-x="651" 
d="M325 -12q-132 0 -216 81t-84 206t84 206t216 81t216.5 -81t84.5 -206t-84.5 -206t-216.5 -81zM325 128q63 0 101 42t38 105t-38 105t-101 42q-62 0 -100.5 -42t-38.5 -105t38.5 -105t100.5 -42zM487 606h-92l-69 81l-65 -81h-92l90 144h135z" />
    <glyph glyph-name="otilde" unicode="&#xf5;" horiz-adv-x="651" 
d="M325 -12q-132 0 -216 81t-84 206t84 206t216 81t216.5 -81t84.5 -206t-84.5 -206t-216.5 -81zM325 128q63 0 101 42t38 105t-38 105t-101 42q-62 0 -100.5 -42t-38.5 -105t38.5 -105t100.5 -42zM382 604q-28 0 -49 14t-36.5 27.5t-27.5 13.5q-30 0 -30 -49h-78
q0 134 113 134q28 0 49 -14t36.5 -27.5t27.5 -13.5q30 0 30 49h78q0 -134 -113 -134z" />
    <glyph glyph-name="odieresis" unicode="&#xf6;" horiz-adv-x="651" 
d="M325 -12q-132 0 -216 81t-84 206t84 206t216 81t216.5 -81t84.5 -206t-84.5 -206t-216.5 -81zM325 128q63 0 101 42t38 105t-38 105t-101 42q-62 0 -100.5 -42t-38.5 -105t38.5 -105t100.5 -42zM514 682q0 -33 -23 -56t-56 -23q-32 0 -55 23t-23 56q0 32 23 55t55 23
q33 0 56 -23t23 -55zM300 682q0 -33 -23 -56t-56 -23q-32 0 -55 23t-23 56q0 32 23 55t55 23q33 0 56 -23t23 -55z" />
    <glyph glyph-name="divide" unicode="&#xf7;" horiz-adv-x="511" 
d="M324 510q0 -28 -20.5 -48.5t-48.5 -20.5t-48 20.5t-20 48.5t19.5 48t48.5 20t49 -20t20 -48zM482 291h-453v92h453v-92zM324 164q0 -28 -20 -48.5t-49 -20.5q-28 0 -48 20t-20 49q0 28 20 48t48 20t48.5 -20t20.5 -48z" />
    <glyph glyph-name="oslash" unicode="&#xf8;" horiz-adv-x="651" 
d="M325 -12q-81 0 -147 33l-17 -21h-120l61 75q-77 80 -77 200q0 125 84 206t216 81q78 0 145 -32l17 20h120l-60 -74q79 -81 79 -201q0 -125 -84.5 -206t-216.5 -81zM325 128q63 0 101 42t38 105q0 40 -18 76l-174 -214q24 -9 53 -9zM186 275q0 -43 17 -75l173 213
q-24 9 -51 9q-62 0 -100.5 -42t-38.5 -105z" />
    <glyph glyph-name="ugrave" unicode="&#xf9;" horiz-adv-x="657" 
d="M329 -12q-134 0 -203.5 63.5t-69.5 169.5v329h161v-314q0 -48 29.5 -78t82.5 -30q52 0 81.5 30t29.5 78v314h161v-328q0 -107 -69 -170.5t-203 -63.5zM419 606h-104l-159 144h136z" />
    <glyph glyph-name="uacute" unicode="&#xfa;" horiz-adv-x="657" 
d="M329 -12q-134 0 -203.5 63.5t-69.5 169.5v329h161v-314q0 -48 29.5 -78t82.5 -30q52 0 81.5 30t29.5 78v314h161v-328q0 -107 -69 -170.5t-203 -63.5zM503 750l-159 -144h-104l127 144h136z" />
    <glyph glyph-name="ucircumflex" unicode="&#xfb;" horiz-adv-x="657" 
d="M329 -12q-134 0 -203.5 63.5t-69.5 169.5v329h161v-314q0 -48 29.5 -78t82.5 -30q52 0 81.5 30t29.5 78v314h161v-328q0 -107 -69 -170.5t-203 -63.5zM489 606h-92l-69 81l-65 -81h-92l90 144h135z" />
    <glyph glyph-name="udieresis" unicode="&#xfc;" horiz-adv-x="657" 
d="M329 -12q-134 0 -203.5 63.5t-69.5 169.5v329h161v-314q0 -48 29.5 -78t82.5 -30q52 0 81.5 30t29.5 78v314h161v-328q0 -107 -69 -170.5t-203 -63.5zM516 682q0 -33 -23 -56t-56 -23q-32 0 -55 23t-23 56q0 32 23 55t55 23q33 0 56 -23t23 -55zM302 682q0 -33 -23 -56
t-56 -23q-32 0 -55 23t-23 56q0 32 23 55t55 23q33 0 56 -23t23 -55z" />
    <glyph glyph-name="yacute" unicode="&#xfd;" horiz-adv-x="574" 
d="M367 0h-158v223l-220 327h179l121 -194l118 194h178l-218 -327v-223zM463 750l-159 -144h-104l127 144h136z" />
    <glyph glyph-name="thorn" unicode="&#xfe;" horiz-adv-x="569" 
d="M216 0h-160v550h160v-76h139q92 0 146 -54.5t54 -132.5q0 -80 -52.5 -133.5t-147.5 -53.5h-139v-100zM336 238q26 0 41.5 13.5t15.5 35.5q0 21 -15.5 35.5t-41.5 14.5h-120v-99h120z" />
    <glyph glyph-name="ydieresis" unicode="&#xff;" horiz-adv-x="574" 
d="M367 0h-158v223l-220 327h179l121 -194l118 194h178l-218 -327v-223zM474 682q0 -33 -23 -56t-56 -23q-32 0 -55 23t-23 56q0 32 23 55t55 23q33 0 56 -23t23 -55zM260 682q0 -33 -23 -56t-56 -23q-32 0 -55 23t-23 56q0 32 23 55t55 23q33 0 56 -23t23 -55z" />
    <glyph glyph-name="dotlessi" unicode="&#x131;" horiz-adv-x="272" 
d="M216 0h-160v550h160v-550z" />
    <glyph glyph-name="Lslash" unicode="&#x141;" horiz-adv-x="540" 
d="M8 178v137l63 36v316h172v-216l67 39v-139l-67 -39v-162h268v-150h-440v214z" />
    <glyph glyph-name="lslash" unicode="&#x142;" horiz-adv-x="479" 
d="M8 125v138l53 30v257h160v-164l73 42v-139l-73 -42v-109h230v-138h-390v155z" />
    <glyph glyph-name="OE" unicode="&#x152;" horiz-adv-x="1073" 
d="M1037 0h-489v57q-32 -33 -82.5 -51t-101.5 -18q-147 0 -242.5 96t-95.5 249q0 152 95.5 248t242.5 96q51 0 101.5 -17.5t82.5 -49.5v57h489v-150h-317v-104h310v-150h-310v-113h317v-150zM548 234v199q-22 44 -63.5 68t-95.5 24q-85 0 -136.5 -54.5t-51.5 -137.5
q0 -84 51.5 -138.5t136.5 -54.5q53 0 95 25t64 69z" />
    <glyph glyph-name="oe" unicode="&#x153;" horiz-adv-x="917" 
d="M880 0h-432v52q-57 -64 -154 -64q-118 0 -193.5 80.5t-75.5 206.5t75.5 206.5t193.5 80.5q97 0 154 -64v52h432v-138h-272v-64h266v-138h-266v-72h272v-138zM448 202v147q-34 73 -120 73q-64 0 -103 -41.5t-39 -105.5t39 -105.5t103 -41.5q85 0 120 74z" />
    <glyph glyph-name="Scaron" unicode="&#x160;" horiz-adv-x="606" 
d="M365 728h-135l-93 144h92l68 -81l66 81h92zM308 -12q-183 0 -296 106l91 134q88 -88 214 -88q44 0 69 14t25 39q0 20 -28 33t-70 19.5t-90.5 20.5t-90.5 33.5t-70 62.5t-28 103q0 89 71 150.5t194 61.5q163 0 271 -93l-94 -129q-83 70 -195 70q-72 0 -72 -46
q0 -22 39 -35t94.5 -24.5t110.5 -30t94 -64t39 -114.5q0 -102 -73 -162.5t-205 -60.5z" />
    <glyph glyph-name="scaron" unicode="&#x161;" horiz-adv-x="522" 
d="M258 -12q-156 0 -248 81l70 125q31 -29 82 -50t102 -21q80 0 80 41q0 18 -32.5 27.5t-78.5 18.5t-92.5 24t-79 53t-32.5 97q0 73 63.5 125.5t167.5 52.5q142 0 235 -79l-73 -115q-31 26 -77.5 42.5t-85.5 16.5q-33 0 -50.5 -10.5t-17.5 -27.5q0 -16 32.5 -25t78.5 -17.5
t92.5 -24t79 -53.5t32.5 -97q0 -86 -65.5 -135t-182.5 -49zM334 606h-135l-93 144h92l68 -81l66 81h92z" />
    <glyph glyph-name="Ydieresis" unicode="&#x178;" horiz-adv-x="655" 
d="M515 790q0 -33 -23 -56t-56 -23q-32 0 -55 23t-23 56q0 32 23 55t55 23q33 0 56 -23t23 -55zM301 790q0 -33 -23 -56t-56 -23q-32 0 -55 23t-23 56q0 32 23 55t55 23q33 0 56 -23t23 -55zM414 0h-172v269l-253 398h194l145 -246l143 246h195l-252 -398v-269z" />
    <glyph glyph-name="Zcaron" unicode="&#x17d;" horiz-adv-x="596" 
d="M368 728h-135l-93 144h92l68 -81l66 81h92zM557 0h-518v137l284 380h-284v150h511v-136l-285 -381h292v-150z" />
    <glyph glyph-name="zcaron" unicode="&#x17e;" horiz-adv-x="527" 
d="M493 0h-459v114l231 296h-231v140h453v-114l-231 -296h237v-140zM331 606h-135l-93 144h92l68 -81l66 81h92z" />
    <glyph glyph-name="florin" unicode="&#x192;" horiz-adv-x="413" 
d="M184 -119h-175l70 315h-38v108h62l20 85q19 84 66.5 128t120.5 44q74 0 113 -42l-51 -123q-10 15 -33 15q-35 0 -47 -50l-13 -57h72v-108h-96z" />
    <glyph glyph-name="circumflex" unicode="&#x2c6;" horiz-adv-x="318" 
d="M318 556h-92l-69 81l-65 -81h-92l90 144h135z" />
    <glyph glyph-name="caron" unicode="&#x2c7;" horiz-adv-x="318" 
d="M228 556h-135l-93 144h92l68 -81l66 81h92z" />
    <glyph glyph-name="breve" unicode="&#x2d8;" horiz-adv-x="351" 
d="M351 641q-65 -88 -175 -88q-109 0 -176 88l66 54q43 -58 110 -58q69 0 110 58z" />
    <glyph glyph-name="dotaccent" unicode="&#x2d9;" horiz-adv-x="206" 
d="M103 541q-32 0 -55 23t-23 55t23 55.5t55 23.5t55 -23.5t23 -55.5t-23 -55t-55 -23z" />
    <glyph glyph-name="ring" unicode="&#x2da;" horiz-adv-x="216" 
d="M109 544q-45 0 -77 32.5t-32 76.5t32 76.5t77 32.5q44 0 75.5 -32.5t31.5 -76.5t-31.5 -76.5t-75.5 -32.5zM109 612q16 0 28 12t12 29t-12 29t-28 12q-17 0 -29 -12t-12 -29t12 -29t29 -12z" />
    <glyph glyph-name="ogonek" unicode="&#x2db;" horiz-adv-x="203" 
d="M144 -94l59 -37q-33 -55 -98 -55q-45 0 -75 23t-30 69q0 78 89 128l51 -34q-68 -35 -68 -87q0 -38 33 -38q27 0 39 31z" />
    <glyph glyph-name="tilde" unicode="&#x2dc;" horiz-adv-x="334" 
d="M221 554q-28 0 -49 14t-36.5 27.5t-27.5 13.5q-30 0 -30 -49h-78q0 134 113 134q28 0 49 -14t36.5 -27.5t27.5 -13.5q30 0 30 49h78q0 -134 -113 -134z" />
    <glyph glyph-name="hungarumlaut" unicode="&#x2dd;" horiz-adv-x="355" 
d="M202 700l-115 -144h-87l84 144h118zM355 700l-115 -144h-87l83 144h119z" />
    <glyph glyph-name="pi" unicode="&#x3c0;" horiz-adv-x="651" 
d="M563 0h-154v365h-166v-365h-154v365h-67v135h607v-135h-66v-365z" />
    <glyph glyph-name="endash" unicode="&#x2013;" horiz-adv-x="593" 
d="M563 178h-533v129h533v-129z" />
    <glyph glyph-name="emdash" unicode="&#x2014;" horiz-adv-x="833" 
d="M803 178h-773v129h773v-129z" />
    <glyph glyph-name="quoteleft" unicode="&#x2018;" horiz-adv-x="268" 
d="M34 475q0 122 114 203l64 -52q-25 -12 -50.5 -40.5t-33.5 -54.5q12 3 23 3q33 0 55 -23t22 -59q0 -38 -27 -65.5t-64 -27.5q-42 0 -72.5 31.5t-30.5 84.5z" />
    <glyph glyph-name="quoteright" unicode="&#x2019;" horiz-adv-x="268" 
d="M234 561q0 -122 -114 -202l-64 51q25 13 51 41t34 55q-8 -4 -23 -4q-33 0 -55.5 23t-22.5 60q0 38 27 65t65 27q43 0 72.5 -31.5t29.5 -84.5z" />
    <glyph glyph-name="quotesinglbase" unicode="&#x201a;" horiz-adv-x="268" 
d="M234 61q0 -123 -114 -203l-64 52q25 13 51 41t34 54q-12 -3 -23 -3q-33 0 -55.5 23t-22.5 59q0 38 27 65t65 27q42 0 72 -31t30 -84z" />
    <glyph glyph-name="quotedblleft" unicode="&#x201c;" horiz-adv-x="494" 
d="M33 475q0 122 114 203l64 -52q-25 -13 -51 -41t-33 -54q12 3 23 3q32 0 54.5 -23t22.5 -59q0 -38 -27 -65.5t-64 -27.5q-42 0 -72.5 31.5t-30.5 84.5zM258 475q0 122 114 203l64 -52q-25 -12 -50.5 -40.5t-33.5 -54.5q12 3 23 3q33 0 55 -23t22 -59q0 -38 -27 -65.5
t-64 -27.5q-42 0 -72.5 31.5t-30.5 84.5z" />
    <glyph glyph-name="quotedblright" unicode="&#x201d;" horiz-adv-x="494" 
d="M460 561q0 -122 -114 -202l-64 51q25 13 50.5 41t33.5 55q-8 -4 -23 -4q-33 0 -55 23t-22 60q0 38 27 65t64 27q43 0 73 -31.5t30 -84.5zM234 561q0 -122 -114 -202l-64 51q25 13 51 41t34 55q-8 -4 -23 -4q-33 0 -55.5 23t-22.5 60q0 38 27 65t65 27q43 0 72.5 -31.5
t29.5 -84.5z" />
    <glyph glyph-name="quotedblbase" unicode="&#x201e;" horiz-adv-x="494" 
d="M234 61q0 -123 -114 -203l-64 52q25 13 51 41t34 54q-12 -3 -23 -3q-33 0 -55.5 23t-22.5 59q0 38 27 65t65 27q42 0 72 -31t30 -84zM460 61q0 -123 -114 -203l-64 52q25 12 50.5 40.5t33.5 54.5q-12 -3 -23 -3q-33 0 -55 23t-22 59q0 38 27 65t64 27q43 0 73 -31t30 -84
z" />
    <glyph glyph-name="dagger" unicode="&#x2020;" horiz-adv-x="284" 
d="M266 518l-89 4l4 -195h-78l4 195l-89 -4v71l89 -3l-4 91h78l-4 -91l89 3v-71z" />
    <glyph glyph-name="daggerdbl" unicode="&#x2021;" horiz-adv-x="284" 
d="M266 589v-71l-89 4v-185l89 4v-71l-89 3l4 -93h-78l4 93l-89 -3v71l89 -4v185l-89 -4v71l89 -3l-4 91h78l-4 -91z" />
    <glyph glyph-name="bullet" unicode="&#x2022;" horiz-adv-x="358" 
d="M304 242q0 -51 -36 -87t-88 -36t-88 36t-36 87q0 52 36 88t88 36t88 -36t36 -88z" />
    <glyph glyph-name="ellipsis" unicode="&#x2026;" horiz-adv-x="807" 
d="M228 83q0 -38 -27.5 -66t-65.5 -28t-66 28t-28 66t28 65.5t66 27.5t65.5 -27.5t27.5 -65.5zM497 83q0 -38 -27.5 -66t-65.5 -28t-66 28t-28 66t28 65.5t66 27.5t65.5 -27.5t27.5 -65.5zM766 83q0 -38 -27.5 -66t-65.5 -28t-66 28t-28 66t28 65.5t66 27.5t65.5 -27.5
t27.5 -65.5z" />
    <glyph glyph-name="perthousand" unicode="&#x2030;" horiz-adv-x="919" 
d="M299 423q0 -59 -38 -99t-100 -40q-61 0 -99 40t-38 99t38 99t99 40q62 0 100 -40t38 -99zM600 129q0 -59 -38 -99t-99 -40t-99 40t-38 99t38 99t99 40t99 -40t38 -99zM544 550l-383 -550h-81l382 550h82zM211 423q0 28 -14.5 45t-35.5 17t-34.5 -17t-13.5 -45t13.5 -44.5
t34.5 -16.5q22 0 36 16.5t14 44.5zM512 129q0 29 -13.5 45t-35.5 16t-35.5 -16t-13.5 -45t13.5 -45t35.5 -16t35.5 16t13.5 45zM895 129q0 -59 -38.5 -99t-99.5 -40t-99 40.5t-38 98.5q0 59 38 99t99 40t99.5 -40t38.5 -99zM806 129q0 29 -13.5 45t-35.5 16t-35.5 -16
t-13.5 -45t13.5 -45t35.5 -16t35.5 16t13.5 45z" />
    <glyph glyph-name="guilsinglleft" unicode="&#x2039;" horiz-adv-x="359" 
d="M329 63h-139l-160 180l160 177h139l-160 -177z" />
    <glyph glyph-name="guilsinglright" unicode="&#x203a;" horiz-adv-x="359" 
d="M329 243l-160 -180h-139l160 180l-160 177h139z" />
    <glyph glyph-name="fraction" unicode="&#x2044;" horiz-adv-x="170" 
d="M342 667l-428 -667h-86l426 667h88z" />
    <glyph glyph-name="Euro" unicode="&#x20ac;" horiz-adv-x="611" 
d="M394 293h-183q-1 -6 -1 -18q0 -13 1 -19h183v-69h-158q39 -59 115 -59q38 0 68.5 21t45.5 54l133 -61q-31 -66 -94 -110t-153 -44q-107 0 -185 54t-105 145h-44v69h32v37h-32v69h44q26 91 104.5 145.5t185.5 54.5q90 0 152.5 -43.5t94.5 -110.5l-133 -62
q-15 33 -45.5 54.5t-68.5 21.5q-77 0 -116 -60h159v-69z" />
    <glyph glyph-name="trademark" unicode="&#x2122;" horiz-adv-x="454" 
d="M419 447h-28v182l-75 -182h-8l-75 182v-182h-28v220h43l64 -160l64 160h43v-220zM169 641h-62v-194h-28v194h-62v26h152v-26z" />
    <glyph glyph-name="Omega" unicode="&#x2126;" horiz-adv-x="766" 
d="M44 0v150h112q-130 97 -130 224q0 140 100.5 222t256.5 82t256 -82t100 -222q0 -127 -130 -224h113v-150h-283v150q59 17 92 69t33 116q0 74 -45 132t-136 58q-63 0 -106 -31t-59.5 -72t-16.5 -87q0 -64 33.5 -116t92.5 -69v-150h-283z" />
    <glyph glyph-name="partialdiff" unicode="&#x2202;" horiz-adv-x="576" 
d="M287 -12q-119 0 -190.5 67.5t-71.5 164.5q0 94 61 162t150 68q108 0 153 -76q-56 149 -205 229l124 82q97 -61 170 -177t73 -248q0 -125 -70.5 -198.5t-193.5 -73.5zM287 124q50 0 78 26.5t28 69.5t-28 69t-78 26q-49 0 -76.5 -26t-27.5 -69t27.5 -69.5t76.5 -26.5z" />
    <glyph glyph-name="Delta" unicode="&#x2206;" horiz-adv-x="697" 
d="M708 0h-719l251 667h217zM466 150l-117 347l-118 -347h235z" />
    <glyph glyph-name="product" unicode="&#x220f;" horiz-adv-x="828" 
d="M705 -90h-172v607h-237v-607h-172v607h-102v150h784v-150h-101v-607z" />
    <glyph glyph-name="summation" unicode="&#x2211;" horiz-adv-x="591" 
d="M257 517l185 -221l-193 -236h301v-150h-509v150l189 235l-188 222v150h508v-150h-293z" />
    <glyph glyph-name="minus" unicode="&#x2212;" 
d="M478 288h-449v92h449v-92z" />
    <glyph glyph-name="radical" unicode="&#x221a;" horiz-adv-x="661" 
d="M393 0h-97l-104 290l-118 -40l-28 88l213 69l88 -255l180 515h112z" />
    <glyph glyph-name="infinity" unicode="&#x221e;" horiz-adv-x="707" 
d="M202 153q-86 0 -129.5 54.5t-43.5 128.5t43.5 128.5t129.5 54.5q49 0 89 -26.5t62 -69.5q23 43 63 69.5t89 26.5q87 0 130 -54.5t43 -129.5t-42.5 -128.5t-130.5 -53.5q-49 0 -89.5 26t-62.5 69q-22 -43 -62 -69t-89 -26zM492 244q38 0 62.5 24.5t24.5 66.5t-24.5 67.5
t-62.5 25.5q-33 0 -57.5 -25.5t-38.5 -67.5q30 -91 96 -91zM216 243q32 0 57.5 26t38.5 67q-13 41 -38.5 66.5t-57.5 25.5q-38 0 -63 -25t-25 -67t25 -67.5t63 -25.5z" />
    <glyph glyph-name="integral" unicode="&#x222b;" horiz-adv-x="386" 
d="M77 -100h-60v99h60q26 0 44 20.5t18 52.5v524q0 77 50 124.5t120 47.5h60v-99h-60q-26 0 -44 -20t-18 -53v-524q0 -78 -50 -125t-120 -47z" />
    <glyph glyph-name="approxequal" unicode="&#x2248;" 
d="M29 195v99q53 -28 112 -28q45 0 105.5 24.5t118.5 24.5t113 -22v-99q-53 29 -113 29q-45 0 -105 -24.5t-119 -24.5t-112 21zM29 375v99q53 -28 112 -28q45 0 105.5 24.5t118.5 24.5t113 -22v-99q-53 29 -113 29q-45 0 -105 -24.5t-119 -24.5t-112 21z" />
    <glyph glyph-name="notequal" unicode="&#x2260;" 
d="M143 93h-86l65 102h-93v92h151l60 94h-211v92h270l64 101h87l-65 -101h93v-92h-152l-60 -94h212v-92h-270z" />
    <glyph glyph-name="lessequal" unicode="&#x2264;" 
d="M478 115l-449 189v111l449 190v-110l-344 -136l344 -135v-109zM478 0h-449v92h449v-92z" />
    <glyph glyph-name="greaterequal" unicode="&#x2265;" 
d="M477 304l-449 -189v109l345 135l-345 136v110l449 -190v-111zM478 0h-449v92h449v-92z" />
    <glyph glyph-name="lozenge" unicode="&#x25ca;" horiz-adv-x="375" 
d="M198 0h-21l-158 334l158 333h21l158 -333zM188 41l132 293l-133 292l-132 -292z" />
    <glyph glyph-name="apple" unicode="&#xf8ff;" horiz-adv-x="667" 
d="M215 154v62h-62q-25 0 -43.5 -18.5t-18.5 -43.5q0 -26 18 -44.5t44 -18.5t44 18.5t18 44.5zM215 451v63q0 25 -18 43.5t-43 18.5q-26 0 -44.5 -18t-18.5 -44t18.5 -44.5t44.5 -18.5h61zM265 265h137v137h-137v-137zM576 154q0 25 -18.5 43.5t-43.5 18.5h-62v-62
q0 -26 18 -44.5t44 -18.5t44 18.5t18 44.5zM576 514q0 25 -18.5 43.5t-43.5 18.5q-26 0 -44 -18t-18 -44v-63h62q25 0 43.5 18.5t18.5 44.5zM625 154q0 -46 -32.5 -79t-78.5 -33t-79 33t-33 79v62h-137v-62q0 -46 -33 -79t-79 -33t-78.5 33t-32.5 79t32.5 78.5t78.5 32.5h62
v137h-61q-46 0 -79 33t-33 79t33 78.5t79 32.5t78.5 -32.5t32.5 -78.5v-63h137v63q0 46 33 78.5t79 32.5t78.5 -32.5t32.5 -78.5t-32.5 -79t-78.5 -33h-62v-137h62q46 0 78.5 -32.5t32.5 -78.5z" />
    <hkern u1="D" u2="&#xe6;" k="30" />
    <hkern u1="D" u2="&#xe5;" k="30" />
    <hkern u1="D" u2="&#xe4;" k="30" />
    <hkern u1="D" u2="&#xe3;" k="30" />
    <hkern u1="D" u2="&#xe2;" k="30" />
    <hkern u1="D" u2="&#xe1;" k="30" />
    <hkern u1="D" u2="&#xe0;" k="30" />
    <hkern u1="J" u2="&#x2026;" k="30" />
    <hkern u1="J" u2="&#x201e;" k="30" />
    <hkern u1="J" u2="&#x201a;" k="30" />
    <hkern u1="J" u2="&#x2e;" k="30" />
    <hkern u1="J" u2="&#x2c;" k="30" />
    <hkern u1="O" u2="a" k="30" />
    <hkern u1="O" u2="X" k="30" />
    <hkern u1="O" u2="&#xe6;" k="30" />
    <hkern u1="O" u2="&#xe5;" k="30" />
    <hkern u1="O" u2="&#xe4;" k="30" />
    <hkern u1="O" u2="&#xe3;" k="30" />
    <hkern u1="O" u2="&#xe2;" k="30" />
    <hkern u1="O" u2="&#xe1;" k="30" />
    <hkern u1="O" u2="&#xe0;" k="30" />
    <hkern u1="Q" u2="a" k="30" />
    <hkern u1="Q" u2="X" k="30" />
    <hkern u1="Q" u2="&#xe6;" k="30" />
    <hkern u1="Q" u2="&#xe5;" k="30" />
    <hkern u1="Q" u2="&#xe4;" k="30" />
    <hkern u1="Q" u2="&#xe3;" k="30" />
    <hkern u1="Q" u2="&#xe2;" k="30" />
    <hkern u1="Q" u2="&#xe1;" k="30" />
    <hkern u1="Q" u2="&#xe0;" k="30" />
    <hkern u1="W" u2="&#xf8;" k="30" />
    <hkern u1="W" u2="&#xf6;" k="30" />
    <hkern u1="W" u2="&#xf5;" k="30" />
    <hkern u1="W" u2="&#xf4;" k="30" />
    <hkern u1="W" u2="&#xf3;" k="30" />
    <hkern u1="W" u2="&#xf2;" k="30" />
    <hkern u1="W" u2="&#xe7;" k="30" />
    <hkern u1="&#xd0;" u2="X" k="30" />
    <hkern u1="&#xd0;" u2="&#xe6;" k="30" />
    <hkern u1="&#xd0;" u2="&#xe5;" k="30" />
    <hkern u1="&#xd0;" u2="&#xe4;" k="30" />
    <hkern u1="&#xd0;" u2="&#xe3;" k="30" />
    <hkern u1="&#xd0;" u2="&#xe2;" k="30" />
    <hkern u1="&#xd0;" u2="&#xe1;" k="30" />
    <hkern u1="&#xd0;" u2="&#xe0;" k="30" />
    <hkern u1="&#xd2;" u2="a" k="30" />
    <hkern u1="&#xd2;" u2="X" k="30" />
    <hkern u1="&#xd2;" u2="&#xe6;" k="30" />
    <hkern u1="&#xd2;" u2="&#xe5;" k="30" />
    <hkern u1="&#xd2;" u2="&#xe4;" k="30" />
    <hkern u1="&#xd2;" u2="&#xe3;" k="30" />
    <hkern u1="&#xd2;" u2="&#xe2;" k="30" />
    <hkern u1="&#xd2;" u2="&#xe1;" k="30" />
    <hkern u1="&#xd2;" u2="&#xe0;" k="30" />
    <hkern u1="&#xd3;" u2="&#xe6;" k="30" />
    <hkern u1="&#xd3;" u2="&#xe5;" k="30" />
    <hkern u1="&#xd3;" u2="&#xe4;" k="30" />
    <hkern u1="&#xd3;" u2="&#xe3;" k="30" />
    <hkern u1="&#xd3;" u2="&#xe2;" k="30" />
    <hkern u1="&#xd3;" u2="&#xe1;" k="30" />
    <hkern u1="&#xd3;" u2="&#xe0;" k="30" />
    <hkern u1="&#xd4;" u2="a" k="30" />
    <hkern u1="&#xd4;" u2="X" k="30" />
    <hkern u1="&#xd4;" u2="&#xe6;" k="30" />
    <hkern u1="&#xd4;" u2="&#xe5;" k="30" />
    <hkern u1="&#xd4;" u2="&#xe4;" k="30" />
    <hkern u1="&#xd4;" u2="&#xe3;" k="30" />
    <hkern u1="&#xd4;" u2="&#xe2;" k="30" />
    <hkern u1="&#xd4;" u2="&#xe1;" k="30" />
    <hkern u1="&#xd4;" u2="&#xe0;" k="30" />
    <hkern u1="&#xd5;" u2="a" k="30" />
    <hkern u1="&#xd5;" u2="&#xe6;" k="30" />
    <hkern u1="&#xd5;" u2="&#xe5;" k="30" />
    <hkern u1="&#xd5;" u2="&#xe4;" k="30" />
    <hkern u1="&#xd5;" u2="&#xe3;" k="30" />
    <hkern u1="&#xd5;" u2="&#xe2;" k="30" />
    <hkern u1="&#xd5;" u2="&#xe1;" k="30" />
    <hkern u1="&#xd5;" u2="&#xe0;" k="30" />
    <hkern u1="&#xd6;" u2="a" k="30" />
    <hkern u1="&#xd6;" u2="X" k="30" />
    <hkern u1="&#xd6;" u2="&#xe6;" k="30" />
    <hkern u1="&#xd6;" u2="&#xe5;" k="30" />
    <hkern u1="&#xd6;" u2="&#xe4;" k="30" />
    <hkern u1="&#xd6;" u2="&#xe3;" k="30" />
    <hkern u1="&#xd6;" u2="&#xe2;" k="30" />
    <hkern u1="&#xd6;" u2="&#xe1;" k="30" />
    <hkern u1="&#xd6;" u2="&#xe0;" k="30" />
    <hkern u1="&#xd8;" u2="a" k="30" />
    <hkern u1="&#xd8;" u2="X" k="30" />
    <hkern u1="&#xd8;" u2="&#xe6;" k="30" />
    <hkern u1="&#xd8;" u2="&#xe5;" k="30" />
    <hkern u1="&#xd8;" u2="&#xe4;" k="30" />
    <hkern u1="&#xd8;" u2="&#xe3;" k="30" />
    <hkern u1="&#xd8;" u2="&#xe2;" k="30" />
    <hkern u1="&#xd8;" u2="&#xe1;" k="30" />
    <hkern u1="&#xd8;" u2="&#xe0;" k="30" />
    <hkern u1="&#xd9;" u2="&#x2026;" k="30" />
    <hkern u1="&#xd9;" u2="&#x201e;" k="30" />
    <hkern u1="&#xd9;" u2="&#x201a;" k="30" />
    <hkern u1="&#xd9;" u2="&#x2e;" k="30" />
    <hkern u1="&#xd9;" u2="&#x2c;" k="30" />
    <hkern u1="&#xda;" u2="&#x2026;" k="30" />
    <hkern u1="&#xda;" u2="&#x201e;" k="30" />
    <hkern u1="&#xda;" u2="&#x201a;" k="30" />
    <hkern u1="&#xda;" u2="&#x2e;" k="30" />
    <hkern u1="&#xda;" u2="&#x2c;" k="30" />
    <hkern u1="&#xdb;" u2="&#x2026;" k="30" />
    <hkern u1="&#xdb;" u2="&#x201e;" k="30" />
    <hkern u1="&#xdb;" u2="&#x201a;" k="30" />
    <hkern u1="&#xdb;" u2="&#x2e;" k="30" />
    <hkern u1="&#xdb;" u2="&#x2c;" k="30" />
    <hkern u1="&#xdc;" u2="&#x2026;" k="30" />
    <hkern u1="&#xdc;" u2="&#x201e;" k="30" />
    <hkern u1="&#xdc;" u2="&#x201a;" k="30" />
    <hkern u1="&#xdc;" u2="&#x2e;" k="30" />
    <hkern u1="&#xdc;" u2="&#x2c;" k="30" />
    <hkern u1="&#xde;" u2="a" k="30" />
    <hkern u1="&#xde;" u2="&#xe6;" k="30" />
    <hkern u1="&#xde;" u2="&#xe5;" k="30" />
    <hkern u1="&#xde;" u2="&#xe4;" k="30" />
    <hkern u1="&#xde;" u2="&#xe3;" k="30" />
    <hkern u1="&#xde;" u2="&#xe2;" k="30" />
    <hkern u1="&#xde;" u2="&#xe1;" k="30" />
    <hkern u1="&#xde;" u2="&#xe0;" k="30" />
    <hkern g1="A,Agrave,Aacute,Acircumflex,Atilde,Adieresis,Aring,Delta"
	g2="asterisk"
	k="85" />
    <hkern g1="A,Agrave,Aacute,Acircumflex,Atilde,Adieresis,Aring,Delta"
	g2="C,G,O,Q,Ccedilla,Ograve,Oacute,Ocircumflex,Otilde,Odieresis,Oslash,OE"
	k="32" />
    <hkern g1="A,Agrave,Aacute,Acircumflex,Atilde,Adieresis,Aring,Delta"
	g2="T"
	k="62" />
    <hkern g1="A,Agrave,Aacute,Acircumflex,Atilde,Adieresis,Aring,Delta"
	g2="U,Ugrave,Uacute,Ucircumflex,Udieresis"
	k="37" />
    <hkern g1="A,Agrave,Aacute,Acircumflex,Atilde,Adieresis,Aring,Delta"
	g2="V"
	k="44" />
    <hkern g1="A,Agrave,Aacute,Acircumflex,Atilde,Adieresis,Aring,Delta"
	g2="W"
	k="42" />
    <hkern g1="A,Agrave,Aacute,Acircumflex,Atilde,Adieresis,Aring,Delta"
	g2="Y,Yacute,Ydieresis"
	k="68" />
    <hkern g1="A,Agrave,Aacute,Acircumflex,Atilde,Adieresis,Aring,Delta"
	g2="dagger"
	k="92" />
    <hkern g1="A,Agrave,Aacute,Acircumflex,Atilde,Adieresis,Aring,Delta"
	g2="quotedbl,quotesingle,registered,quoteleft,quoteright,quotedblleft,quotedblright,trademark"
	k="92" />
    <hkern g1="A,Agrave,Aacute,Acircumflex,Atilde,Adieresis,Aring,Delta"
	g2="daggerdbl"
	k="32" />
    <hkern g1="A,Agrave,Aacute,Acircumflex,Atilde,Adieresis,Aring,Delta"
	g2="t"
	k="32" />
    <hkern g1="A,Agrave,Aacute,Acircumflex,Atilde,Adieresis,Aring,Delta"
	g2="y,yacute,ydieresis"
	k="50" />
    <hkern g1="a,agrave,aacute,acircumflex,atilde,adieresis,aring"
	g2="asterisk"
	k="54" />
    <hkern g1="a,agrave,aacute,acircumflex,atilde,adieresis,aring"
	g2="C,G,O,Q,Ccedilla,Ograve,Oacute,Ocircumflex,Otilde,Odieresis,Oslash,OE"
	k="30" />
    <hkern g1="a,agrave,aacute,acircumflex,atilde,adieresis,aring"
	g2="T"
	k="100" />
    <hkern g1="a,agrave,aacute,acircumflex,atilde,adieresis,aring"
	g2="V"
	k="44" />
    <hkern g1="a,agrave,aacute,acircumflex,atilde,adieresis,aring"
	g2="W"
	k="50" />
    <hkern g1="a,agrave,aacute,acircumflex,atilde,adieresis,aring"
	g2="Y,Yacute,Ydieresis"
	k="85" />
    <hkern g1="a,agrave,aacute,acircumflex,atilde,adieresis,aring"
	g2="dagger"
	k="72" />
    <hkern g1="a,agrave,aacute,acircumflex,atilde,adieresis,aring"
	g2="quotedbl,quotesingle,registered,quoteleft,quoteright,quotedblleft,quotedblright,trademark"
	k="80" />
    <hkern g1="a,agrave,aacute,acircumflex,atilde,adieresis,aring"
	g2="t"
	k="48" />
    <hkern g1="a,agrave,aacute,acircumflex,atilde,adieresis,aring"
	g2="y,yacute,ydieresis"
	k="40" />
    <hkern g1="a,agrave,aacute,acircumflex,atilde,adieresis,aring"
	g2="question"
	k="48" />
    <hkern g1="a,agrave,aacute,acircumflex,atilde,adieresis,aring"
	g2="v"
	k="30" />
    <hkern g1="b"
	g2="Y,Yacute,Ydieresis"
	k="40" />
    <hkern g1="c,ccedilla"
	g2="T"
	k="49" />
    <hkern g1="c,ccedilla"
	g2="Y,Yacute,Ydieresis"
	k="55" />
    <hkern g1="D,O,Q,Eth,Ograve,Oacute,Ocircumflex,Otilde,Odieresis,Oslash,Thorn"
	g2="Y,Yacute,Ydieresis"
	k="40" />
    <hkern g1="D,O,Q,Eth,Ograve,Oacute,Ocircumflex,Otilde,Odieresis,Oslash,Thorn"
	g2="A,Agrave,Aacute,Acircumflex,Atilde,Adieresis,Aring,AE,Delta"
	k="32" />
    <hkern g1="d,o,q,eth,ograve,oacute,ocircumflex,otilde,odieresis,oslash,thorn"
	g2="T"
	k="65" />
    <hkern g1="d,o,q,eth,ograve,oacute,ocircumflex,otilde,odieresis,oslash,thorn"
	g2="V"
	k="50" />
    <hkern g1="d,o,q,eth,ograve,oacute,ocircumflex,otilde,odieresis,oslash,thorn"
	g2="W"
	k="30" />
    <hkern g1="d,o,q,eth,ograve,oacute,ocircumflex,otilde,odieresis,oslash,thorn"
	g2="Y,Yacute,Ydieresis"
	k="87" />
    <hkern g1="d,o,q,eth,ograve,oacute,ocircumflex,otilde,odieresis,oslash,thorn"
	g2="t"
	k="30" />
    <hkern g1="d,o,q,eth,ograve,oacute,ocircumflex,otilde,odieresis,oslash,thorn"
	g2="y,yacute,ydieresis"
	k="30" />
    <hkern g1="d,o,q,eth,ograve,oacute,ocircumflex,otilde,odieresis,oslash,thorn"
	g2="X"
	k="44" />
    <hkern g1="F"
	g2="A,Agrave,Aacute,Acircumflex,Atilde,Adieresis,Aring,AE,Delta"
	k="47" />
    <hkern g1="F"
	g2="comma,period,quotesinglbase,quotedblbase,ellipsis"
	k="50" />
    <hkern g1="F"
	g2="J"
	k="75" />
    <hkern g1="F"
	g2="a,agrave,aacute,acircumflex,atilde,adieresis,aring,ae"
	k="55" />
    <hkern g1="F"
	g2="j"
	k="67" />
    <hkern g1="f"
	g2="J"
	k="47" />
    <hkern g1="f"
	g2="j"
	k="57" />
    <hkern g1="g"
	g2="T"
	k="34" />
    <hkern g1="h,i,m,n,igrave,iacute,icircumflex,idieresis,ntilde"
	g2="Y,Yacute,Ydieresis"
	k="38" />
    <hkern g1="K"
	g2="C,G,O,Q,Ccedilla,Ograve,Oacute,Ocircumflex,Otilde,Odieresis,Oslash,OE"
	k="44" />
    <hkern g1="K"
	g2="t"
	k="58" />
    <hkern g1="K"
	g2="y,yacute,ydieresis"
	k="60" />
    <hkern g1="K"
	g2="v"
	k="48" />
    <hkern g1="K"
	g2="hyphen,periodcentered,endash,emdash"
	k="50" />
    <hkern g1="K"
	g2="c,g,o,q,ccedilla,ograve,oacute,ocircumflex,otilde,odieresis,oslash,oe"
	k="52" />
    <hkern g1="K"
	g2="u,ugrave,uacute,ucircumflex,udieresis"
	k="50" />
    <hkern g1="K"
	g2="w"
	k="40" />
    <hkern g1="k"
	g2="y,yacute,ydieresis"
	k="55" />
    <hkern g1="k"
	g2="hyphen,periodcentered,endash,emdash"
	k="32" />
    <hkern g1="k"
	g2="c,g,o,q,ccedilla,ograve,oacute,ocircumflex,otilde,odieresis,oslash,oe"
	k="48" />
    <hkern g1="k"
	g2="bullet"
	k="42" />
    <hkern g1="L,Lslash"
	g2="asterisk"
	k="164" />
    <hkern g1="L,Lslash"
	g2="T"
	k="100" />
    <hkern g1="L,Lslash"
	g2="V"
	k="90" />
    <hkern g1="L,Lslash"
	g2="W"
	k="77" />
    <hkern g1="L,Lslash"
	g2="Y,Yacute,Ydieresis"
	k="128" />
    <hkern g1="L,Lslash"
	g2="dagger"
	k="130" />
    <hkern g1="L,Lslash"
	g2="quotedbl,quotesingle,registered,quoteleft,quoteright,quotedblleft,quotedblright,trademark"
	k="143" />
    <hkern g1="L,Lslash"
	g2="daggerdbl"
	k="85" />
    <hkern g1="L,Lslash"
	g2="t"
	k="72" />
    <hkern g1="L,Lslash"
	g2="y,yacute,ydieresis"
	k="97" />
    <hkern g1="L,Lslash"
	g2="v"
	k="58" />
    <hkern g1="L,Lslash"
	g2="w"
	k="42" />
    <hkern g1="l,lslash,fl"
	g2="asterisk"
	k="112" />
    <hkern g1="l,lslash,fl"
	g2="T"
	k="102" />
    <hkern g1="l,lslash,fl"
	g2="V"
	k="92" />
    <hkern g1="l,lslash,fl"
	g2="W"
	k="57" />
    <hkern g1="l,lslash,fl"
	g2="Y,Yacute,Ydieresis"
	k="127" />
    <hkern g1="l,lslash,fl"
	g2="quotedbl,quotesingle,registered,quoteleft,quoteright,quotedblleft,quotedblright,trademark"
	k="110" />
    <hkern g1="l,lslash,fl"
	g2="t"
	k="82" />
    <hkern g1="l,lslash,fl"
	g2="y,yacute,ydieresis"
	k="100" />
    <hkern g1="l,lslash,fl"
	g2="v"
	k="64" />
    <hkern g1="l,lslash,fl"
	g2="w"
	k="60" />
    <hkern g1="P"
	g2="A,Agrave,Aacute,Acircumflex,Atilde,Adieresis,Aring,AE,Delta"
	k="72" />
    <hkern g1="P"
	g2="comma,period,quotesinglbase,quotedblbase,ellipsis"
	k="84" />
    <hkern g1="P"
	g2="J"
	k="125" />
    <hkern g1="P"
	g2="a,agrave,aacute,acircumflex,atilde,adieresis,aring,ae"
	k="80" />
    <hkern g1="P"
	g2="j"
	k="107" />
    <hkern g1="P"
	g2="ampersand"
	k="47" />
    <hkern g1="p"
	g2="comma,period,quotesinglbase,quotedblbase,ellipsis"
	k="37" />
    <hkern g1="p"
	g2="a,agrave,aacute,acircumflex,atilde,adieresis,aring,ae"
	k="42" />
    <hkern g1="p"
	g2="j"
	k="72" />
    <hkern g1="s,scaron"
	g2="T"
	k="32" />
    <hkern g1="T"
	g2="A,Agrave,Aacute,Acircumflex,Atilde,Adieresis,Aring,AE,Delta"
	k="62" />
    <hkern g1="T"
	g2="comma,period,quotesinglbase,quotedblbase,ellipsis"
	k="98" />
    <hkern g1="T"
	g2="J"
	k="88" />
    <hkern g1="T"
	g2="a,agrave,aacute,acircumflex,atilde,adieresis,aring,ae"
	k="100" />
    <hkern g1="T"
	g2="j"
	k="102" />
    <hkern g1="T"
	g2="hyphen,periodcentered,endash,emdash"
	k="60" />
    <hkern g1="T"
	g2="c,g,o,q,ccedilla,ograve,oacute,ocircumflex,otilde,odieresis,oslash,oe"
	k="65" />
    <hkern g1="T"
	g2="ampersand"
	k="92" />
    <hkern g1="T"
	g2="colon,semicolon"
	k="50" />
    <hkern g1="T"
	g2="s,scaron"
	k="39" />
    <hkern g1="t"
	g2="A,Agrave,Aacute,Acircumflex,Atilde,Adieresis,Aring,AE,Delta"
	k="32" />
    <hkern g1="t"
	g2="comma,period,quotesinglbase,quotedblbase,ellipsis"
	k="60" />
    <hkern g1="t"
	g2="a,agrave,aacute,acircumflex,atilde,adieresis,aring,ae"
	k="48" />
    <hkern g1="t"
	g2="j"
	k="78" />
    <hkern g1="t"
	g2="c,g,o,q,ccedilla,ograve,oacute,ocircumflex,otilde,odieresis,oslash,oe"
	k="30" />
    <hkern g1="t"
	g2="ampersand"
	k="42" />
    <hkern g1="J,U,Ugrave,Uacute,Ucircumflex,Udieresis"
	g2="A,Agrave,Aacute,Acircumflex,Atilde,Adieresis,Aring,AE,Delta"
	k="37" />
    <hkern g1="J,U,Ugrave,Uacute,Ucircumflex,Udieresis"
	g2="J"
	k="33" />
    <hkern g1="J,U,Ugrave,Uacute,Ucircumflex,Udieresis"
	g2="j"
	k="33" />
    <hkern g1="V"
	g2="A,Agrave,Aacute,Acircumflex,Atilde,Adieresis,Aring,AE,Delta"
	k="44" />
    <hkern g1="V"
	g2="comma,period,quotesinglbase,quotedblbase,ellipsis"
	k="90" />
    <hkern g1="V"
	g2="J"
	k="98" />
    <hkern g1="V"
	g2="a,agrave,aacute,acircumflex,atilde,adieresis,aring,ae"
	k="44" />
    <hkern g1="V"
	g2="j"
	k="92" />
    <hkern g1="V"
	g2="hyphen,periodcentered,endash,emdash"
	k="58" />
    <hkern g1="V"
	g2="c,g,o,q,ccedilla,ograve,oacute,ocircumflex,otilde,odieresis,oslash,oe"
	k="50" />
    <hkern g1="V"
	g2="ampersand"
	k="58" />
    <hkern g1="v"
	g2="a,agrave,aacute,acircumflex,atilde,adieresis,aring,ae"
	k="30" />
    <hkern g1="v"
	g2="j"
	k="78" />
    <hkern g1="W"
	g2="A,Agrave,Aacute,Acircumflex,Atilde,Adieresis,Aring,AE,Delta"
	k="42" />
    <hkern g1="W"
	g2="comma,period,quotesinglbase,quotedblbase,ellipsis"
	k="62" />
    <hkern g1="W"
	g2="J"
	k="70" />
    <hkern g1="W"
	g2="a,agrave,aacute,acircumflex,atilde,adieresis,aring,ae"
	k="50" />
    <hkern g1="W"
	g2="j"
	k="57" />
    <hkern g1="W"
	g2="hyphen,periodcentered,endash,emdash"
	k="38" />
    <hkern g1="w"
	g2="comma,period,quotesinglbase,quotedblbase,ellipsis"
	k="42" />
    <hkern g1="w"
	g2="j"
	k="55" />
    <hkern g1="Y,Yacute,Ydieresis"
	g2="C,G,O,Q,Ccedilla,Ograve,Oacute,Ocircumflex,Otilde,Odieresis,Oslash,OE"
	k="40" />
    <hkern g1="Y,Yacute,Ydieresis"
	g2="A,Agrave,Aacute,Acircumflex,Atilde,Adieresis,Aring,AE,Delta"
	k="68" />
    <hkern g1="Y,Yacute,Ydieresis"
	g2="comma,period,quotesinglbase,quotedblbase,ellipsis"
	k="90" />
    <hkern g1="Y,Yacute,Ydieresis"
	g2="J"
	k="118" />
    <hkern g1="Y,Yacute,Ydieresis"
	g2="a,agrave,aacute,acircumflex,atilde,adieresis,aring,ae"
	k="85" />
    <hkern g1="Y,Yacute,Ydieresis"
	g2="j"
	k="127" />
    <hkern g1="Y,Yacute,Ydieresis"
	g2="hyphen,periodcentered,endash,emdash"
	k="127" />
    <hkern g1="Y,Yacute,Ydieresis"
	g2="c,g,o,q,ccedilla,ograve,oacute,ocircumflex,otilde,odieresis,oslash,oe"
	k="87" />
    <hkern g1="Y,Yacute,Ydieresis"
	g2="colon,semicolon"
	k="75" />
    <hkern g1="Y,Yacute,Ydieresis"
	g2="s,scaron"
	k="55" />
    <hkern g1="Y,Yacute,Ydieresis"
	g2="b,d,e,f,h,i,k,l,m,n,p,r,egrave,eacute,ecircumflex,edieresis,igrave,iacute,icircumflex,idieresis,eth,ntilde,lslash"
	k="38" />
    <hkern g1="y,yacute,ydieresis"
	g2="A,Agrave,Aacute,Acircumflex,Atilde,Adieresis,Aring,AE,Delta"
	k="50" />
    <hkern g1="y,yacute,ydieresis"
	g2="comma,period,quotesinglbase,quotedblbase,ellipsis"
	k="70" />
    <hkern g1="y,yacute,ydieresis"
	g2="a,agrave,aacute,acircumflex,atilde,adieresis,aring,ae"
	k="40" />
    <hkern g1="y,yacute,ydieresis"
	g2="j"
	k="92" />
    <hkern g1="y,yacute,ydieresis"
	g2="c,g,o,q,ccedilla,ograve,oacute,ocircumflex,otilde,odieresis,oslash,oe"
	k="30" />
    <hkern g1="y,yacute,ydieresis"
	g2="ampersand"
	k="58" />
    <hkern g1="ampersand"
	g2="T"
	k="85" />
    <hkern g1="ampersand"
	g2="V"
	k="64" />
    <hkern g1="ampersand"
	g2="t"
	k="60" />
    <hkern g1="ampersand"
	g2="y,yacute,ydieresis"
	k="54" />
    <hkern g1="asterisk"
	g2="A,Agrave,Aacute,Acircumflex,Atilde,Adieresis,Aring,AE,Delta"
	k="85" />
    <hkern g1="asterisk"
	g2="J"
	k="127" />
    <hkern g1="asterisk"
	g2="a,agrave,aacute,acircumflex,atilde,adieresis,aring,ae"
	k="54" />
    <hkern g1="asterisk"
	g2="j"
	k="108" />
    <hkern g1="colon,semicolon"
	g2="T"
	k="50" />
    <hkern g1="colon,semicolon"
	g2="Y,Yacute,Ydieresis"
	k="75" />
    <hkern g1="hyphen,periodcentered,endash,emdash"
	g2="V"
	k="58" />
    <hkern g1="hyphen,periodcentered,endash,emdash"
	g2="W"
	k="38" />
    <hkern g1="hyphen,periodcentered,endash,emdash"
	g2="Y,Yacute,Ydieresis"
	k="125" />
    <hkern g1="hyphen,periodcentered,endash,emdash"
	g2="X"
	k="48" />
    <hkern g1="comma,period,quotesinglbase,quotedblbase,ellipsis"
	g2="T"
	k="98" />
    <hkern g1="comma,period,quotesinglbase,quotedblbase,ellipsis"
	g2="U,Ugrave,Uacute,Ucircumflex,Udieresis"
	k="30" />
    <hkern g1="comma,period,quotesinglbase,quotedblbase,ellipsis"
	g2="V"
	k="82" />
    <hkern g1="comma,period,quotesinglbase,quotedblbase,ellipsis"
	g2="W"
	k="62" />
    <hkern g1="comma,period,quotesinglbase,quotedblbase,ellipsis"
	g2="Y,Yacute,Ydieresis"
	k="90" />
    <hkern g1="comma,period,quotesinglbase,quotedblbase,ellipsis"
	g2="quotedbl,quotesingle,registered,quoteleft,quoteright,quotedblleft,quotedblright,trademark"
	k="87" />
    <hkern g1="comma,period,quotesinglbase,quotedblbase,ellipsis"
	g2="t"
	k="60" />
    <hkern g1="comma,period,quotesinglbase,quotedblbase,ellipsis"
	g2="y,yacute,ydieresis"
	k="70" />
    <hkern g1="comma,period,quotesinglbase,quotedblbase,ellipsis"
	g2="w"
	k="42" />
    <hkern g1="quotedbl,quotesingle,quoteleft,quoteright,quotedblleft,quotedblright"
	g2="A,Agrave,Aacute,Acircumflex,Atilde,Adieresis,Aring,AE,Delta"
	k="94" />
    <hkern g1="quotedbl,quotesingle,quoteleft,quoteright,quotedblleft,quotedblright"
	g2="comma,period,quotesinglbase,quotedblbase,ellipsis"
	k="87" />
    <hkern g1="quotedbl,quotesingle,quoteleft,quoteright,quotedblleft,quotedblright"
	g2="J"
	k="113" />
    <hkern g1="quotedbl,quotesingle,quoteleft,quoteright,quotedblleft,quotedblright"
	g2="a,agrave,aacute,acircumflex,atilde,adieresis,aring,ae"
	k="80" />
    <hkern g1="X"
	g2="C,G,O,Q,Ccedilla,Ograve,Oacute,Ocircumflex,Otilde,Odieresis,Oslash,OE"
	k="30" />
    <hkern g1="X"
	g2="hyphen,periodcentered,endash,emdash"
	k="48" />
    <hkern g1="X"
	g2="c,g,o,q,ccedilla,ograve,oacute,ocircumflex,otilde,odieresis,oslash,oe"
	k="44" />
  </font>
</defs></svg>
