<?xml version="1.0" standalone="no"?>
<!DOCTYPE svg PUBLIC "-//W3C//DTD SVG 1.1//EN" "http://www.w3.org/Graphics/SVG/1.1/DTD/svg11.dtd" >
<svg xmlns="http://www.w3.org/2000/svg" xmlns:xlink="http://www.w3.org/1999/xlink" version="1.1">
<metadata>
Created by FontForge 20170731 at Wed Oct  6 21:41:13 2010
 By Aleksey,,,
Copyright (c) Mark Simonson, 2005. All rights reserved.
</metadata>
<defs>
<font id="ProximaNovaAExCn-Thin" horiz-adv-x="396" >
  <font-face 
    font-family="Proxima Nova Alt ExCn Th"
    font-weight="250"
    font-stretch="normal"
    units-per-em="1000"
    panose-1="2 0 5 6 3 0 0 2 0 4"
    ascent="800"
    descent="-200"
    x-height="483"
    cap-height="667"
    bbox="-101 -199 781 872"
    underline-thickness="20"
    underline-position="-173"
    unicode-range="U+000D-FB02"
  />
<missing-glyph horiz-adv-x="495" 
d="M423 -90h-351v842h351v-842zM391 -60v782h-288v-782h288z" />
    <glyph glyph-name="fi" unicode="fi" horiz-adv-x="362" 
d="M108 0h-30v456h-50v27h50v107q0 38 21.5 62.5t52.5 24.5q21 0 37 -14l-15 -22q-8 9 -22 9q-20 0 -32 -16t-12 -44v-107h70v-27h-70v-456zM282 566q-11 0 -20 8.5t-9 20.5t9 20.5t20 8.5q12 0 20.5 -8.5t8.5 -20.5t-8.5 -20.5t-20.5 -8.5zM297 0h-30v483h30v-483z" />
    <glyph glyph-name="fl" unicode="fl" horiz-adv-x="388" 
d="M108 0h-30v456h-50v27h50v107q0 38 21.5 62.5t52.5 24.5q21 0 37 -14l-15 -22q-8 9 -22 9q-20 0 -32 -16t-12 -44v-107h70v-27h-70v-456zM331 -12q-64 0 -64 88v591h30v-591q0 -32 7.5 -46.5t26.5 -14.5q21 0 36 21l21 -18q-25 -30 -57 -30z" />
    <glyph glyph-name=".notdef" horiz-adv-x="495" 
d="M423 -90h-351v842h351v-842zM391 -60v782h-288v-782h288z" />
    <glyph glyph-name=".null" horiz-adv-x="0" 
 />
    <glyph glyph-name="nonmarkingreturn" horiz-adv-x="333" 
 />
    <glyph glyph-name="NUL" horiz-adv-x="0" 
 />
    <glyph glyph-name="NUL" horiz-adv-x="0" 
 />
    <glyph glyph-name="CR" unicode="&#xd;" horiz-adv-x="0" 
 />
    <glyph glyph-name="space" unicode=" " horiz-adv-x="180" 
 />
    <glyph glyph-name="exclam" unicode="!" horiz-adv-x="208" 
d="M114 161h-20l-11 506h42zM104 -9q-14 0 -23.5 9.5t-9.5 23.5q0 13 10 22.5t23 9.5t23 -9.5t10 -22.5q0 -14 -9.5 -23.5t-23.5 -9.5z" />
    <glyph glyph-name="quotedbl" unicode="&#x22;" horiz-adv-x="290" 
d="M99 443h-22q-15 197 -15 208t8 18.5t18 7.5t18 -7.5t8 -18.5zM213 443h-22q-15 197 -15 208t7.5 18.5t18.5 7.5t18.5 -7.5t7.5 -18.5z" />
    <glyph glyph-name="numbersign" unicode="#" horiz-adv-x="395" 
d="M191 0h-33l46 191h-78l-44 -191h-33l45 191h-76l6 29h77l53 227h-77l5 29h78l44 191h33l-44 -191h77l44 191h32l-44 -191h75l-5 -29h-77l-53 -227h78l-6 -29h-79zM209 220l54 227h-77l-53 -227h76z" />
    <glyph glyph-name="dollar" unicode="$" horiz-adv-x="304" 
d="M145 -12q-70 0 -118 57l24 26q16 -24 42 -38.5t52 -14.5h5v317q-36 36 -52.5 55t-34.5 58.5t-18 83.5q0 59 30 97.5t75 46.5v92h32v-91q51 -3 85 -40l-19 -25q-29 32 -66 35v-295q31 -33 48.5 -56t33.5 -63.5t16 -85.5q0 -57 -26.5 -99t-71.5 -55v-93h-32v88h-5zM77 532
q0 -43 19 -77t54 -71v261q-31 -8 -52 -38t-21 -75zM248 147q0 80 -66 155v-276q30 13 48 45t18 76z" />
    <glyph glyph-name="percent" unicode="%" horiz-adv-x="555" 
d="M149 351q-51 0 -82 45.5t-31 116.5q0 72 31 118t82 46q52 0 82.5 -46t30.5 -118q0 -71 -30.5 -116.5t-82.5 -45.5zM159 0h-32l269 667h33zM406 -12q-51 0 -82 45.5t-31 116.5q0 72 31 118t82 46t82 -46t31 -118q0 -71 -31 -116.5t-82 -45.5zM149 378q37 0 58.5 39
t21.5 96q0 58 -21.5 97.5t-58.5 39.5t-58.5 -39.5t-21.5 -97.5q0 -57 21.5 -96t58.5 -39zM406 15q37 0 58.5 39t21.5 96q0 58 -21.5 97.5t-58.5 39.5t-58.5 -39.5t-21.5 -97.5q0 -57 21.5 -96t58.5 -39z" />
    <glyph glyph-name="ampersand" unicode="&#x26;" horiz-adv-x="358" 
d="M345 0h-39q-27 47 -46 81q-45 -93 -106 -93q-48 0 -77.5 44.5t-29.5 120.5q0 68 21.5 115t61.5 95q-34 94 -34 154q0 75 21.5 117.5t62.5 42.5q31 0 52.5 -33t21.5 -85q0 -42 -14 -79.5t-27 -56.5t-41 -53q-5 -7 -8 -10q20 -57 46 -112q26 -58 46 -95q20 61 38 160
l30 -11q-20 -114 -49 -186q25 -43 70 -116zM153 18q48 0 89 97q-38 71 -55 110q-23 47 -46 105q-59 -81 -59 -177q0 -67 20 -101t51 -34zM131 517q0 -54 23 -126q35 43 52.5 80t17.5 88q0 44 -13 66t-31 22q-49 0 -49 -130z" />
    <glyph glyph-name="quotesingle" unicode="'" horiz-adv-x="176" 
d="M99 443h-22q-15 197 -15 208t8 18.5t18 7.5t18 -7.5t8 -18.5z" />
    <glyph glyph-name="parenleft" unicode="(" horiz-adv-x="167" 
d="M150 -192l-18 -7q-85 206 -85 442t85 442l18 -6q-68 -217 -68 -436t68 -435z" />
    <glyph glyph-name="parenright" unicode=")" horiz-adv-x="167" 
d="M35 -199l-18 7q68 216 68 435t-68 436l18 6q85 -206 85 -442t-85 -442z" />
    <glyph glyph-name="asterisk" unicode="*" horiz-adv-x="288" 
d="M159 409h-30l6 119l-100 -65l-15 26l106 54l-106 54l15 26l100 -65l-6 119h30l-6 -119l100 65l15 -26l-106 -54l106 -54l-15 -26l-100 65z" />
    <glyph glyph-name="plus" unicode="+" horiz-adv-x="374" 
d="M345 322h-142v-162h-32v162h-142v30h142v156h32v-156h142v-30z" />
    <glyph glyph-name="comma" unicode="," horiz-adv-x="208" 
d="M141 3q0 -36 -18 -69.5t-44 -51.5l-22 18q24 18 38.5 43.5t14.5 48.5q-5 -1 -7 -1q-14 0 -23 9.5t-9 23.5q0 13 9 22.5t23 9.5q16 0 27 -14t11 -39z" />
    <glyph glyph-name="hyphen" unicode="-" horiz-adv-x="230" 
d="M200 227h-170v30h170v-30z" />
    <glyph glyph-name="period" unicode="." horiz-adv-x="208" 
d="M104 -9q-14 0 -23.5 9.5t-9.5 23.5q0 13 10 22.5t23 9.5t23 -9.5t10 -22.5q0 -14 -9.5 -23.5t-23.5 -9.5z" />
    <glyph glyph-name="slash" unicode="/" horiz-adv-x="177" 
d="M30 -20h-30l147 707h30z" />
    <glyph glyph-name="zero" unicode="0" horiz-adv-x="377" 
d="M189 -12q-136 0 -136 345q0 344 136 344q135 0 135 -344q0 -345 -135 -345zM189 18q27 0 46.5 22t29.5 52t15.5 77t7 82t1.5 82t-1.5 82t-7 82t-15.5 77t-29.5 51.5t-46.5 21.5q-33 0 -55 -29.5t-31 -82.5t-12 -97.5t-3 -104.5q0 -39 1 -67.5t4 -69t9.5 -69t17.5 -55
t28.5 -40.5t40.5 -14z" />
    <glyph glyph-name="one" unicode="1" horiz-adv-x="243" 
d="M171 0h-32v621l-105 -115l-22 23l129 138h30v-667z" />
    <glyph glyph-name="two" unicode="2" horiz-adv-x="348" 
d="M295 0h-235v28q131 253 165.5 341.5t34.5 159.5q0 52 -23.5 85t-59.5 33q-62 0 -95 -92l-31 14q24 56 52 82t74 26q54 0 86 -41.5t32 -106.5q0 -69 -37.5 -165.5t-163.5 -333.5h201v-30z" />
    <glyph glyph-name="three" unicode="3" horiz-adv-x="347" 
d="M164 -12q-45 0 -78 32.5t-50 82.5l31 13q36 -98 97 -98q95 0 95 160q0 83 -29.5 117.5t-67.5 34.5q-28 0 -34 -1v32q8 -1 34 -1q40 0 65 36t25 103q0 148 -87 148q-34 0 -54.5 -23.5t-36.5 -66.5l-31 13q16 50 49.5 78.5t72.5 28.5q56 0 89.5 -43t33.5 -131
q0 -55 -22 -99t-62 -59q37 -9 63.5 -56t26.5 -112q0 -86 -31 -137.5t-99 -51.5z" />
    <glyph glyph-name="four" unicode="4" horiz-adv-x="310" 
d="M243 0h-32v195h-199v33l189 439h42v-442h55v-30h-55v-195zM211 225v391l-168 -391h168z" />
    <glyph glyph-name="five" unicode="5" horiz-adv-x="348" 
d="M174 -12q-53 0 -79.5 28.5t-47.5 86.5l32 11q13 -49 35 -72.5t60 -23.5q43 0 67 53.5t24 126.5q0 182 -83 182q-28 0 -48 -14.5t-44 -54.5l-27 16v340h214v-30h-182v-284q34 57 87 57q55 0 86.5 -54.5t31.5 -157.5q0 -85 -34.5 -147.5t-91.5 -62.5z" />
    <glyph glyph-name="six" unicode="6" horiz-adv-x="350" 
d="M184 -12q-41 0 -68.5 29t-40.5 83t-17.5 108t-4.5 125q0 70 5 123.5t19 107.5t44 83.5t74 29.5q38 0 67 -25.5t43 -70.5l-28 -15q-25 81 -82 81q-107 0 -107 -324v-19q14 44 39 73t61 29q53 0 86 -53.5t33 -156.5q0 -85 -29.5 -146.5t-93.5 -61.5zM184 18q88 0 88 178
q0 180 -85 180q-64 0 -98 -130q3 -228 95 -228z" />
    <glyph glyph-name="seven" unicode="7" horiz-adv-x="278" 
d="M112 0h-33l141 637h-196v30h230v-22z" />
    <glyph glyph-name="eight" unicode="8" horiz-adv-x="348" 
d="M174 -12q-61 0 -93.5 44.5t-32.5 121.5q0 62 31.5 113.5t68.5 76.5q-34 24 -63.5 69t-29.5 103q0 77 33 119t86 42q54 0 86.5 -42t32.5 -119q0 -57 -29 -102.5t-63 -69.5q36 -26 67.5 -77t31.5 -112q0 -77 -33 -122t-93 -45zM174 359q7 3 18.5 13t27.5 28.5t27 49.5
t11 66q0 61 -21 96t-63 35t-63 -35t-21 -96q0 -35 11 -66t27 -49.5t27.5 -28.5t18.5 -13zM174 18q41 0 66 36t25 101q0 48 -20 90.5t-40 62.5t-31 22q-11 -2 -31 -22t-40 -63t-20 -91q0 -64 25 -100t66 -36z" />
    <glyph glyph-name="nine" unicode="9" horiz-adv-x="350" 
d="M155 -11q-38 0 -67 25.5t-43 70.5l28 15q25 -81 82 -81q107 0 107 324v19q-14 -44 -39 -73t-61 -29q-53 0 -86 53.5t-33 156.5q0 85 29.5 146.5t93.5 61.5q41 0 68.5 -29t40.5 -83t17.5 -108t4.5 -125q0 -70 -5 -123.5t-19 -107.5t-44 -83.5t-74 -29.5zM163 290
q64 0 98 130q-3 228 -95 228q-88 0 -88 -178q0 -180 85 -180z" />
    <glyph glyph-name="colon" unicode=":" horiz-adv-x="208" 
d="M104 425q-13 0 -23 9.5t-10 22.5t9.5 23t23.5 10t23.5 -10t9.5 -23t-10 -22.5t-23 -9.5zM104 -9q-14 0 -23.5 9.5t-9.5 23.5q0 13 10 22.5t23 9.5t23 -9.5t10 -22.5q0 -14 -9.5 -23.5t-23.5 -9.5z" />
    <glyph glyph-name="semicolon" unicode=";" horiz-adv-x="208" 
d="M104 425q-13 0 -23 9.5t-10 22.5t9.5 23t23.5 10t23.5 -10t9.5 -23t-10 -22.5t-23 -9.5zM141 3q0 -36 -18 -69.5t-44 -51.5l-22 18q24 18 38.5 43.5t14.5 48.5q-5 -1 -7 -1q-14 0 -23 9.5t-9 23.5q0 13 9 22.5t23 9.5q16 0 27 -14t11 -39z" />
    <glyph glyph-name="less" unicode="&#x3c;" horiz-adv-x="374" 
d="M345 166l-316 158v21l316 158v-36l-275 -133l275 -132v-36z" />
    <glyph glyph-name="equal" unicode="=" horiz-adv-x="374" 
d="M345 418h-316v30h316v-30zM345 220h-316v30h316v-30z" />
    <glyph glyph-name="greater" unicode="&#x3e;" horiz-adv-x="374" 
d="M345 324l-316 -158v36l275 132l-275 133v36l316 -158v-21z" />
    <glyph glyph-name="question" unicode="?" horiz-adv-x="302" 
d="M148 169q-28 35 -28 80q0 43 18.5 80.5t40.5 61.5t40.5 63.5t18.5 84.5q0 41 -26 75t-67 34q-42 0 -78 -36l-19 25q37 41 97 41q52 0 88.5 -41t36.5 -98q0 -48 -18.5 -90t-40.5 -66.5t-40.5 -60t-18.5 -73.5q0 -37 23 -60zM155 -9q-13 0 -23 9.5t-10 23.5q0 13 10 22.5
t23 9.5t23 -9.5t10 -22.5q0 -14 -10 -23.5t-23 -9.5z" />
    <glyph glyph-name="at" unicode="@" horiz-adv-x="569" 
d="M256 -70q-97 0 -159 77.5t-62 208.5q0 106 43 203.5t116 158.5t154 61q85 0 135.5 -65t50.5 -182q0 -129 -42 -218t-90 -89q-31 0 -48 20.5t-17 51.5v6q-47 -78 -103 -78q-36 0 -62 28.5t-26 90.5q0 69 21 136t63 113.5t93 46.5q28 0 46.5 -22t24.5 -56l12 60h30
l-63 -299q-3 -15 -3 -22q-1 -29 6 -39t24 -10q18 0 41.5 29.5t43.5 97.5t20 153q0 105 -43.5 161t-113.5 56q-73 0 -138.5 -57.5t-103.5 -148.5t-38 -187q0 -119 54.5 -188t137.5 -69q68 0 128 57l14 -23q-68 -63 -146 -63zM234 112q24 0 46.5 16.5t34.5 32.5t31 46l40 183
q-15 83 -63 83q-43 0 -77.5 -46t-50.5 -106t-16 -117q0 -92 55 -92z" />
    <glyph glyph-name="A" unicode="A" horiz-adv-x="312" 
d="M300 0h-33l-32 179h-158l-32 -179h-33l125 667h38zM230 209l-74 411l-74 -411h148z" />
    <glyph glyph-name="B" unicode="B" horiz-adv-x="360" 
d="M172 0h-100v667h96q60 0 95 -44.5t35 -125.5q0 -120 -78 -153q38 -7 62.5 -55.5t24.5 -108.5q0 -87 -34 -133.5t-101 -46.5zM168 358q95 0 95 139q0 140 -95 140h-64v-279h64zM172 30q100 0 100 149q0 64 -24 106.5t-76 42.5h-68v-298h68z" />
    <glyph glyph-name="C" unicode="C" horiz-adv-x="357" 
d="M198 -12q-52 0 -85.5 48t-46.5 122t-13 175t13 175t46.5 122t85.5 48q79 0 113 -103l-30 -12q-15 43 -33 64t-50 21q-56 0 -83 -87t-27 -228t27 -228t83 -87q35 0 54 27t32 78l30 -12q-29 -123 -116 -123z" />
    <glyph glyph-name="D" unicode="D" horiz-adv-x="386" 
d="M165 0h-93v667h93q86 0 127 -90t41 -244q0 -155 -41 -244t-127 -89zM165 30q133 0 133 303q0 304 -133 304h-61v-607h61z" />
    <glyph glyph-name="E" unicode="E" horiz-adv-x="330" 
d="M282 0h-210v667h210v-30h-178v-279h171v-30h-171v-298h178v-30z" />
    <glyph glyph-name="F" unicode="F" horiz-adv-x="330" 
d="M104 0h-32v667h210v-30h-178v-279h171v-30h-171v-328z" />
    <glyph glyph-name="G" unicode="G" horiz-adv-x="375" 
d="M198 -12q-74 0 -109.5 92.5t-35.5 252.5q0 161 35.5 253t109.5 92q79 0 113 -103l-30 -12q-15 43 -33 64t-50 21q-58 0 -84 -86.5t-26 -228.5q0 -141 26 -228t84 -87q99 0 99 272h-119v30h155q0 -167 -31 -249.5t-104 -82.5z" />
    <glyph glyph-name="H" unicode="H" horiz-adv-x="395" 
d="M323 0h-32v328h-187v-328h-32v667h32v-309h187v309h32v-667z" />
    <glyph glyph-name="I" unicode="I" horiz-adv-x="176" 
d="M104 0h-32v667h32v-667z" />
    <glyph glyph-name="J" unicode="J" horiz-adv-x="298" 
d="M109 -12q-61 0 -103 54l24 23q32 -47 79 -47q85 0 85 103v546h32v-546q0 -133 -117 -133z" />
    <glyph glyph-name="K" unicode="K" horiz-adv-x="372" 
d="M354 0h-39l-164 319l-47 -88v-231h-32v667h32v-380l198 380h39l-174 -319z" />
    <glyph glyph-name="L" unicode="L" horiz-adv-x="306" 
d="M282 0h-210v667h32v-637h178v-30z" />
    <glyph glyph-name="M" unicode="M" horiz-adv-x="508" 
d="M436 0h-32v609l-141 -609h-18l-141 609v-609h-32v667h52l130 -557l131 557h51v-667z" />
    <glyph glyph-name="N" unicode="N" horiz-adv-x="395" 
d="M323 0h-32l-187 575v-575h-32v667h32l187 -569v569h32v-667z" />
    <glyph glyph-name="O" unicode="O" 
d="M198 -12q-53 0 -86.5 49.5t-46 123t-12.5 172.5t12.5 172.5t46 123t86.5 49.5t86.5 -49.5t46 -123t12.5 -172.5t-12.5 -172.5t-46 -123t-86.5 -49.5zM198 18q57 0 83.5 88.5t26.5 226.5q0 139 -26.5 227t-83.5 88t-83.5 -88t-26.5 -227q0 -138 26.5 -226.5t83.5 -88.5z
" />
    <glyph glyph-name="P" unicode="P" horiz-adv-x="341" 
d="M104 0h-32v667h100q67 0 101 -53.5t34 -135.5t-34 -135.5t-101 -53.5h-68v-289zM171 319q50 0 75.5 43.5t25.5 115.5t-25.5 115.5t-75.5 43.5h-67v-318h67z" />
    <glyph glyph-name="Q" unicode="Q" 
d="M198 -12q-53 0 -86.5 49.5t-46 123t-12.5 172.5t12.5 172.5t46 123t86.5 49.5t86.5 -49.5t46 -123t12.5 -172.5q0 -220 -62 -301l21 -55l-29 -12l-16 42q-27 -19 -59 -19zM198 18q27 0 47 20l-61 162l30 12l53 -142q41 82 41 263q0 139 -26.5 227t-83.5 88t-83.5 -88
t-26.5 -227q0 -138 26.5 -226.5t83.5 -88.5z" />
    <glyph glyph-name="R" unicode="R" horiz-adv-x="366" 
d="M313 0h-36l-99 289h-74v-289h-32v667h100q61 0 98 -50t37 -139q0 -83 -29 -128t-69 -56zM171 319q50 0 75.5 43.5t25.5 115.5t-25.5 115.5t-75.5 43.5h-67v-318h67z" />
    <glyph glyph-name="S" unicode="S" horiz-adv-x="319" 
d="M145 -12q-70 0 -118 57l24 26q16 -24 42 -38.5t52 -14.5q43 0 73 35.5t30 93.5q0 50 -21 91t-50.5 71t-59.5 59.5t-51 71.5t-21 92q0 66 37 106t88 40q59 0 97 -41l-19 -25q-32 36 -78 36q-38 0 -65.5 -32t-27.5 -84q0 -42 21 -79.5t50.5 -67t59.5 -61.5t51 -77.5
t21 -99.5q0 -68 -37.5 -113.5t-97.5 -45.5z" />
    <glyph glyph-name="T" unicode="T" horiz-adv-x="287" 
d="M159 0h-32v637h-109v30h251v-30h-110v-637z" />
    <glyph glyph-name="U" unicode="U" 
d="M198 -12q-126 0 -126 166v513h32v-513q0 -136 94 -136t94 136v513h32v-513q0 -166 -126 -166z" />
    <glyph glyph-name="V" unicode="V" horiz-adv-x="312" 
d="M175 0h-38l-125 667h33l111 -620l111 620h33z" />
    <glyph glyph-name="W" unicode="W" horiz-adv-x="490" 
d="M366 0h-38l-83 587l-83 -587h-38l-100 667h35l84 -604l85 604h34l85 -604l84 604h35z" />
    <glyph glyph-name="X" unicode="X" horiz-adv-x="308" 
d="M300 0h-36l-110 302l-110 -302h-36l128 338l-121 329h37l102 -291l102 291h37l-121 -328z" />
    <glyph glyph-name="Y" unicode="Y" horiz-adv-x="322" 
d="M177 0h-32v289l-143 378h36l123 -339l125 339h34l-143 -378v-289z" />
    <glyph glyph-name="Z" unicode="Z" horiz-adv-x="309" 
d="M273 0h-237v31l197 606h-197v30h230v-30l-198 -607h205v-30z" />
    <glyph glyph-name="bracketleft" unicode="[" horiz-adv-x="162" 
d="M145 -190h-111v868h111v-30h-81v-808h81v-30z" />
    <glyph glyph-name="backslash" unicode="\" horiz-adv-x="177" 
d="M148 -20l-147 707h30l147 -707h-30z" />
    <glyph glyph-name="bracketright" unicode="]" horiz-adv-x="162" 
d="M128 -190h-111v30h81v808h-81v30h111v-868z" />
    <glyph glyph-name="asciicircum" unicode="^" horiz-adv-x="324" 
d="M305 333h-32l-111 303l-111 -303h-32l130 334h26z" />
    <glyph glyph-name="underscore" unicode="_" horiz-adv-x="279" 
d="M282 -70h-285v30h285v-30z" />
    <glyph glyph-name="grave" unicode="`" horiz-adv-x="119" 
d="M119 556h-24l-95 144h41z" />
    <glyph glyph-name="a" unicode="a" horiz-adv-x="351" 
d="M286 0h-30v70q-15 -37 -39.5 -59.5t-48.5 -22.5q-42 0 -70 34.5t-39.5 89.5t-11.5 129q0 114 29.5 184t91.5 70q25 0 49.5 -21.5t38.5 -62.5v72h30v-483zM168 15q28 0 53.5 30t34.5 70v251q-9 40 -34.5 71t-53.5 31q-88 0 -88 -227q0 -226 88 -226z" />
    <glyph glyph-name="b" unicode="b" horiz-adv-x="351" 
d="M95 115q9 -40 34.5 -70t53.5 -30q88 0 88 226q0 227 -88 227q-27 0 -53 -31t-35 -71v-251zM95 0h-30v667h30v-256q14 41 38.5 62.5t49.5 21.5q62 0 91.5 -70t29.5 -184q0 -74 -11.5 -129t-39.5 -89.5t-70 -34.5q-24 0 -48.5 22.5t-39.5 59.5v-70z" />
    <glyph glyph-name="c" unicode="c" horiz-adv-x="294" 
d="M183 -12q-67 0 -101.5 71.5t-34.5 182.5t34.5 182t101.5 71q46 0 84 -45l-21 -21q-29 39 -64 39q-54 0 -78 -65t-24 -161t24 -161.5t78 -65.5q36 0 64 39l21 -21q-33 -45 -84 -45z" />
    <glyph glyph-name="d" unicode="d" horiz-adv-x="351" 
d="M286 0h-30v70q-15 -37 -39.5 -59.5t-48.5 -22.5q-42 0 -70 34.5t-39.5 89.5t-11.5 129q0 114 29.5 184t91.5 70q25 0 49.5 -21.5t38.5 -62.5v256h30v-667zM168 15q28 0 53.5 30t34.5 70v251q-9 40 -34.5 71t-53.5 31q-88 0 -88 -227q0 -226 88 -226z" />
    <glyph glyph-name="e" unicode="e" horiz-adv-x="346" 
d="M193 -12q-75 0 -110.5 69.5t-35.5 184.5q0 113 31.5 183t97.5 70q68 0 98.5 -70.5t30.5 -182.5v-10h-225q0 -100 29.5 -158.5t83.5 -58.5q48 0 79 68l28 -14q-40 -81 -107 -81zM272 259q0 53 -7.5 96.5t-30 78t-58.5 34.5q-27 0 -47 -20.5t-30 -53.5t-14.5 -66.5
t-4.5 -68.5h192z" />
    <glyph glyph-name="f" unicode="f" horiz-adv-x="202" 
d="M108 0h-30v456h-50v27h50v107q0 38 21.5 62.5t52.5 24.5q21 0 37 -14l-15 -22q-8 9 -22 9q-20 0 -32 -16t-12 -44v-107h70v-27h-70v-456z" />
    <glyph glyph-name="g" unicode="g" horiz-adv-x="351" 
d="M164 -196q-66 0 -110 47l20 26q37 -46 90 -46q92 0 92 126v113q-15 -37 -39.5 -60.5t-48.5 -23.5q-62 0 -91.5 69.5t-29.5 184.5q0 114 29.5 184.5t91.5 70.5q25 0 49.5 -21.5t38.5 -62.5v72h30v-526q0 -153 -122 -153zM168 13q28 0 53.5 31t34.5 71v251q-9 40 -34.5 71
t-53.5 31q-88 0 -88 -228q0 -227 88 -227z" />
    <glyph glyph-name="h" unicode="h" horiz-adv-x="342" 
d="M277 0h-30v394q0 74 -53 74q-30 0 -57 -27.5t-42 -66.5v-374h-30v667h30v-256q18 37 45 60.5t58 23.5q42 0 60.5 -23.5t18.5 -77.5v-394z" />
    <glyph glyph-name="i" unicode="i" horiz-adv-x="160" 
d="M80 566q-11 0 -20 8.5t-9 20.5t9 20.5t20 8.5q12 0 20.5 -8.5t8.5 -20.5t-8.5 -20.5t-20.5 -8.5zM95 0h-30v483h30v-483z" />
    <glyph glyph-name="j" unicode="j" horiz-adv-x="160" 
d="M80 566q-11 0 -20 8.5t-9 20.5t9 20.5t20 8.5q12 0 20.5 -8.5t8.5 -20.5t-8.5 -20.5t-20.5 -8.5zM31 -196q-41 0 -57 38l27 14q10 -25 30 -25q34 0 34 73v579h30v-579q0 -100 -64 -100z" />
    <glyph glyph-name="k" unicode="k" horiz-adv-x="325" 
d="M301 0h-32l-108 242l-66 -110v-132h-30v667h30v-489l179 305h31l-128 -218z" />
    <glyph glyph-name="l" unicode="l" horiz-adv-x="186" 
d="M129 -12q-64 0 -64 88v591h30v-591q0 -32 7.5 -46.5t26.5 -14.5q21 0 36 21l21 -18q-25 -30 -57 -30z" />
    <glyph glyph-name="m" unicode="m" horiz-adv-x="524" 
d="M459 0h-30v394q0 74 -53 74q-30 0 -57.5 -27.5t-41.5 -66.5v-374h-30v394q0 74 -53 74q-30 0 -57 -27.5t-42 -66.5v-374h-30v483h30v-72q18 37 45 60.5t58 23.5q37 0 57.5 -22.5t20.5 -61.5q17 36 45 60t59 24q79 0 79 -101v-394z" />
    <glyph glyph-name="n" unicode="n" horiz-adv-x="342" 
d="M277 0h-30v394q0 74 -53 74q-30 0 -57 -27.5t-42 -66.5v-374h-30v483h30v-72q18 37 45 60.5t58 23.5q41 0 60 -24.5t19 -76.5v-394z" />
    <glyph glyph-name="o" unicode="o" horiz-adv-x="352" 
d="M176 -12q-46 0 -76 37t-41.5 91.5t-11.5 125.5t11.5 125t41.5 91t76 37q68 0 98.5 -71t30.5 -182t-30.5 -182.5t-98.5 -71.5zM176 15q96 0 96 227q0 226 -96 226t-96 -226q0 -227 96 -227z" />
    <glyph glyph-name="p" unicode="p" horiz-adv-x="351" 
d="M183 -12q-25 0 -49.5 21.5t-38.5 62.5v-256h-30v667h30v-70q15 37 39.5 59.5t48.5 22.5q42 0 70 -34.5t39.5 -89.5t11.5 -129q0 -114 -29.5 -184t-91.5 -70zM183 15q88 0 88 227q0 226 -88 226q-28 0 -53.5 -30t-34.5 -70v-251q9 -40 35 -71t53 -31z" />
    <glyph glyph-name="q" unicode="q" horiz-adv-x="351" 
d="M168 15q28 0 53.5 31t34.5 71v251q-9 40 -34.5 70t-53.5 30q-88 0 -88 -226q0 -227 88 -227zM168 -12q-62 0 -91.5 70t-29.5 184q0 74 11.5 129t39.5 89.5t70 34.5q24 0 48.5 -22.5t39.5 -59.5v70h30v-667h-30v256q-14 -41 -38.5 -62.5t-49.5 -21.5z" />
    <glyph glyph-name="r" unicode="r" horiz-adv-x="227" 
d="M95 0h-30v483h30v-85q20 47 46.5 70.5t68.5 23.5v-36q-5 1 -15 1q-33 0 -59 -27.5t-41 -68.5v-361z" />
    <glyph glyph-name="s" unicode="s" horiz-adv-x="278" 
d="M137 -12q-68 0 -109 59l22 21q36 -53 87 -53q32 0 55.5 25t23.5 65q0 37 -18 66.5t-43.5 50t-51 42t-43.5 53.5t-18 73q0 46 30.5 75.5t74.5 29.5q57 0 93 -51l-20 -20q-28 44 -73 44q-34 0 -54.5 -22.5t-20.5 -55.5q0 -35 18 -63t43.5 -49t51 -43t43.5 -55t18 -75
q0 -52 -32 -84.5t-77 -32.5z" />
    <glyph glyph-name="t" unicode="t" horiz-adv-x="212" 
d="M142 -12q-64 0 -64 88v380h-52v27h52v132h30v-132h70v-27h-70v-380q0 -32 7.5 -46.5t26.5 -14.5q21 0 36 21l21 -18q-25 -30 -57 -30z" />
    <glyph glyph-name="u" unicode="u" horiz-adv-x="342" 
d="M277 0h-30v70q-39 -82 -103 -82q-42 0 -60.5 23.5t-18.5 77.5v394h30v-394q0 -74 53 -74q31 0 58 26.5t41 65.5v376h30v-483z" />
    <glyph glyph-name="v" unicode="v" horiz-adv-x="279" 
d="M156 0h-35l-105 483h33l90 -448l91 448h33z" />
    <glyph glyph-name="w" unicode="w" horiz-adv-x="484" 
d="M364 0h-30l-92 440l-92 -440h-30l-100 483h33l82 -436l89 436h36l89 -436l82 436h33z" />
    <glyph glyph-name="x" unicode="x" horiz-adv-x="286" 
d="M266 0h-33l-90 217l-90 -217h-33l106 245l-100 238h33l84 -209l84 209h33l-100 -238z" />
    <glyph glyph-name="y" unicode="y" horiz-adv-x="342" 
d="M163 -196q-68 0 -109 47l20 26q37 -46 90 -46q38 0 60.5 32.5t22.5 93.5v113q-39 -82 -103 -82q-42 0 -60.5 23.5t-18.5 77.5v394h30v-394q0 -74 53 -74q31 0 58 26.5t41 65.5v376h30v-526q0 -71 -30 -112t-84 -41z" />
    <glyph glyph-name="z" unicode="z" horiz-adv-x="275" 
d="M234 0h-193v27l158 429h-158v27h189v-27l-156 -429h160v-27z" />
    <glyph glyph-name="braceleft" unicode="{" horiz-adv-x="187" 
d="M170 -190h-32q-31 0 -55 26t-24 67v254q0 30 -13.5 51t-38.5 21v30q25 0 38.5 21t13.5 51v254q0 41 24 67t55 26h32v-30h-32q-21 0 -35 -17.5t-14 -45.5v-254q0 -68 -45 -87q45 -19 45 -87v-254q0 -27 14 -45t35 -18h32v-30z" />
    <glyph glyph-name="bar" unicode="|" horiz-adv-x="174" 
d="M102 -20h-30v707h30v-707z" />
    <glyph glyph-name="braceright" unicode="}" horiz-adv-x="187" 
d="M17 -190v30h32q21 0 35 18t14 45v254q0 68 45 87q-45 19 -45 87v254q0 28 -14 45.5t-35 17.5h-32v30h32q31 0 55 -26t24 -67v-254q0 -30 13.5 -51t38.5 -21v-30q-25 0 -38.5 -21t-13.5 -51v-254q0 -41 -24 -67t-55 -26h-32z" />
    <glyph glyph-name="asciitilde" unicode="~" horiz-adv-x="376" 
d="M318 667l30 -3q-3 -37 -5.5 -62.5t-9.5 -60.5t-16.5 -56t-27 -36.5t-39.5 -15.5q-31 0 -49.5 31.5t-23.5 69.5t-17.5 69.5t-33.5 31.5q-31 0 -44 -45.5t-24 -158.5l-30 5q3 46 7.5 78.5t14.5 71t29.5 59t46.5 20.5q31 0 49.5 -31.5t23.5 -70t17.5 -70t33.5 -31.5
q31 0 44 45.5t24 159.5z" />
    <glyph glyph-name="uni00A0" unicode="&#xa0;" horiz-adv-x="180" 
 />
    <glyph glyph-name="exclamdown" unicode="&#xa1;" horiz-adv-x="208" 
d="M83 -184l11 506h20l11 -506h-42zM71 459q0 13 9.5 23t23.5 10t23.5 -10t9.5 -23t-10 -22.5t-23 -9.5t-23 9.5t-10 22.5z" />
    <glyph glyph-name="cent" unicode="&#xa2;" horiz-adv-x="294" 
d="M165 -100v90q-59 9 -88.5 78.5t-29.5 173.5t29.5 173t88.5 78v72h30v-71q36 -3 72 -44l-21 -21q-25 32 -51 38v-451q28 5 51 38l21 -21q-31 -41 -72 -44v-89h-30zM80 242q0 -206 85 -225v449q-85 -21 -85 -224z" />
    <glyph glyph-name="sterling" unicode="&#xa3;" horiz-adv-x="342" 
d="M30 267v30h85q-2 4 -20 37t-23.5 47t-13 47t-7.5 67q0 75 33.5 128.5t95.5 53.5q86 0 115 -98l-25 -16q-14 39 -34.5 61.5t-55.5 22.5q-38 0 -67 -42t-29 -112q0 -43 9 -74.5t31.5 -72.5t26.5 -49h78v-30h-67q10 -32 10 -65q0 -43 -21 -87.5t-52 -71.5q19 11 39 11
q23 0 54 -18t47 -18q19 0 37 11.5t27 26.5l21 -24q-11 -18 -36 -31t-50 -13q-32 0 -58.5 20t-44.5 20q-29 0 -72 -35l-19 29q44 30 70 79.5t26 101.5q0 31 -12 64h-98z" />
    <glyph glyph-name="yen" unicode="&#xa5;" horiz-adv-x="322" 
d="M177 0h-32v129h-126v30h126v130h-126v30h114l-131 348h36l123 -339l125 339h34l-132 -348h114v-30h-125v-130h125v-30h-125v-129z" />
    <glyph glyph-name="brokenbar" unicode="&#xa6;" horiz-adv-x="174" 
d="M102 -20h-30v316h30v-316zM102 371h-30v316h30v-316z" />
    <glyph glyph-name="section" unicode="&#xa7;" horiz-adv-x="278" 
d="M246 287q0 -82 -73 -111q73 -63 73 -140q0 -48 -30.5 -82.5t-78.5 -34.5q-36 0 -60 13.5t-49 45.5l22 21q35 -53 87 -53q33 0 56 27t23 63q0 37 -18 66t-43.5 50t-51 42.5t-43.5 53.5t-18 73q0 36 22.5 67t65.5 37q-49 38 -68.5 72t-19.5 75q0 47 30.5 76t69.5 29
q57 0 98 -51l-22 -20q-19 26 -35.5 35t-40.5 9q-30 0 -50 -22.5t-20 -55.5q0 -34 18 -62t43.5 -49t51 -43t43.5 -55.5t18 -75.5zM216 287q0 14 -2 26.5t-7 23.5t-9 18.5t-12 16.5t-11.5 12.5t-12.5 11.5l-9 9q-81 -12 -81 -84q0 -35 18.5 -64t61.5 -63q64 31 64 93z" />
    <glyph glyph-name="dieresis" unicode="&#xa8;" horiz-adv-x="252" 
d="M215 598q0 -11 -8.5 -19.5t-19.5 -8.5t-19.5 8.5t-8.5 19.5t8.5 19.5t19.5 8.5t19.5 -8.5t8.5 -19.5zM93 598q0 -11 -8.5 -19.5t-19.5 -8.5t-19.5 8.5t-8.5 19.5t8.5 19.5t19.5 8.5t19.5 -8.5t8.5 -19.5z" />
    <glyph glyph-name="copyright" unicode="&#xa9;" horiz-adv-x="778" 
d="M734 334q0 -142 -101 -243.5t-244 -101.5t-244 101.5t-101 243.5t101 243.5t244 101.5t244 -101.5t101 -243.5zM708 334q0 131 -94 225t-225 94t-225 -94t-94 -225t94 -225t225 -94t225 94t94 225zM513 204l20 -20q-56 -65 -143 -65t-148 62.5t-61 152.5q0 92 60.5 154
t148.5 62t143 -64l-20 -20q-19 26 -53 41.5t-70 15.5q-73 0 -126.5 -52.5t-53.5 -136.5q0 -80 54 -134t126 -54q36 0 70 16t53 42z" />
    <glyph glyph-name="ordfeminine" unicode="&#xaa;" horiz-adv-x="261" 
d="M209 326h-28v34q-23 -42 -65 -42q-38 0 -60.5 29t-22.5 76t22.5 75.5t60.5 28.5q42 0 65 -41v63q0 72 -55 72q-37 0 -66 -37l-15 23q38 41 84 41q45 0 62.5 -27t17.5 -86v-209zM120 340q43 0 61 46v73q-18 46 -61 46q-28 0 -43 -23.5t-15 -58.5t15 -59t43 -24z" />
    <glyph glyph-name="guillemotleft" unicode="&#xab;" horiz-adv-x="273" 
d="M243 63h-33l-90 180l90 177h33l-90 -177zM153 63h-33l-90 180l90 177h33l-90 -177z" />
    <glyph glyph-name="logicalnot" unicode="&#xac;" horiz-adv-x="374" 
d="M345 448v-228h-32v198h-284v30h316z" />
    <glyph glyph-name="registered" unicode="&#xae;" horiz-adv-x="494" 
d="M459 465q0 -88 -62 -150t-150 -62t-150 62t-62 150t62 150t150 62q89 0 150.5 -61.5t61.5 -150.5zM433 465q0 78 -54.5 132t-131.5 54t-131.5 -54t-54.5 -132q0 -77 54.5 -131.5t131.5 -54.5t131.5 54.5t54.5 131.5zM343 343h-37l-63 96h-47v-96h-29v243h99
q31 0 52.5 -20.5t21.5 -53.5q0 -35 -22.5 -53.5t-39.5 -18.5zM310 512q0 20 -14 33.5t-30 13.5h-70v-92h70q16 0 30 13.5t14 31.5z" />
    <glyph glyph-name="macron" unicode="&#xaf;" horiz-adv-x="240" 
d="M240 591h-240v27h240v-27z" />
    <glyph glyph-name="degree" unicode="&#xb0;" horiz-adv-x="273" 
d="M247 566q0 -46 -32.5 -78t-78.5 -32t-78 32t-32 78t32 78.5t78 32.5t78.5 -32.5t32.5 -78.5zM217 566q0 33 -24 57t-57 24t-56.5 -24t-23.5 -57t23.5 -56.5t56.5 -23.5t57 23.5t24 56.5z" />
    <glyph glyph-name="plusminus" unicode="&#xb1;" horiz-adv-x="374" 
d="M345 322h-142v-162h-32v162h-142v30h142v156h32v-156h142v-30zM345 60h-316v30h316v-30z" />
    <glyph glyph-name="twosuperior" unicode="&#xb2;" horiz-adv-x="240" 
d="M211 421h-177v24q95 148 120 196t25 90q0 32 -16 51t-41 19q-46 0 -69 -54l-23 16q33 64 92 64q39 0 63.5 -26t24.5 -70q0 -42 -26.5 -94t-114.5 -190h142v-26z" />
    <glyph glyph-name="threesuperior" unicode="&#xb3;" horiz-adv-x="240" 
d="M214 528q0 -51 -24 -82.5t-71 -31.5q-65 0 -94 68l24 15q24 -57 69 -57q65 0 65 89q0 46 -20 66t-47 20q-20 0 -24 -1v27q5 -1 23 -1q28 0 46 20.5t18 58.5q0 82 -60 82q-42 0 -66 -52l-24 15q14 29 38 46t52 17q40 0 65 -26.5t25 -78.5q0 -33 -16.5 -59.5t-42.5 -34.5
q25 -6 44.5 -33.5t19.5 -66.5z" />
    <glyph glyph-name="acute" unicode="&#xb4;" horiz-adv-x="119" 
d="M119 700l-95 -144h-24l78 144h41z" />
    <glyph glyph-name="mu" unicode="&#xb5;" horiz-adv-x="342" 
d="M95 -184h-30v667h30v-394q0 -76 53 -76q30 0 57 27.5t42 66.5v376h30v-483h-30v70q-39 -82 -103 -82q-31 0 -49 12v-184z" />
    <glyph glyph-name="paragraph" unicode="&#xb6;" horiz-adv-x="449" 
d="M357 -100h-30v737h-98v-737h-30v423q-71 0 -121.5 50.5t-50.5 121.5t50.5 121.5t121.5 50.5h158v-767z" />
    <glyph glyph-name="periodcentered" unicode="&#xb7;" horiz-adv-x="208" 
d="M137 245q0 -13 -9.5 -23t-23.5 -10t-23.5 10t-9.5 23t10 22.5t23 9.5t23 -9.5t10 -22.5z" />
    <glyph glyph-name="cedilla" unicode="&#xb8;" horiz-adv-x="151" 
d="M70 -187q-37 0 -70 28l13 26q28 -27 57 -27q21 0 36.5 13.5t15.5 35.5q0 40 -33 40q-16 0 -31 -15l-21 12l31 85h30l-27 -70q11 10 29 10q21 0 36 -17t15 -45q0 -32 -23.5 -54t-57.5 -22z" />
    <glyph glyph-name="onesuperior" unicode="&#xb9;" horiz-adv-x="190" 
d="M130 421h-30v360l-62 -67l-18 19l83 88h27v-400z" />
    <glyph glyph-name="ordmasculine" unicode="&#xba;" horiz-adv-x="272" 
d="M136 318q-49 0 -73.5 47t-24.5 118t24.5 118t73.5 47t73.5 -47t24.5 -118t-24.5 -118t-73.5 -47zM136 344q68 0 68 139q0 138 -68 138q-36 0 -52 -39.5t-16 -98.5t16 -99t52 -40z" />
    <glyph glyph-name="guillemotright" unicode="&#xbb;" horiz-adv-x="273" 
d="M153 243l-90 -180h-33l90 180l-90 177h33zM243 243l-90 -180h-33l90 180l-90 177h33z" />
    <glyph glyph-name="onequarter" unicode="&#xbc;" horiz-adv-x="514" 
d="M405 667l-270 -667h-32l269 667h33zM496 113h-38v-113h-29v113h-135v27l127 260h37v-261h38v-26zM429 139v222l-108 -222h108zM130 267h-30v360l-62 -67l-18 19l83 88h27v-400z" />
    <glyph glyph-name="onehalf" unicode="&#xbd;" horiz-adv-x="544" 
d="M405 667l-270 -667h-32l269 667h33zM515 0h-177v24q95 148 120 196t25 90q0 32 -16 51t-41 19q-46 0 -69 -54l-23 16q33 64 92 64q39 0 63.5 -26t24.5 -70q0 -42 -26.5 -94t-114.5 -190h142v-26zM130 267h-30v360l-62 -67l-18 19l83 88h27v-400z" />
    <glyph glyph-name="threequarters" unicode="&#xbe;" horiz-adv-x="550" 
d="M441 667l-270 -667h-32l269 667h33zM532 113h-38v-113h-29v113h-135v27l127 260h37v-261h38v-26zM465 139v222l-108 -222h108zM214 374q0 -51 -24 -82.5t-71 -31.5q-65 0 -94 68l24 15q24 -57 69 -57q65 0 65 89q0 46 -20 66t-47 20q-20 0 -24 -1v27q5 -1 23 -1
q28 0 46 20.5t18 58.5q0 82 -60 82q-42 0 -66 -52l-24 15q14 29 38 46t52 17q40 0 65 -26.5t25 -78.5q0 -33 -16.5 -59.5t-42.5 -34.5q25 -6 44.5 -33.5t19.5 -66.5z" />
    <glyph glyph-name="questiondown" unicode="&#xbf;" horiz-adv-x="256" 
d="M154 311q28 -35 28 -80q0 -43 -18.5 -80.5t-40.5 -61.5t-40.5 -63.5t-18.5 -84.5q0 -41 26 -75t67 -34q42 0 78 36l19 -25q-37 -41 -97 -41q-52 0 -88.5 41t-36.5 98q0 48 18.5 90t40.5 66.5t40.5 60t18.5 73.5q0 37 -23 60zM147 492q13 0 23 -10t10 -23t-10 -22.5
t-23 -9.5t-23 9.5t-10 22.5t10 23t23 10z" />
    <glyph glyph-name="Agrave" unicode="&#xc0;" horiz-adv-x="312" 
d="M196 728h-24l-95 144h41zM300 0h-33l-32 179h-158l-32 -179h-33l125 667h38zM230 209l-74 411l-74 -411h148z" />
    <glyph glyph-name="Aacute" unicode="&#xc1;" horiz-adv-x="312" 
d="M236 872l-95 -144h-24l78 144h41zM300 0h-33l-32 179h-158l-32 -179h-33l125 667h38zM230 209l-74 411l-74 -411h148z" />
    <glyph glyph-name="Acircumflex" unicode="&#xc2;" horiz-adv-x="312" 
d="M244 728h-23l-66 116l-63 -116h-23l68 144h36zM300 0h-33l-32 179h-158l-32 -179h-33l125 667h38zM230 209l-74 411l-74 -411h148z" />
    <glyph glyph-name="Atilde" unicode="&#xc3;" horiz-adv-x="312" 
d="M194 726q-19 0 -31 17.5t-15.5 39t-11.5 39t-20 17.5q-38 0 -38 -107h-22q0 134 63 134q19 0 31 -17.5t15.5 -39t11.5 -39t20 -17.5q38 0 38 107h22q0 -134 -63 -134zM300 0h-33l-32 179h-158l-32 -179h-33l125 667h38zM230 209l-74 411l-74 -411h148z" />
    <glyph glyph-name="Adieresis" unicode="&#xc4;" horiz-adv-x="312" 
d="M245 764q0 -11 -8.5 -19.5t-19.5 -8.5t-19.5 8.5t-8.5 19.5t8.5 19.5t19.5 8.5t19.5 -8.5t8.5 -19.5zM123 764q0 -11 -8.5 -19.5t-19.5 -8.5t-19.5 8.5t-8.5 19.5t8.5 19.5t19.5 8.5t19.5 -8.5t8.5 -19.5zM300 0h-33l-32 179h-158l-32 -179h-33l125 667h38zM230 209
l-74 411l-74 -411h148z" />
    <glyph glyph-name="Aring" unicode="&#xc5;" horiz-adv-x="312" 
d="M157 692q-32 0 -55 23t-23 55t23 55t55 23t54.5 -23t22.5 -55t-22.5 -55t-54.5 -23zM157 716q23 0 38.5 16t15.5 38t-15.5 38t-38.5 16t-38.5 -16t-15.5 -38t15.5 -38t38.5 -16zM300 0h-33l-32 179h-158l-32 -179h-33l125 667h38zM230 209l-74 411l-74 -411h148z" />
    <glyph glyph-name="AE" unicode="&#xc6;" horiz-adv-x="509" 
d="M456 0h-210v179h-136l-55 -179h-33l211 667h223v-30h-178v-279h171v-30h-171v-298h178v-30zM246 209v411l-127 -411h127z" />
    <glyph glyph-name="Ccedilla" unicode="&#xc7;" horiz-adv-x="357" 
d="M193 -183q-37 0 -70 28l13 26q28 -27 57 -27q21 0 36.5 13.5t15.5 35.5q0 40 -33 40q-16 0 -31 -15l-21 12l21 59q-128 20 -128 344q0 101 13 175t46.5 122t85.5 48q79 0 113 -103l-30 -12q-15 43 -33 64t-50 21q-56 0 -83 -87t-27 -228t27 -228t83 -87q35 0 54 27t32 78
l30 -12q-26 -113 -103 -122l-17 -44q11 10 29 10q21 0 36 -17t15 -45q0 -32 -23.5 -54t-57.5 -22z" />
    <glyph glyph-name="Egrave" unicode="&#xc8;" horiz-adv-x="330" 
d="M221 728h-24l-95 144h41zM282 0h-210v667h210v-30h-178v-279h171v-30h-171v-298h178v-30z" />
    <glyph glyph-name="Eacute" unicode="&#xc9;" horiz-adv-x="330" 
d="M258 872l-95 -144h-24l78 144h41zM282 0h-210v667h210v-30h-178v-279h171v-30h-171v-298h178v-30z" />
    <glyph glyph-name="Ecircumflex" unicode="&#xca;" horiz-adv-x="330" 
d="M268 728h-23l-66 116l-63 -116h-23l68 144h36zM282 0h-210v667h210v-30h-178v-279h171v-30h-171v-298h178v-30z" />
    <glyph glyph-name="Edieresis" unicode="&#xcb;" horiz-adv-x="330" 
d="M267 764q0 -11 -8.5 -19.5t-19.5 -8.5t-19.5 8.5t-8.5 19.5t8.5 19.5t19.5 8.5t19.5 -8.5t8.5 -19.5zM145 764q0 -11 -8.5 -19.5t-19.5 -8.5t-19.5 8.5t-8.5 19.5t8.5 19.5t19.5 8.5t19.5 -8.5t8.5 -19.5zM282 0h-210v667h210v-30h-178v-279h171v-30h-171v-298h178v-30z
" />
    <glyph glyph-name="Igrave" unicode="&#xcc;" horiz-adv-x="176" 
d="M129 728h-24l-95 144h41zM104 0h-32v667h32v-667z" />
    <glyph glyph-name="Iacute" unicode="&#xcd;" horiz-adv-x="176" 
d="M169 872l-95 -144h-24l78 144h41zM104 0h-32v667h32v-667z" />
    <glyph glyph-name="Icircumflex" unicode="&#xce;" horiz-adv-x="176" 
d="M177 728h-23l-66 116l-63 -116h-23l68 144h36zM104 0h-32v667h32v-667z" />
    <glyph glyph-name="Idieresis" unicode="&#xcf;" horiz-adv-x="176" 
d="M180 764q0 -11 -8.5 -19.5t-19.5 -8.5t-19.5 8.5t-8.5 19.5t8.5 19.5t19.5 8.5t19.5 -8.5t8.5 -19.5zM58 764q0 -11 -8.5 -19.5t-19.5 -8.5t-19.5 8.5t-8.5 19.5t8.5 19.5t19.5 8.5t19.5 -8.5t8.5 -19.5zM104 0h-32v667h32v-667z" />
    <glyph glyph-name="Eth" unicode="&#xd0;" horiz-adv-x="402" 
d="M181 0h-93v319h-62v30h62v318h93q86 0 127 -90t41 -244q0 -155 -41 -244t-127 -89zM218 319h-98v-289h61q133 0 133 303q0 304 -133 304h-61v-288h98v-30z" />
    <glyph glyph-name="Ntilde" unicode="&#xd1;" horiz-adv-x="395" 
d="M231 726q-19 0 -31 17.5t-15.5 39t-11.5 39t-20 17.5q-38 0 -38 -107h-22q0 134 63 134q19 0 31 -17.5t15.5 -39t11.5 -39t20 -17.5q38 0 38 107h22q0 -134 -63 -134zM323 0h-32l-187 575v-575h-32v667h32l187 -569v569h32v-667z" />
    <glyph glyph-name="Ograve" unicode="&#xd2;" 
d="M237 728h-24l-95 144h41zM198 -12q-53 0 -86.5 49.5t-46 123t-12.5 172.5t12.5 172.5t46 123t86.5 49.5t86.5 -49.5t46 -123t12.5 -172.5t-12.5 -172.5t-46 -123t-86.5 -49.5zM198 18q57 0 83.5 88.5t26.5 226.5q0 139 -26.5 227t-83.5 88t-83.5 -88t-26.5 -227
q0 -138 26.5 -226.5t83.5 -88.5z" />
    <glyph glyph-name="Oacute" unicode="&#xd3;" 
d="M278 872l-95 -144h-24l78 144h41zM198 -12q-53 0 -86.5 49.5t-46 123t-12.5 172.5t12.5 172.5t46 123t86.5 49.5t86.5 -49.5t46 -123t12.5 -172.5t-12.5 -172.5t-46 -123t-86.5 -49.5zM198 18q57 0 83.5 88.5t26.5 226.5q0 139 -26.5 227t-83.5 88t-83.5 -88t-26.5 -227
q0 -138 26.5 -226.5t83.5 -88.5z" />
    <glyph glyph-name="Ocircumflex" unicode="&#xd4;" 
d="M286 728h-23l-66 116l-63 -116h-23l68 144h36zM198 -12q-53 0 -86.5 49.5t-46 123t-12.5 172.5t12.5 172.5t46 123t86.5 49.5t86.5 -49.5t46 -123t12.5 -172.5t-12.5 -172.5t-46 -123t-86.5 -49.5zM198 18q57 0 83.5 88.5t26.5 226.5q0 139 -26.5 227t-83.5 88t-83.5 -88
t-26.5 -227q0 -138 26.5 -226.5t83.5 -88.5z" />
    <glyph glyph-name="Otilde" unicode="&#xd5;" 
d="M236 726q-19 0 -31 17.5t-15.5 39t-11.5 39t-20 17.5q-38 0 -38 -107h-22q0 134 63 134q19 0 31 -17.5t15.5 -39t11.5 -39t20 -17.5q38 0 38 107h22q0 -134 -63 -134zM198 -12q-53 0 -86.5 49.5t-46 123t-12.5 172.5t12.5 172.5t46 123t86.5 49.5t86.5 -49.5t46 -123
t12.5 -172.5t-12.5 -172.5t-46 -123t-86.5 -49.5zM198 18q57 0 83.5 88.5t26.5 226.5q0 139 -26.5 227t-83.5 88t-83.5 -88t-26.5 -227q0 -138 26.5 -226.5t83.5 -88.5z" />
    <glyph glyph-name="Odieresis" unicode="&#xd6;" 
d="M286 764q0 -11 -8.5 -19.5t-19.5 -8.5t-19.5 8.5t-8.5 19.5t8.5 19.5t19.5 8.5t19.5 -8.5t8.5 -19.5zM164 764q0 -11 -8.5 -19.5t-19.5 -8.5t-19.5 8.5t-8.5 19.5t8.5 19.5t19.5 8.5t19.5 -8.5t8.5 -19.5zM198 -12q-53 0 -86.5 49.5t-46 123t-12.5 172.5t12.5 172.5
t46 123t86.5 49.5t86.5 -49.5t46 -123t12.5 -172.5t-12.5 -172.5t-46 -123t-86.5 -49.5zM198 18q57 0 83.5 88.5t26.5 226.5q0 139 -26.5 227t-83.5 88t-83.5 -88t-26.5 -227q0 -138 26.5 -226.5t83.5 -88.5z" />
    <glyph glyph-name="multiply" unicode="&#xd7;" horiz-adv-x="374" 
d="M299 200l-112 113l-112 -113l-22 22l113 112l-113 112l22 22l112 -113l112 113l22 -22l-113 -112l113 -112z" />
    <glyph glyph-name="Oslash" unicode="&#xd8;" 
d="M198 -12q-54 0 -89 52l-14 -40h-33l27 77q-36 89 -36 256q0 99 12.5 172.5t46 123t86.5 49.5q55 0 88 -52l15 41h33l-28 -78q37 -91 37 -256q0 -99 -12.5 -172.5t-46 -123t-86.5 -49.5zM198 18q57 0 83.5 88.5t26.5 226.5q0 125 -20 205l-164 -458q27 -62 74 -62zM88 333
q0 -129 20 -205l164 458q-28 62 -74 62q-57 0 -83.5 -88t-26.5 -227z" />
    <glyph glyph-name="Ugrave" unicode="&#xd9;" 
d="M237 728h-24l-95 144h41zM198 -12q-126 0 -126 166v513h32v-513q0 -136 94 -136t94 136v513h32v-513q0 -166 -126 -166z" />
    <glyph glyph-name="Uacute" unicode="&#xda;" 
d="M277 872l-95 -144h-24l78 144h41zM198 -12q-126 0 -126 166v513h32v-513q0 -136 94 -136t94 136v513h32v-513q0 -166 -126 -166z" />
    <glyph glyph-name="Ucircumflex" unicode="&#xdb;" 
d="M285 728h-23l-66 116l-63 -116h-23l68 144h36zM198 -12q-126 0 -126 166v513h32v-513q0 -136 94 -136t94 136v513h32v-513q0 -166 -126 -166z" />
    <glyph glyph-name="Udieresis" unicode="&#xdc;" 
d="M286 764q0 -11 -8.5 -19.5t-19.5 -8.5t-19.5 8.5t-8.5 19.5t8.5 19.5t19.5 8.5t19.5 -8.5t8.5 -19.5zM164 764q0 -11 -8.5 -19.5t-19.5 -8.5t-19.5 8.5t-8.5 19.5t8.5 19.5t19.5 8.5t19.5 -8.5t8.5 -19.5zM198 -12q-126 0 -126 166v513h32v-513q0 -136 94 -136t94 136
v513h32v-513q0 -166 -126 -166z" />
    <glyph glyph-name="Yacute" unicode="&#xdd;" horiz-adv-x="322" 
d="M245 872l-95 -144h-24l78 144h41zM177 0h-32v289l-143 378h36l123 -339l125 339h34l-143 -378v-289z" />
    <glyph glyph-name="Thorn" unicode="&#xde;" horiz-adv-x="341" 
d="M104 0h-32v667h32v-129h68q67 0 101 -54t34 -136t-34 -135t-101 -53h-68v-160zM171 190q51 0 76 43t25 115q0 73 -25.5 116.5t-75.5 43.5h-67v-318h67z" />
    <glyph glyph-name="germandbls" unicode="&#xdf;" 
d="M379 105q0 -50 -31.5 -83.5t-77.5 -33.5q-64 0 -109 59l22 24q40 -56 87 -56q30 0 54.5 25.5t24.5 64.5q0 37 -18 65.5t-43.5 48.5t-51 40.5t-43.5 52t-18 72.5q0 29 16 54t35.5 41t35.5 40t16 51q0 33 -23.5 56.5t-60.5 23.5q-38 0 -62 -27t-24 -79v-544h-30v544
q0 60 32.5 96.5t83.5 36.5t81.5 -30.5t30.5 -76.5q0 -33 -16 -60t-34.5 -42t-34.5 -37t-16 -47q0 -35 18 -62.5t43.5 -47.5t51 -41t43.5 -53.5t18 -74.5z" />
    <glyph glyph-name="agrave" unicode="&#xe0;" horiz-adv-x="351" 
d="M218 556h-24l-95 144h41zM286 0h-30v70q-15 -37 -39.5 -59.5t-48.5 -22.5q-42 0 -70 34.5t-39.5 89.5t-11.5 129q0 114 29.5 184t91.5 70q25 0 49.5 -21.5t38.5 -62.5v72h30v-483zM168 15q28 0 53.5 30t34.5 70v251q-9 40 -34.5 71t-53.5 31q-88 0 -88 -227
q0 -226 88 -226z" />
    <glyph glyph-name="aacute" unicode="&#xe1;" horiz-adv-x="351" 
d="M258 700l-95 -144h-24l78 144h41zM286 0h-30v70q-15 -37 -39.5 -59.5t-48.5 -22.5q-42 0 -70 34.5t-39.5 89.5t-11.5 129q0 114 29.5 184t91.5 70q25 0 49.5 -21.5t38.5 -62.5v72h30v-483zM168 15q28 0 53.5 30t34.5 70v251q-9 40 -34.5 71t-53.5 31q-88 0 -88 -227
q0 -226 88 -226z" />
    <glyph glyph-name="acircumflex" unicode="&#xe2;" horiz-adv-x="351" 
d="M266 556h-23l-66 116l-63 -116h-23l68 144h36zM286 0h-30v70q-15 -37 -39.5 -59.5t-48.5 -22.5q-42 0 -70 34.5t-39.5 89.5t-11.5 129q0 114 29.5 184t91.5 70q25 0 49.5 -21.5t38.5 -62.5v72h30v-483zM168 15q28 0 53.5 30t34.5 70v251q-9 40 -34.5 71t-53.5 31
q-88 0 -88 -227q0 -226 88 -226z" />
    <glyph glyph-name="atilde" unicode="&#xe3;" horiz-adv-x="351" 
d="M214 554q-19 0 -31 17.5t-15.5 39t-11.5 39t-20 17.5q-38 0 -38 -107h-22q0 134 63 134q19 0 31 -17.5t15.5 -39t11.5 -39t20 -17.5q38 0 38 107h22q0 -134 -63 -134zM286 0h-30v70q-15 -37 -39.5 -59.5t-48.5 -22.5q-42 0 -70 34.5t-39.5 89.5t-11.5 129q0 114 29.5 184
t91.5 70q25 0 49.5 -21.5t38.5 -62.5v72h30v-483zM168 15q28 0 53.5 30t34.5 70v251q-9 40 -34.5 71t-53.5 31q-88 0 -88 -227q0 -226 88 -226z" />
    <glyph glyph-name="adieresis" unicode="&#xe4;" horiz-adv-x="351" 
d="M264 598q0 -11 -8.5 -19.5t-19.5 -8.5t-19.5 8.5t-8.5 19.5t8.5 19.5t19.5 8.5t19.5 -8.5t8.5 -19.5zM142 598q0 -11 -8.5 -19.5t-19.5 -8.5t-19.5 8.5t-8.5 19.5t8.5 19.5t19.5 8.5t19.5 -8.5t8.5 -19.5zM286 0h-30v70q-15 -37 -39.5 -59.5t-48.5 -22.5q-42 0 -70 34.5
t-39.5 89.5t-11.5 129q0 114 29.5 184t91.5 70q25 0 49.5 -21.5t38.5 -62.5v72h30v-483zM168 15q28 0 53.5 30t34.5 70v251q-9 40 -34.5 71t-53.5 31q-88 0 -88 -227q0 -226 88 -226z" />
    <glyph glyph-name="aring" unicode="&#xe5;" horiz-adv-x="351" 
d="M179 560q-32 0 -55 23t-23 55t23 55t55 23t54.5 -23t22.5 -55t-22.5 -55t-54.5 -23zM179 584q23 0 38.5 16t15.5 38t-15.5 38t-38.5 16t-38.5 -16t-15.5 -38t15.5 -38t38.5 -16zM286 0h-30v70q-15 -37 -39.5 -59.5t-48.5 -22.5q-42 0 -70 34.5t-39.5 89.5t-11.5 129
q0 114 29.5 184t91.5 70q25 0 49.5 -21.5t38.5 -62.5v72h30v-483zM168 15q28 0 53.5 30t34.5 70v251q-9 40 -34.5 71t-53.5 31q-88 0 -88 -227q0 -226 88 -226z" />
    <glyph glyph-name="ae" unicode="&#xe6;" horiz-adv-x="552" 
d="M286 0h-30v70q-15 -37 -39.5 -59.5t-48.5 -22.5q-42 0 -70 34.5t-39.5 89.5t-11.5 129q0 114 29.5 184t91.5 70q25 0 49.5 -21.5t38.5 -62.5v72h30v-76q26 88 96 88q68 0 98.5 -70.5t30.5 -182.5v-10h-225q0 -100 29.5 -158.5t83.5 -58.5q48 0 79 68l28 -14
q-40 -81 -107 -81q-85 0 -113 98v-86zM168 15q28 0 53.5 30t34.5 70v251q-9 40 -34.5 71t-53.5 31q-88 0 -88 -227q0 -226 88 -226zM478 259q0 53 -7.5 96.5t-30 78t-58.5 34.5q-27 0 -47 -20.5t-30 -53.5t-14.5 -66.5t-4.5 -68.5h192z" />
    <glyph glyph-name="ccedilla" unicode="&#xe7;" horiz-adv-x="294" 
d="M180 -185q-37 0 -70 28l13 26q28 -27 57 -27q21 0 36.5 13.5t15.5 35.5q0 40 -33 40q-16 0 -31 -15l-21 12l22 61q-60 8 -91 78t-31 175q0 111 34.5 182t101.5 71q46 0 84 -45l-21 -21q-29 39 -64 39q-54 0 -78 -65t-24 -161t24 -161.5t78 -65.5q36 0 64 39l21 -21
q-29 -39 -69 -44l-17 -46q11 10 29 10q21 0 36 -17t15 -45q0 -32 -23.5 -54t-57.5 -22z" />
    <glyph glyph-name="egrave" unicode="&#xe8;" horiz-adv-x="346" 
d="M193 -12q-75 0 -110.5 69.5t-35.5 184.5q0 113 31.5 183t97.5 70q68 0 98.5 -70.5t30.5 -182.5v-10h-225q0 -100 29.5 -158.5t83.5 -58.5q48 0 79 68l28 -14q-40 -81 -107 -81zM272 259q0 53 -7.5 96.5t-30 78t-58.5 34.5q-27 0 -47 -20.5t-30 -53.5t-14.5 -66.5
t-4.5 -68.5h192zM218 556h-24l-95 144h41z" />
    <glyph glyph-name="eacute" unicode="&#xe9;" horiz-adv-x="346" 
d="M193 -12q-75 0 -110.5 69.5t-35.5 184.5q0 113 31.5 183t97.5 70q68 0 98.5 -70.5t30.5 -182.5v-10h-225q0 -100 29.5 -158.5t83.5 -58.5q48 0 79 68l28 -14q-40 -81 -107 -81zM272 259q0 53 -7.5 96.5t-30 78t-58.5 34.5q-27 0 -47 -20.5t-30 -53.5t-14.5 -66.5
t-4.5 -68.5h192zM256 700l-95 -144h-24l78 144h41z" />
    <glyph glyph-name="ecircumflex" unicode="&#xea;" horiz-adv-x="346" 
d="M193 -12q-75 0 -110.5 69.5t-35.5 184.5q0 113 31.5 183t97.5 70q68 0 98.5 -70.5t30.5 -182.5v-10h-225q0 -100 29.5 -158.5t83.5 -58.5q48 0 79 68l28 -14q-40 -81 -107 -81zM272 259q0 53 -7.5 96.5t-30 78t-58.5 34.5q-27 0 -47 -20.5t-30 -53.5t-14.5 -66.5
t-4.5 -68.5h192zM265 556h-23l-66 116l-63 -116h-23l68 144h36z" />
    <glyph glyph-name="edieresis" unicode="&#xeb;" horiz-adv-x="346" 
d="M193 -12q-75 0 -110.5 69.5t-35.5 184.5q0 113 31.5 183t97.5 70q68 0 98.5 -70.5t30.5 -182.5v-10h-225q0 -100 29.5 -158.5t83.5 -58.5q48 0 79 68l28 -14q-40 -81 -107 -81zM272 259q0 53 -7.5 96.5t-30 78t-58.5 34.5q-27 0 -47 -20.5t-30 -53.5t-14.5 -66.5
t-4.5 -68.5h192zM264 598q0 -11 -8.5 -19.5t-19.5 -8.5t-19.5 8.5t-8.5 19.5t8.5 19.5t19.5 8.5t19.5 -8.5t8.5 -19.5zM142 598q0 -11 -8.5 -19.5t-19.5 -8.5t-19.5 8.5t-8.5 19.5t8.5 19.5t19.5 8.5t19.5 -8.5t8.5 -19.5z" />
    <glyph glyph-name="igrave" unicode="&#xec;" horiz-adv-x="160" 
d="M120 556h-24l-95 144h41zM95 0h-30v483h30v-483z" />
    <glyph glyph-name="iacute" unicode="&#xed;" horiz-adv-x="160" 
d="M160 700l-95 -144h-24l78 144h41zM95 0h-30v483h30v-483z" />
    <glyph glyph-name="icircumflex" unicode="&#xee;" horiz-adv-x="160" 
d="M168 556h-23l-66 116l-63 -116h-23l68 144h36zM95 0h-30v483h30v-483z" />
    <glyph glyph-name="idieresis" unicode="&#xef;" horiz-adv-x="160" 
d="M169 598q0 -11 -8.5 -19.5t-19.5 -8.5t-19.5 8.5t-8.5 19.5t8.5 19.5t19.5 8.5t19.5 -8.5t8.5 -19.5zM47 598q0 -11 -8.5 -19.5t-19.5 -8.5t-19.5 8.5t-8.5 19.5t8.5 19.5t19.5 8.5t19.5 -8.5t8.5 -19.5zM95 0h-30v483h30v-483z" />
    <glyph glyph-name="eth" unicode="&#xf0;" horiz-adv-x="352" 
d="M103 526l-12 25l101 45q-22 43 -36 66l29 16q19 -33 36 -69l73 33l11 -24l-73 -33q73 -169 73 -343q0 -111 -30.5 -182.5t-98.5 -71.5q-46 0 -76 37t-41.5 91.5t-11.5 125.5t11.5 125t41.5 91t76 37q50 0 75 -55q-19 66 -48 131zM176 15q96 0 96 227q0 226 -96 226
t-96 -226q0 -227 96 -227z" />
    <glyph glyph-name="ntilde" unicode="&#xf1;" horiz-adv-x="342" 
d="M277 0h-30v394q0 74 -53 74q-30 0 -57 -27.5t-42 -66.5v-374h-30v483h30v-72q18 37 45 60.5t58 23.5q41 0 60 -24.5t19 -76.5v-394zM211 554q-19 0 -31 17.5t-15.5 39t-11.5 39t-20 17.5q-38 0 -38 -107h-22q0 134 63 134q19 0 31 -17.5t15.5 -39t11.5 -39t20 -17.5
q38 0 38 107h22q0 -134 -63 -134z" />
    <glyph glyph-name="ograve" unicode="&#xf2;" horiz-adv-x="352" 
d="M176 -12q-46 0 -76 37t-41.5 91.5t-11.5 125.5t11.5 125t41.5 91t76 37q68 0 98.5 -71t30.5 -182t-30.5 -182.5t-98.5 -71.5zM176 15q96 0 96 227q0 226 -96 226t-96 -226q0 -227 96 -227zM217 556h-24l-95 144h41z" />
    <glyph glyph-name="oacute" unicode="&#xf3;" horiz-adv-x="352" 
d="M176 -12q-46 0 -76 37t-41.5 91.5t-11.5 125.5t11.5 125t41.5 91t76 37q68 0 98.5 -71t30.5 -182t-30.5 -182.5t-98.5 -71.5zM176 15q96 0 96 227q0 226 -96 226t-96 -226q0 -227 96 -227zM256 700l-95 -144h-24l78 144h41z" />
    <glyph glyph-name="ocircumflex" unicode="&#xf4;" horiz-adv-x="352" 
d="M176 -12q-46 0 -76 37t-41.5 91.5t-11.5 125.5t11.5 125t41.5 91t76 37q68 0 98.5 -71t30.5 -182t-30.5 -182.5t-98.5 -71.5zM176 15q96 0 96 227q0 226 -96 226t-96 -226q0 -227 96 -227zM264 556h-23l-66 116l-63 -116h-23l68 144h36z" />
    <glyph glyph-name="otilde" unicode="&#xf5;" horiz-adv-x="352" 
d="M176 -12q-46 0 -76 37t-41.5 91.5t-11.5 125.5t11.5 125t41.5 91t76 37q68 0 98.5 -71t30.5 -182t-30.5 -182.5t-98.5 -71.5zM176 15q96 0 96 227q0 226 -96 226t-96 -226q0 -227 96 -227zM214 554q-19 0 -31 17.5t-15.5 39t-11.5 39t-20 17.5q-38 0 -38 -107h-22
q0 134 63 134q19 0 31 -17.5t15.5 -39t11.5 -39t20 -17.5q38 0 38 107h22q0 -134 -63 -134z" />
    <glyph glyph-name="odieresis" unicode="&#xf6;" horiz-adv-x="352" 
d="M176 -12q-46 0 -76 37t-41.5 91.5t-11.5 125.5t11.5 125t41.5 91t76 37q68 0 98.5 -71t30.5 -182t-30.5 -182.5t-98.5 -71.5zM176 15q96 0 96 227q0 226 -96 226t-96 -226q0 -227 96 -227zM266 598q0 -11 -8.5 -19.5t-19.5 -8.5t-19.5 8.5t-8.5 19.5t8.5 19.5t19.5 8.5
t19.5 -8.5t8.5 -19.5zM144 598q0 -11 -8.5 -19.5t-19.5 -8.5t-19.5 8.5t-8.5 19.5t8.5 19.5t19.5 8.5t19.5 -8.5t8.5 -19.5z" />
    <glyph glyph-name="divide" unicode="&#xf7;" horiz-adv-x="374" 
d="M222 475q0 -13 -10 -23t-23 -10t-23 10t-10 23t10 23t23 10t23 -10t10 -23zM345 322h-316v30h316v-30zM222 193q0 -13 -10 -23t-23 -10t-23 10t-10 23t10 23t23 10t23 -10t10 -23z" />
    <glyph glyph-name="oslash" unicode="&#xf8;" horiz-adv-x="352" 
d="M86 0h-29l23 54q-33 66 -33 188q0 71 11.5 125t41.5 91t76 37q48 0 78 -38l12 26h29l-23 -54q33 -65 33 -187q0 -111 -30.5 -182.5t-98.5 -71.5q-48 0 -79 39zM176 15q96 0 96 227q0 93 -17 148l-144 -331q24 -44 65 -44zM80 242q0 -94 17 -149l143 331q-23 44 -64 44
q-96 0 -96 -226z" />
    <glyph glyph-name="ugrave" unicode="&#xf9;" horiz-adv-x="342" 
d="M277 0h-30v70q-39 -82 -103 -82q-42 0 -60.5 23.5t-18.5 77.5v394h30v-394q0 -74 53 -74q31 0 58 26.5t41 65.5v376h30v-483zM212 556h-24l-95 144h41z" />
    <glyph glyph-name="uacute" unicode="&#xfa;" horiz-adv-x="342" 
d="M277 0h-30v70q-39 -82 -103 -82q-42 0 -60.5 23.5t-18.5 77.5v394h30v-394q0 -74 53 -74q31 0 58 26.5t41 65.5v376h30v-483zM251 700l-95 -144h-24l78 144h41z" />
    <glyph glyph-name="ucircumflex" unicode="&#xfb;" horiz-adv-x="342" 
d="M277 0h-30v70q-39 -82 -103 -82q-42 0 -60.5 23.5t-18.5 77.5v394h30v-394q0 -74 53 -74q31 0 58 26.5t41 65.5v376h30v-483zM260 556h-23l-66 116l-63 -116h-23l68 144h36z" />
    <glyph glyph-name="udieresis" unicode="&#xfc;" horiz-adv-x="342" 
d="M277 0h-30v70q-39 -82 -103 -82q-42 0 -60.5 23.5t-18.5 77.5v394h30v-394q0 -74 53 -74q31 0 58 26.5t41 65.5v376h30v-483zM262 598q0 -11 -8.5 -19.5t-19.5 -8.5t-19.5 8.5t-8.5 19.5t8.5 19.5t19.5 8.5t19.5 -8.5t8.5 -19.5zM140 598q0 -11 -8.5 -19.5t-19.5 -8.5
t-19.5 8.5t-8.5 19.5t8.5 19.5t19.5 8.5t19.5 -8.5t8.5 -19.5z" />
    <glyph glyph-name="yacute" unicode="&#xfd;" horiz-adv-x="342" 
d="M250 700l-95 -144h-24l78 144h41zM163 -196q-68 0 -109 47l20 26q37 -46 90 -46q38 0 60.5 32.5t22.5 93.5v113q-39 -82 -103 -82q-42 0 -60.5 23.5t-18.5 77.5v394h30v-394q0 -74 53 -74q31 0 58 26.5t41 65.5v376h30v-526q0 -71 -30 -112t-84 -41z" />
    <glyph glyph-name="thorn" unicode="&#xfe;" horiz-adv-x="351" 
d="M183 -12q-60 0 -88 79v-251h-30v851h30v-249q31 77 88 77q42 0 70 -34.5t39.5 -89.5t11.5 -129q0 -114 -29.5 -184t-91.5 -70zM183 15q88 0 88 227q0 226 -88 226q-28 0 -53.5 -30t-34.5 -70v-251q9 -40 35 -71t53 -31z" />
    <glyph glyph-name="ydieresis" unicode="&#xff;" horiz-adv-x="342" 
d="M260 598q0 -11 -8.5 -19.5t-19.5 -8.5t-19.5 8.5t-8.5 19.5t8.5 19.5t19.5 8.5t19.5 -8.5t8.5 -19.5zM138 598q0 -11 -8.5 -19.5t-19.5 -8.5t-19.5 8.5t-8.5 19.5t8.5 19.5t19.5 8.5t19.5 -8.5t8.5 -19.5zM163 -196q-68 0 -109 47l20 26q37 -46 90 -46q38 0 60.5 32.5
t22.5 93.5v113q-39 -82 -103 -82q-42 0 -60.5 23.5t-18.5 77.5v394h30v-394q0 -74 53 -74q31 0 58 26.5t41 65.5v376h30v-526q0 -71 -30 -112t-84 -41z" />
    <glyph glyph-name="dotlessi" unicode="&#x131;" horiz-adv-x="160" 
d="M95 0h-30v483h30v-483z" />
    <glyph glyph-name="Lslash" unicode="&#x141;" horiz-adv-x="322" 
d="M26 272v34l62 36v325h32v-307l62 37v-34l-62 -37v-296h178v-30h-210v308z" />
    <glyph glyph-name="lslash" unicode="&#x142;" horiz-adv-x="222" 
d="M26 285v32l62 35v315h30v-298l62 36v-32l-62 -36v-261q0 -32 7.5 -46.5t26.5 -14.5q21 0 36 21l21 -18q-25 -30 -57 -30q-64 0 -64 88v244z" />
    <glyph glyph-name="OE" unicode="&#x152;" horiz-adv-x="561" 
d="M508 0h-210v80q-34 -92 -100 -92q-145 0 -145 345q0 344 145 344q67 0 100 -90v80h210v-30h-178v-279h171v-30h-171v-298h178v-30zM298 167v333q-26 147 -100 147q-110 0 -110 -314q0 -315 110 -315q36 0 62 39.5t38 109.5z" />
    <glyph glyph-name="oe" unicode="&#x153;" horiz-adv-x="571" 
d="M530 232h-225q0 -100 29.5 -158.5t83.5 -58.5q48 0 79 68l28 -14q-41 -81 -107 -81q-97 0 -128 129q-28 -129 -114 -129q-46 0 -76 37t-41.5 91.5t-11.5 125.5t11.5 125t41.5 91t76 37q84 0 113 -124q26 124 112 124q68 0 98.5 -70.5t30.5 -182.5v-10zM305 259h192
q0 53 -7.5 96.5t-30 78t-58.5 34.5q-27 0 -47 -20.5t-30 -53.5t-14.5 -66.5t-4.5 -68.5zM272 242q0 226 -96 226t-96 -226q0 -44 4.5 -81.5t14.5 -72t29.5 -54.5t47.5 -20q96 0 96 228z" />
    <glyph glyph-name="Scaron" unicode="&#x160;" horiz-adv-x="304" 
d="M189 728h-36l-71 144h23l66 -116l63 116h23zM145 -12q-70 0 -118 57l24 26q16 -24 42 -38.5t52 -14.5q43 0 73 35.5t30 93.5q0 50 -21 91t-50.5 71t-59.5 59.5t-51 71.5t-21 92q0 66 37 106t88 40q59 0 97 -41l-19 -25q-32 36 -78 36q-38 0 -65.5 -32t-27.5 -84
q0 -42 21 -79.5t50.5 -67t59.5 -61.5t51 -77.5t21 -99.5q0 -68 -37.5 -113.5t-97.5 -45.5z" />
    <glyph glyph-name="scaron" unicode="&#x161;" horiz-adv-x="278" 
d="M137 -12q-68 0 -109 59l22 21q36 -53 87 -53q32 0 55.5 25t23.5 65q0 37 -18 66.5t-43.5 50t-51 42t-43.5 53.5t-18 73q0 46 30.5 75.5t74.5 29.5q57 0 93 -51l-20 -20q-28 44 -73 44q-34 0 -54.5 -22.5t-20.5 -55.5q0 -35 18 -63t43.5 -49t51 -43t43.5 -55t18 -75
q0 -52 -32 -84.5t-77 -32.5zM164 556h-36l-71 144h23l66 -116l63 116h23z" />
    <glyph glyph-name="Ydieresis" unicode="&#x178;" horiz-adv-x="322" 
d="M254 764q0 -11 -8.5 -19.5t-19.5 -8.5t-19.5 8.5t-8.5 19.5t8.5 19.5t19.5 8.5t19.5 -8.5t8.5 -19.5zM132 764q0 -11 -8.5 -19.5t-19.5 -8.5t-19.5 8.5t-8.5 19.5t8.5 19.5t19.5 8.5t19.5 -8.5t8.5 -19.5zM177 0h-32v289l-143 378h36l123 -339l125 339h34l-143 -378v-289
z" />
    <glyph glyph-name="Zcaron" unicode="&#x17d;" horiz-adv-x="309" 
d="M175 728h-36l-71 144h23l66 -116l63 116h23zM273 0h-237v31l197 606h-197v30h230v-30l-198 -607h205v-30z" />
    <glyph glyph-name="zcaron" unicode="&#x17e;" horiz-adv-x="275" 
d="M234 0h-193v27l158 429h-158v27h189v-27l-156 -429h160v-27zM155 556h-36l-71 144h23l66 -116l63 116h23z" />
    <glyph glyph-name="florin" unicode="&#x192;" horiz-adv-x="335" 
d="M62 -161h-32l94 428h-50v30h57l65 293q8 39 35 63t63 24q35 0 51 -26l-24 -20q-9 16 -31 16q-49 0 -62 -60l-64 -290h100v-30h-107z" />
    <glyph glyph-name="circumflex" unicode="&#x2c6;" horiz-adv-x="175" 
d="M175 556h-23l-66 116l-63 -116h-23l68 144h36z" />
    <glyph glyph-name="caron" unicode="&#x2c7;" horiz-adv-x="175" 
d="M107 556h-36l-71 144h23l66 -116l63 116h23z" />
    <glyph glyph-name="breve" unicode="&#x2d8;" horiz-adv-x="230" 
d="M230 627q-42 -58 -115 -58t-115 58l22 18q14 -22 40 -35.5t53 -13.5t53 13.5t40 35.5z" />
    <glyph glyph-name="dotaccent" unicode="&#x2d9;" horiz-adv-x="58" 
d="M29 591q-11 0 -20 8.5t-9 20.5t9 20.5t20 8.5q12 0 20.5 -8.5t8.5 -20.5t-8.5 -20.5t-20.5 -8.5z" />
    <glyph glyph-name="ring" unicode="&#x2da;" horiz-adv-x="155" 
d="M78 560q-32 0 -55 23t-23 55t23 55t55 23t54.5 -23t22.5 -55t-22.5 -55t-54.5 -23zM78 584q22 0 38 16t16 38t-16 38t-38 16t-38 -16t-16 -38t16 -38t38 -16z" />
    <glyph glyph-name="ogonek" unicode="&#x2db;" horiz-adv-x="124" 
d="M99 -122l25 -11q-14 -53 -63 -53q-28 0 -44.5 18t-16.5 53q0 77 78 132l23 -17q-72 -49 -72 -115q0 -44 32 -44q30 0 38 37z" />
    <glyph glyph-name="tilde" unicode="&#x2dc;" horiz-adv-x="201" 
d="M138 554q-19 0 -31 17.5t-15.5 39t-11.5 39t-20 17.5q-38 0 -38 -107h-22q0 134 63 134q19 0 31 -17.5t15.5 -39t11.5 -39t20 -17.5q38 0 38 107h22q0 -134 -63 -134z" />
    <glyph glyph-name="hungarumlaut" unicode="&#x2dd;" horiz-adv-x="201" 
d="M95 700l-75 -144h-20l58 144h37zM201 700l-75 -144h-20l58 144h37z" />
    <glyph glyph-name="pi" unicode="&#x3c0;" horiz-adv-x="279" 
d="M220 0h-32v471h-98v-471h-32v471h-40v29h243v-29h-41v-471z" />
    <glyph glyph-name="endash" unicode="&#x2013;" horiz-adv-x="460" 
d="M430 227h-400v30h400v-30z" />
    <glyph glyph-name="emdash" unicode="&#x2014;" horiz-adv-x="640" 
d="M610 227h-580v30h580v-30z" />
    <glyph glyph-name="quoteleft" unicode="&#x2018;" horiz-adv-x="208" 
d="M69 556q0 36 18 69.5t44 51.5l22 -18q-24 -18 -38.5 -43.5t-14.5 -48.5q5 1 7 1q14 0 23 -9.5t9 -23.5q0 -13 -9 -22.5t-23 -9.5q-16 0 -27 14t-11 39z" />
    <glyph glyph-name="quoteright" unicode="&#x2019;" horiz-adv-x="208" 
d="M141 624q0 -36 -18 -69.5t-44 -51.5l-22 18q24 18 38.5 43.5t14.5 48.5q-5 -1 -7 -1q-14 0 -23 9.5t-9 23.5q0 13 9 22.5t23 9.5q16 0 27 -14t11 -39z" />
    <glyph glyph-name="quotesinglbase" unicode="&#x201a;" horiz-adv-x="208" 
d="M141 3q0 -36 -18 -69.5t-44 -51.5l-22 18q24 18 38.5 43.5t14.5 48.5q-5 -1 -7 -1q-14 0 -23 9.5t-9 23.5q0 13 9 22.5t23 9.5q16 0 27 -14t11 -39z" />
    <glyph glyph-name="quotedblleft" unicode="&#x201c;" horiz-adv-x="331" 
d="M67 556q0 36 18 69.5t44 51.5l22 -18q-24 -18 -38.5 -43.5t-14.5 -48.5q5 1 7 1q14 0 23 -9.5t9 -23.5q0 -13 -9 -22.5t-23 -9.5q-16 0 -27 14t-11 39zM190 556q0 36 18 69.5t44 51.5l22 -18q-24 -18 -38.5 -43.5t-14.5 -48.5q5 1 7 1q14 0 23 -9.5t9 -23.5
q0 -13 -9 -22.5t-23 -9.5q-16 0 -27 14t-11 39z" />
    <glyph glyph-name="quotedblright" unicode="&#x201d;" horiz-adv-x="331" 
d="M264 624q0 -36 -18 -69.5t-44 -51.5l-22 18q24 18 38.5 43.5t14.5 48.5q-5 -1 -7 -1q-14 0 -23 9.5t-9 23.5q0 13 9 22.5t23 9.5q16 0 27 -14t11 -39zM141 624q0 -36 -18 -69.5t-44 -51.5l-22 18q24 18 38.5 43.5t14.5 48.5q-5 -1 -7 -1q-14 0 -23 9.5t-9 23.5
q0 13 9 22.5t23 9.5q16 0 27 -14t11 -39z" />
    <glyph glyph-name="quotedblbase" unicode="&#x201e;" horiz-adv-x="331" 
d="M141 3q0 -36 -18 -69.5t-44 -51.5l-22 18q24 18 38.5 43.5t14.5 48.5q-5 -1 -7 -1q-14 0 -23 9.5t-9 23.5q0 13 9 22.5t23 9.5q16 0 27 -14t11 -39zM264 3q0 -36 -18 -69.5t-44 -51.5l-22 18q24 18 38.5 43.5t14.5 48.5q-5 -1 -7 -1q-14 0 -23 9.5t-9 23.5q0 13 9 22.5
t23 9.5q16 0 27 -14t11 -39z" />
    <glyph glyph-name="dagger" unicode="&#x2020;" horiz-adv-x="251" 
d="M226 539l-89 4l4 -216h-31l4 216l-89 -4v27l89 -3l-4 114h31l-4 -114l89 3v-27z" />
    <glyph glyph-name="daggerdbl" unicode="&#x2021;" horiz-adv-x="251" 
d="M226 566v-27l-89 4v-229l89 4v-27l-89 3l4 -114h-31l4 114l-89 -3v27l89 -4v229l-89 -4v27l89 -3l-4 114h31l-4 -114z" />
    <glyph glyph-name="bullet" unicode="&#x2022;" horiz-adv-x="358" 
d="M278 242q0 -40 -29 -68.5t-69 -28.5t-69 28.5t-29 68.5t29 69t69 29t69 -29t29 -69z" />
    <glyph glyph-name="ellipsis" unicode="&#x2026;" horiz-adv-x="624" 
d="M137 24q0 -14 -9.5 -23.5t-23.5 -9.5t-23.5 9.5t-9.5 23.5q0 13 10 22.5t23 9.5t23 -9.5t10 -22.5zM345 24q0 -14 -9.5 -23.5t-23.5 -9.5t-23.5 9.5t-9.5 23.5q0 13 10 22.5t23 9.5t23 -9.5t10 -22.5zM553 24q0 -14 -9.5 -23.5t-23.5 -9.5t-23.5 9.5t-9.5 23.5
q0 13 10 22.5t23 9.5t23 -9.5t10 -22.5z" />
    <glyph glyph-name="perthousand" unicode="&#x2030;" horiz-adv-x="817" 
d="M262 513q0 -71 -30.5 -116.5t-82.5 -45.5q-51 0 -82 45.5t-31 116.5q0 72 31 118t82 46q52 0 82.5 -46t30.5 -118zM429 667l-270 -667h-32l269 667h33zM519 150q0 -71 -31 -116.5t-82 -45.5t-82 45.5t-31 116.5q0 72 31 118t82 46t82 -46t31 -118zM229 513
q0 58 -21.5 97.5t-58.5 39.5t-58.5 -39.5t-21.5 -97.5q0 -57 21.5 -96t58.5 -39t58.5 39t21.5 96zM486 150q0 58 -21.5 97.5t-58.5 39.5t-58.5 -39.5t-21.5 -97.5q0 -57 21.5 -96t58.5 -39t58.5 39t21.5 96zM781 150q0 -71 -31 -116.5t-82 -45.5t-82 45.5t-31 116.5
q0 72 31 118t82 46t82 -46t31 -118zM748 150q0 58 -21.5 97.5t-58.5 39.5t-58.5 -39.5t-21.5 -97.5q0 -57 21.5 -96t58.5 -39t58.5 39t21.5 96z" />
    <glyph glyph-name="guilsinglleft" unicode="&#x2039;" horiz-adv-x="183" 
d="M153 63h-33l-90 180l90 177h33l-90 -177z" />
    <glyph glyph-name="guilsinglright" unicode="&#x203a;" horiz-adv-x="183" 
d="M153 243l-90 -180h-33l90 180l-90 177h33z" />
    <glyph glyph-name="fraction" unicode="&#x2044;" horiz-adv-x="100" 
d="M201 667l-270 -667h-32l269 667h33z" />
    <glyph glyph-name="Euro" unicode="&#x20ac;" horiz-adv-x="366" 
d="M207 -12q-125 0 -142 259h-47v30h45q-1 18 -1 56q0 39 1 58h-45v30h47q8 118 42.5 187.5t99.5 69.5q79 0 113 -103l-30 -12q-15 43 -33 64t-50 21q-91 0 -107 -227h137v-30h-139q-1 -19 -1 -58q0 -38 1 -56h139v-30h-137q15 -229 107 -229q35 0 54 27t32 78l30 -12
q-29 -123 -116 -123z" />
    <glyph glyph-name="trademark" unicode="&#x2122;" horiz-adv-x="374" 
d="M339 447h-28v182l-55 -182h-8l-55 182v-182h-28v220h43l44 -157l44 157h43v-220zM129 641h-42v-194h-28v194h-42v26h112v-26z" />
    <glyph glyph-name="Omega" unicode="&#x2126;" horiz-adv-x="376" 
d="M52 0v30h69q-78 98 -78 303q0 164 36 254.5t109 90.5t109 -90.5t36 -254.5q0 -206 -79 -303h70v-30h-100v30q28 26 51 98.5t23 204.5q0 314 -110 314t-110 -314q0 -132 23 -204.5t51 -98.5v-30h-100z" />
    <glyph glyph-name="partialdiff" unicode="&#x2202;" horiz-adv-x="352" 
d="M176 -12q-46 0 -76 37t-41.5 91.5t-11.5 125.5t11.5 125t41.5 91t76 37q50 0 75 -55q-36 130 -94 222l28 16q57 -96 88.5 -210t31.5 -226q0 -111 -30.5 -182.5t-98.5 -71.5zM176 15q96 0 96 227q0 226 -96 226t-96 -226q0 -227 96 -227z" />
    <glyph glyph-name="Delta" unicode="&#x2206;" horiz-adv-x="352" 
d="M340 0h-328l145 667h38zM301 30l-125 590l-125 -590h250z" />
    <glyph glyph-name="product" unicode="&#x220f;" horiz-adv-x="348" 
d="M274 -90h-32v727h-137v-727h-32v727h-55v30h312v-30h-56v-727z" />
    <glyph glyph-name="summation" unicode="&#x2211;" horiz-adv-x="294" 
d="M81 637l118 -337l-119 -360h178v-30h-210v31l118 358l-118 338v30h210v-30h-177z" />
    <glyph glyph-name="minus" unicode="&#x2212;" horiz-adv-x="374" 
d="M345 319h-316v30h316v-30z" />
    <glyph glyph-name="radical" unicode="&#x221a;" horiz-adv-x="464" 
d="M289 0h-35l-76 331l-128 -28l-6 29l154 34l74 -331l146 632h28z" />
    <glyph glyph-name="infinity" unicode="&#x221e;" horiz-adv-x="467" 
d="M132 180q-50 0 -76.5 46t-26.5 109t26.5 109t76.5 46q65 0 101 -114q36 114 102 114q50 0 76.5 -46t26.5 -109t-26.5 -109t-76.5 -46q-66 0 -102 114q-36 -114 -101 -114zM330 211q37 0 56.5 34.5t19.5 89.5t-19.5 90t-56.5 35q-49 0 -82 -125q33 -124 82 -124zM137 211
q47 0 82 124q-35 125 -82 125q-37 0 -56.5 -35t-19.5 -90t19.5 -89.5t56.5 -34.5z" />
    <glyph glyph-name="integral" unicode="&#x222b;" horiz-adv-x="226" 
d="M49 -100h-32v30h32q21 0 35 18t14 45v682q0 41 24 67t55 26h32v-30h-32q-21 0 -35 -17.5t-14 -45.5v-682q0 -41 -24 -67t-55 -26z" />
    <glyph glyph-name="approxequal" unicode="&#x2248;" horiz-adv-x="374" 
d="M29 220v33q34 -18 79 -18q34 0 76 16t81 16q43 0 80 -15v-33q-35 18 -80 18q-33 0 -75 -16t-82 -16q-42 0 -79 15zM29 416v33q34 -18 79 -18q34 0 76 16t81 16q43 0 80 -15v-33q-35 18 -80 18q-33 0 -75 -16t-82 -16q-42 0 -79 15z" />
    <glyph glyph-name="notequal" unicode="&#x2260;" horiz-adv-x="374" 
d="M105 93h-32l51 127h-95v30h107l68 168h-175v30h187l52 126h33l-52 -126h96v-30h-108l-68 -168h176v-30h-188z" />
    <glyph glyph-name="lessequal" unicode="&#x2264;" horiz-adv-x="374" 
d="M345 166l-316 158v21l316 158v-36l-275 -133l275 -132v-36zM345 60h-316v30h316v-30z" />
    <glyph glyph-name="greaterequal" unicode="&#x2265;" horiz-adv-x="374" 
d="M345 324l-316 -158v36l275 132l-275 133v36l316 -158v-21zM345 60h-316v30h316v-30z" />
    <glyph glyph-name="lozenge" unicode="&#x25ca;" horiz-adv-x="375" 
d="M198 0h-21l-158 334l158 333h21l158 -333zM188 41l132 293l-133 292l-132 -292z" />
    <glyph glyph-name="apple" unicode="&#xf8ff;" horiz-adv-x="667" 
d="M233 154v81h-80q-34 0 -56.5 -23.5t-22.5 -57.5t23 -58t56 -24q34 0 57 24t23 58zM233 432v82q0 34 -22.5 57.5t-56.5 23.5t-57 -23.5t-23 -57.5t23 -58t57 -24h79zM265 265h137v137h-137v-137zM593 154q0 34 -22.5 57.5t-56.5 23.5h-80v-81q0 -34 23 -58t57 -24
q33 0 56 24t23 58zM593 514q0 34 -22.5 57.5t-56.5 23.5t-57 -23.5t-23 -57.5v-82h80q33 0 56 24t23 58zM625 154q0 -46 -32.5 -79t-78.5 -33t-79 33t-33 79v81h-137v-81q0 -46 -33 -79t-79 -33t-78.5 33t-32.5 79t32.5 78.5t78.5 32.5h80v137h-79q-46 0 -79 33t-33 79
t33 78.5t79 32.5t78.5 -32.5t32.5 -78.5v-82h137v82q0 46 33 78.5t79 32.5t78.5 -32.5t32.5 -78.5t-32.5 -79t-78.5 -33h-80v-137h80q46 0 78.5 -32.5t32.5 -78.5z" />
    <hkern u1="a" u2="&#x178;" k="30" />
    <hkern u1="a" u2="&#xdd;" k="30" />
    <hkern u1="a" u2="Y" k="30" />
    <hkern u1="a" u2="W" k="10" />
    <hkern u1="a" u2="T" k="40" />
    <hkern u1="a" u2="&#x3f;" k="30" />
    <hkern u1="h" u2="&#x178;" k="40" />
    <hkern u1="h" u2="&#xdd;" k="40" />
    <hkern u1="h" u2="Y" k="40" />
    <hkern u1="h" u2="V" k="10" />
    <hkern u1="h" u2="&#x3f;" k="40" />
    <hkern u1="m" u2="&#x178;" k="40" />
    <hkern u1="m" u2="&#xdd;" k="40" />
    <hkern u1="m" u2="Y" k="40" />
    <hkern u1="m" u2="V" k="10" />
    <hkern u1="m" u2="&#x3f;" k="40" />
    <hkern g1="A,Agrave,Aacute,Acircumflex,Atilde,Adieresis,Aring,Delta"
	g2="asterisk"
	k="30" />
    <hkern g1="A,Agrave,Aacute,Acircumflex,Atilde,Adieresis,Aring,Delta"
	g2="question"
	k="40" />
    <hkern g1="A,Agrave,Aacute,Acircumflex,Atilde,Adieresis,Aring,Delta"
	g2="T"
	k="20" />
    <hkern g1="A,Agrave,Aacute,Acircumflex,Atilde,Adieresis,Aring,Delta"
	g2="Y,Yacute,Ydieresis"
	k="10" />
    <hkern g1="A,Agrave,Aacute,Acircumflex,Atilde,Adieresis,Aring,Delta"
	g2="c,d,e,g,o,q,ccedilla,eth,oslash,oe"
	k="5" />
    <hkern g1="A,Agrave,Aacute,Acircumflex,Atilde,Adieresis,Aring,Delta"
	g2="dagger"
	k="30" />
    <hkern g1="A,Agrave,Aacute,Acircumflex,Atilde,Adieresis,Aring,Delta"
	g2="quotedbl,quotesingle,registered,quoteleft,quoteright,quotedblleft,quotedblright,trademark"
	k="20" />
    <hkern g1="A,Agrave,Aacute,Acircumflex,Atilde,Adieresis,Aring,Delta"
	g2="a,ae"
	k="5" />
    <hkern g1="B"
	g2="T"
	k="10" />
    <hkern g1="B"
	g2="Y,Yacute,Ydieresis"
	k="20" />
    <hkern g1="B"
	g2="V"
	k="10" />
    <hkern g1="B"
	g2="W"
	k="5" />
    <hkern g1="C,Ccedilla"
	g2="question"
	k="10" />
    <hkern g1="C,Ccedilla"
	g2="Y,Yacute,Ydieresis"
	k="10" />
    <hkern g1="C,Ccedilla"
	g2="comma,period,quotesinglbase,quotedblbase,ellipsis"
	k="10" />
    <hkern g1="C,Ccedilla"
	g2="t"
	k="20" />
    <hkern g1="C,Ccedilla"
	g2="v"
	k="20" />
    <hkern g1="C,Ccedilla"
	g2="w"
	k="20" />
    <hkern g1="C,Ccedilla"
	g2="f,fi,fl"
	k="10" />
    <hkern g1="D,O,Q,Eth,Ograve,Oacute,Ocircumflex,Otilde,Odieresis,Oslash,Thorn"
	g2="question"
	k="20" />
    <hkern g1="D,O,Q,Eth,Ograve,Oacute,Ocircumflex,Otilde,Odieresis,Oslash,Thorn"
	g2="T"
	k="10" />
    <hkern g1="D,O,Q,Eth,Ograve,Oacute,Ocircumflex,Otilde,Odieresis,Oslash,Thorn"
	g2="Y,Yacute,Ydieresis"
	k="10" />
    <hkern g1="D,O,Q,Eth,Ograve,Oacute,Ocircumflex,Otilde,Odieresis,Oslash,Thorn"
	g2="quotedbl,quotesingle,registered,quoteleft,quoteright,quotedblleft,quotedblright,trademark"
	k="10" />
    <hkern g1="D,O,Q,Eth,Ograve,Oacute,Ocircumflex,Otilde,Odieresis,Oslash,Thorn"
	g2="comma,period,quotesinglbase,quotedblbase,ellipsis"
	k="20" />
    <hkern g1="D,O,Q,Eth,Ograve,Oacute,Ocircumflex,Otilde,Odieresis,Oslash,Thorn"
	g2="J"
	k="20" />
    <hkern g1="D,O,Q,Eth,Ograve,Oacute,Ocircumflex,Otilde,Odieresis,Oslash,Thorn"
	g2="X"
	k="10" />
    <hkern g1="D,O,Q,Eth,Ograve,Oacute,Ocircumflex,Otilde,Odieresis,Oslash,Thorn"
	g2="Z,Zcaron"
	k="10" />
    <hkern g1="F"
	g2="comma,period,quotesinglbase,quotedblbase,ellipsis"
	k="60" />
    <hkern g1="F"
	g2="J"
	k="60" />
    <hkern g1="F"
	g2="ampersand"
	k="30" />
    <hkern g1="F"
	g2="A,Agrave,Aacute,Acircumflex,Atilde,Adieresis,Aring,AE,Delta"
	k="30" />
    <hkern g1="G"
	g2="question"
	k="20" />
    <hkern g1="G"
	g2="T"
	k="10" />
    <hkern g1="K"
	g2="c,d,e,g,o,q,ccedilla,eth,oslash,oe"
	k="30" />
    <hkern g1="K"
	g2="a,ae"
	k="30" />
    <hkern g1="K"
	g2="t"
	k="20" />
    <hkern g1="K"
	g2="v"
	k="40" />
    <hkern g1="K"
	g2="w"
	k="40" />
    <hkern g1="K"
	g2="f,fi,fl"
	k="20" />
    <hkern g1="K"
	g2="hyphen,periodcentered,endash,emdash"
	k="20" />
    <hkern g1="K"
	g2="C,G,O,Q,Ccedilla,Ograve,Oacute,Ocircumflex,Otilde,Odieresis,Oslash,OE"
	k="20" />
    <hkern g1="K"
	g2="u"
	k="20" />
    <hkern g1="K"
	g2="x"
	k="30" />
    <hkern g1="K"
	g2="y,yacute,ydieresis"
	k="20" />
    <hkern g1="L,Lslash"
	g2="asterisk"
	k="90" />
    <hkern g1="L,Lslash"
	g2="question"
	k="60" />
    <hkern g1="L,Lslash"
	g2="T"
	k="30" />
    <hkern g1="L,Lslash"
	g2="Y,Yacute,Ydieresis"
	k="60" />
    <hkern g1="L,Lslash"
	g2="c,d,e,g,o,q,ccedilla,eth,oslash,oe"
	k="20" />
    <hkern g1="L,Lslash"
	g2="dagger"
	k="90" />
    <hkern g1="L,Lslash"
	g2="quotedbl,quotesingle,registered,quoteleft,quoteright,quotedblleft,quotedblright,trademark"
	k="100" />
    <hkern g1="L,Lslash"
	g2="a,ae"
	k="20" />
    <hkern g1="L,Lslash"
	g2="V"
	k="50" />
    <hkern g1="L,Lslash"
	g2="W"
	k="40" />
    <hkern g1="L,Lslash"
	g2="t"
	k="20" />
    <hkern g1="L,Lslash"
	g2="v"
	k="40" />
    <hkern g1="L,Lslash"
	g2="w"
	k="30" />
    <hkern g1="L,Lslash"
	g2="ampersand"
	k="20" />
    <hkern g1="L,Lslash"
	g2="C,G,O,Q,Ccedilla,Ograve,Oacute,Ocircumflex,Otilde,Odieresis,Oslash,OE"
	k="30" />
    <hkern g1="L,Lslash"
	g2="u"
	k="20" />
    <hkern g1="L,Lslash"
	g2="y,yacute,ydieresis"
	k="20" />
    <hkern g1="L,Lslash"
	g2="U,Ugrave,Uacute,Ucircumflex,Udieresis"
	k="20" />
    <hkern g1="L,Lslash"
	g2="daggerdbl"
	k="60" />
    <hkern g1="P"
	g2="c,d,e,g,o,q,ccedilla,eth,oslash,oe"
	k="20" />
    <hkern g1="P"
	g2="a,ae"
	k="20" />
    <hkern g1="P"
	g2="comma,period,quotesinglbase,quotedblbase,ellipsis"
	k="90" />
    <hkern g1="P"
	g2="J"
	k="65" />
    <hkern g1="P"
	g2="ampersand"
	k="20" />
    <hkern g1="P"
	g2="A,Agrave,Aacute,Acircumflex,Atilde,Adieresis,Aring,AE,Delta"
	k="15" />
    <hkern g1="P"
	g2="hyphen,periodcentered,endash,emdash"
	k="30" />
    <hkern g1="R"
	g2="T"
	k="10" />
    <hkern g1="R"
	g2="c,d,e,g,o,q,ccedilla,eth,oslash,oe"
	k="20" />
    <hkern g1="R"
	g2="a,ae"
	k="20" />
    <hkern g1="R"
	g2="v"
	k="10" />
    <hkern g1="R"
	g2="w"
	k="10" />
    <hkern g1="R"
	g2="x"
	k="10" />
    <hkern g1="R"
	g2="s"
	k="10" />
    <hkern g1="S,Scaron"
	g2="t"
	k="10" />
    <hkern g1="S,Scaron"
	g2="x"
	k="10" />
    <hkern g1="T"
	g2="c,d,e,g,o,q,ccedilla,eth,oslash,oe"
	k="50" />
    <hkern g1="T"
	g2="a,ae"
	k="50" />
    <hkern g1="T"
	g2="comma,period,quotesinglbase,quotedblbase,ellipsis"
	k="50" />
    <hkern g1="T"
	g2="v"
	k="40" />
    <hkern g1="T"
	g2="w"
	k="40" />
    <hkern g1="T"
	g2="f,fi,fl"
	k="10" />
    <hkern g1="T"
	g2="J"
	k="50" />
    <hkern g1="T"
	g2="ampersand"
	k="30" />
    <hkern g1="T"
	g2="A,Agrave,Aacute,Acircumflex,Atilde,Adieresis,Aring,AE,Delta"
	k="20" />
    <hkern g1="T"
	g2="hyphen,periodcentered,endash,emdash"
	k="40" />
    <hkern g1="T"
	g2="C,G,O,Q,Ccedilla,Ograve,Oacute,Ocircumflex,Otilde,Odieresis,Oslash,OE"
	k="10" />
    <hkern g1="T"
	g2="u"
	k="40" />
    <hkern g1="T"
	g2="x"
	k="40" />
    <hkern g1="T"
	g2="y,yacute,ydieresis"
	k="40" />
    <hkern g1="T"
	g2="s"
	k="40" />
    <hkern g1="T"
	g2="colon,semicolon"
	k="50" />
    <hkern g1="T"
	g2="m,n,p,r,z"
	k="40" />
    <hkern g1="J,U,Ugrave,Uacute,Ucircumflex,Udieresis"
	g2="comma,period,quotesinglbase,quotedblbase,ellipsis"
	k="30" />
    <hkern g1="V"
	g2="c,d,e,g,o,q,ccedilla,eth,oslash,oe"
	k="10" />
    <hkern g1="V"
	g2="a,ae"
	k="10" />
    <hkern g1="V"
	g2="comma,period,quotesinglbase,quotedblbase,ellipsis"
	k="50" />
    <hkern g1="V"
	g2="t"
	k="10" />
    <hkern g1="V"
	g2="J"
	k="30" />
    <hkern g1="V"
	g2="s"
	k="20" />
    <hkern g1="W"
	g2="c,d,e,g,o,q,ccedilla,eth,oslash,oe"
	k="20" />
    <hkern g1="W"
	g2="a,ae"
	k="20" />
    <hkern g1="W"
	g2="comma,period,quotesinglbase,quotedblbase,ellipsis"
	k="40" />
    <hkern g1="W"
	g2="J"
	k="20" />
    <hkern g1="W"
	g2="ampersand"
	k="10" />
    <hkern g1="W"
	g2="hyphen,periodcentered,endash,emdash"
	k="10" />
    <hkern g1="W"
	g2="u"
	k="10" />
    <hkern g1="W"
	g2="y,yacute,ydieresis"
	k="10" />
    <hkern g1="W"
	g2="s"
	k="10" />
    <hkern g1="W"
	g2="m,n,p,r,z"
	k="10" />
    <hkern g1="Y,Yacute,Ydieresis"
	g2="c,d,e,g,o,q,ccedilla,eth,oslash,oe"
	k="50" />
    <hkern g1="Y,Yacute,Ydieresis"
	g2="a,ae"
	k="50" />
    <hkern g1="Y,Yacute,Ydieresis"
	g2="comma,period,quotesinglbase,quotedblbase,ellipsis"
	k="50" />
    <hkern g1="Y,Yacute,Ydieresis"
	g2="t"
	k="10" />
    <hkern g1="Y,Yacute,Ydieresis"
	g2="v"
	k="20" />
    <hkern g1="Y,Yacute,Ydieresis"
	g2="w"
	k="20" />
    <hkern g1="Y,Yacute,Ydieresis"
	g2="f,fi,fl"
	k="10" />
    <hkern g1="Y,Yacute,Ydieresis"
	g2="J"
	k="40" />
    <hkern g1="Y,Yacute,Ydieresis"
	g2="ampersand"
	k="20" />
    <hkern g1="Y,Yacute,Ydieresis"
	g2="A,Agrave,Aacute,Acircumflex,Atilde,Adieresis,Aring,AE,Delta"
	k="10" />
    <hkern g1="Y,Yacute,Ydieresis"
	g2="hyphen,periodcentered,endash,emdash"
	k="50" />
    <hkern g1="Y,Yacute,Ydieresis"
	g2="C,G,O,Q,Ccedilla,Ograve,Oacute,Ocircumflex,Otilde,Odieresis,Oslash,OE"
	k="10" />
    <hkern g1="Y,Yacute,Ydieresis"
	g2="u"
	k="30" />
    <hkern g1="Y,Yacute,Ydieresis"
	g2="x"
	k="20" />
    <hkern g1="Y,Yacute,Ydieresis"
	g2="y,yacute,ydieresis"
	k="30" />
    <hkern g1="Y,Yacute,Ydieresis"
	g2="s"
	k="30" />
    <hkern g1="Y,Yacute,Ydieresis"
	g2="colon,semicolon"
	k="30" />
    <hkern g1="Y,Yacute,Ydieresis"
	g2="m,n,p,r,z"
	k="30" />
    <hkern g1="Z,Zcaron"
	g2="C,G,O,Q,Ccedilla,Ograve,Oacute,Ocircumflex,Otilde,Odieresis,Oslash,OE"
	k="10" />
    <hkern g1="h,m,n"
	g2="question"
	k="40" />
    <hkern g1="h,m,n"
	g2="Y,Yacute,Ydieresis"
	k="40" />
    <hkern g1="h,m,n"
	g2="V"
	k="10" />
    <hkern g1="ampersand"
	g2="T"
	k="20" />
    <hkern g1="ampersand"
	g2="Y,Yacute,Ydieresis"
	k="20" />
    <hkern g1="asterisk"
	g2="J"
	k="80" />
    <hkern g1="asterisk"
	g2="A,Agrave,Aacute,Acircumflex,Atilde,Adieresis,Aring,AE,Delta"
	k="30" />
    <hkern g1="b,o,p,oslash,thorn"
	g2="question"
	k="50" />
    <hkern g1="b,o,p,oslash,thorn"
	g2="T"
	k="50" />
    <hkern g1="b,o,p,oslash,thorn"
	g2="Y,Yacute,Ydieresis"
	k="50" />
    <hkern g1="b,o,p,oslash,thorn"
	g2="V"
	k="10" />
    <hkern g1="b,o,p,oslash,thorn"
	g2="W"
	k="20" />
    <hkern g1="b,o,p,oslash,thorn"
	g2="comma,period,quotesinglbase,quotedblbase,ellipsis"
	k="10" />
    <hkern g1="b,o,p,oslash,thorn"
	g2="x"
	k="10" />
    <hkern g1="c,cent,ccedilla"
	g2="question"
	k="30" />
    <hkern g1="c,cent,ccedilla"
	g2="T"
	k="20" />
    <hkern g1="c,cent,ccedilla"
	g2="Y,Yacute,Ydieresis"
	k="30" />
    <hkern g1="c,cent,ccedilla"
	g2="W"
	k="10" />
    <hkern g1="colon,semicolon"
	g2="T"
	k="50" />
    <hkern g1="colon,semicolon"
	g2="Y,Yacute,Ydieresis"
	k="30" />
    <hkern g1="e,ae,oe"
	g2="asterisk"
	k="10" />
    <hkern g1="e,ae,oe"
	g2="question"
	k="30" />
    <hkern g1="e,ae,oe"
	g2="T"
	k="40" />
    <hkern g1="e,ae,oe"
	g2="Y,Yacute,Ydieresis"
	k="40" />
    <hkern g1="e,ae,oe"
	g2="W"
	k="20" />
    <hkern g1="eth"
	g2="comma,period,quotesinglbase,quotedblbase,ellipsis"
	k="10" />
    <hkern g1="f"
	g2="asterisk"
	k="-30" />
    <hkern g1="f"
	g2="T"
	k="-30" />
    <hkern g1="f"
	g2="Y,Yacute,Ydieresis"
	k="-20" />
    <hkern g1="f"
	g2="V"
	k="-20" />
    <hkern g1="f"
	g2="W"
	k="-10" />
    <hkern g1="f"
	g2="comma,period,quotesinglbase,quotedblbase,ellipsis"
	k="30" />
    <hkern g1="f"
	g2="X"
	k="-20" />
    <hkern g1="f"
	g2="Z,Zcaron"
	k="-20" />
    <hkern g1="f"
	g2="ampersand"
	k="10" />
    <hkern g1="f"
	g2="parenright,bracketright,braceright"
	k="-40" />
    <hkern g1="g,q"
	g2="question"
	k="40" />
    <hkern g1="g,q"
	g2="T"
	k="40" />
    <hkern g1="g,q"
	g2="Y,Yacute,Ydieresis"
	k="30" />
    <hkern g1="g,q"
	g2="W"
	k="10" />
    <hkern g1="hyphen,periodcentered,endash,emdash"
	g2="Y,Yacute,Ydieresis"
	k="50" />
    <hkern g1="hyphen,periodcentered,endash,emdash"
	g2="W"
	k="10" />
    <hkern g1="hyphen,periodcentered,endash,emdash"
	g2="X"
	k="10" />
    <hkern g1="k"
	g2="T"
	k="40" />
    <hkern g1="k"
	g2="Y,Yacute,Ydieresis"
	k="20" />
    <hkern g1="k"
	g2="hyphen,periodcentered,endash,emdash"
	k="10" />
    <hkern g1="k"
	g2="bullet"
	k="20" />
    <hkern g1="comma,period,quotesinglbase,quotedblbase,ellipsis"
	g2="T"
	k="50" />
    <hkern g1="comma,period,quotesinglbase,quotedblbase,ellipsis"
	g2="Y,Yacute,Ydieresis"
	k="50" />
    <hkern g1="comma,period,quotesinglbase,quotedblbase,ellipsis"
	g2="c,d,e,g,o,q,ccedilla,eth,oslash,oe"
	k="10" />
    <hkern g1="comma,period,quotesinglbase,quotedblbase,ellipsis"
	g2="quotedbl,quotesingle,registered,quoteleft,quoteright,quotedblleft,quotedblright,trademark"
	k="70" />
    <hkern g1="comma,period,quotesinglbase,quotedblbase,ellipsis"
	g2="a,ae"
	k="10" />
    <hkern g1="comma,period,quotesinglbase,quotedblbase,ellipsis"
	g2="V"
	k="50" />
    <hkern g1="comma,period,quotesinglbase,quotedblbase,ellipsis"
	g2="W"
	k="40" />
    <hkern g1="comma,period,quotesinglbase,quotedblbase,ellipsis"
	g2="t"
	k="10" />
    <hkern g1="comma,period,quotesinglbase,quotedblbase,ellipsis"
	g2="v"
	k="30" />
    <hkern g1="comma,period,quotesinglbase,quotedblbase,ellipsis"
	g2="w"
	k="30" />
    <hkern g1="comma,period,quotesinglbase,quotedblbase,ellipsis"
	g2="f,fi,fl"
	k="10" />
    <hkern g1="comma,period,quotesinglbase,quotedblbase,ellipsis"
	g2="U,Ugrave,Uacute,Ucircumflex,Udieresis"
	k="30" />
    <hkern g1="comma,period,quotesinglbase,quotedblbase,ellipsis"
	g2="zero,six"
	k="20" />
    <hkern g1="comma,period,quotesinglbase,quotedblbase,ellipsis"
	g2="one"
	k="60" />
    <hkern g1="comma,period,quotesinglbase,quotedblbase,ellipsis"
	g2="seven"
	k="30" />
    <hkern g1="questiondown"
	g2="j"
	k="-40" />
    <hkern g1="quotedbl,quotesingle,quoteleft,quoteright,quotedblleft,quotedblright"
	g2="comma,period,quotesinglbase,quotedblbase,ellipsis"
	k="70" />
    <hkern g1="quotedbl,quotesingle,quoteleft,quoteright,quotedblleft,quotedblright"
	g2="J"
	k="80" />
    <hkern g1="quotedbl,quotesingle,quoteleft,quoteright,quotedblleft,quotedblright"
	g2="A,Agrave,Aacute,Acircumflex,Atilde,Adieresis,Aring,AE,Delta"
	k="20" />
    <hkern g1="quotedbl,quotesingle,quoteleft,quoteright,quotedblleft,quotedblright"
	g2="C,G,O,Q,Ccedilla,Ograve,Oacute,Ocircumflex,Otilde,Odieresis,Oslash,OE"
	k="10" />
    <hkern g1="quotedbl,quotesingle,quoteleft,quoteright,quotedblleft,quotedblright"
	g2="s"
	k="40" />
    <hkern g1="r"
	g2="T"
	k="20" />
    <hkern g1="r"
	g2="Y,Yacute,Ydieresis"
	k="10" />
    <hkern g1="r"
	g2="comma,period,quotesinglbase,quotedblbase,ellipsis"
	k="60" />
    <hkern g1="s"
	g2="question"
	k="40" />
    <hkern g1="s"
	g2="T"
	k="20" />
    <hkern g1="s"
	g2="Y,Yacute,Ydieresis"
	k="20" />
    <hkern g1="s"
	g2="quotedbl,quotesingle,registered,quoteleft,quoteright,quotedblleft,quotedblright,trademark"
	k="10" />
    <hkern g1="s"
	g2="W"
	k="10" />
    <hkern g1="t"
	g2="T"
	k="40" />
    <hkern g1="t"
	g2="Y,Yacute,Ydieresis"
	k="20" />
    <hkern g1="u,z"
	g2="question"
	k="30" />
    <hkern g1="u,z"
	g2="T"
	k="40" />
    <hkern g1="u,z"
	g2="Y,Yacute,Ydieresis"
	k="30" />
    <hkern g1="u,z"
	g2="W"
	k="10" />
    <hkern g1="v"
	g2="T"
	k="40" />
    <hkern g1="v"
	g2="Y,Yacute,Ydieresis"
	k="20" />
    <hkern g1="v"
	g2="comma,period,quotesinglbase,quotedblbase,ellipsis"
	k="30" />
    <hkern g1="w"
	g2="T"
	k="40" />
    <hkern g1="w"
	g2="Y,Yacute,Ydieresis"
	k="20" />
    <hkern g1="w"
	g2="comma,period,quotesinglbase,quotedblbase,ellipsis"
	k="30" />
    <hkern g1="y,yacute,ydieresis"
	g2="question"
	k="40" />
    <hkern g1="y,yacute,ydieresis"
	g2="T"
	k="40" />
    <hkern g1="y,yacute,ydieresis"
	g2="Y,Yacute,Ydieresis"
	k="30" />
    <hkern g1="y,yacute,ydieresis"
	g2="W"
	k="10" />
    <hkern g1="X"
	g2="hyphen,periodcentered,endash,emdash"
	k="10" />
    <hkern g1="X"
	g2="C,G,O,Q,Ccedilla,Ograve,Oacute,Ocircumflex,Otilde,Odieresis,Oslash,OE"
	k="10" />
    <hkern g1="zero,nine"
	g2="comma,period,quotesinglbase,quotedblbase,ellipsis"
	k="20" />
    <hkern g1="seven"
	g2="comma,period,quotesinglbase,quotedblbase,ellipsis"
	k="60" />
    <hkern g1="x"
	g2="question"
	k="20" />
    <hkern g1="x"
	g2="T"
	k="40" />
    <hkern g1="x"
	g2="Y,Yacute,Ydieresis"
	k="20" />
    <hkern g1="x"
	g2="c,d,e,g,o,q,ccedilla,eth,oslash,oe"
	k="10" />
    <hkern g1="x"
	g2="a,ae"
	k="10" />
    <hkern g1="parenleft,bracketleft,braceleft"
	g2="j"
	k="-50" />
  </font>
</defs></svg>
