<?xml version="1.0" standalone="no"?>
<!DOCTYPE svg PUBLIC "-//W3C//DTD SVG 1.1//EN" "http://www.w3.org/Graphics/SVG/1.1/DTD/svg11.dtd" >
<svg xmlns="http://www.w3.org/2000/svg" xmlns:xlink="http://www.w3.org/1999/xlink" version="1.1">
<metadata>
Created by FontForge 20170731 at Wed Oct  6 20:29:19 2010
 By Aleksey,,,
Copyright (c) Mark Simonson, 2005. All rights reserved.
</metadata>
<defs>
<font id="ProximaNovaA-LightIt" horiz-adv-x="571" >
  <font-face 
    font-family="Proxima Nova Alt Lt"
    font-weight="300"
    font-style="italic"
    font-stretch="normal"
    units-per-em="1000"
    panose-1="2 0 5 6 3 0 0 2 0 4"
    ascent="800"
    descent="-200"
    x-height="483"
    cap-height="667"
    bbox="-225 -199 1148 884"
    underline-thickness="20"
    underline-position="-173"
    unicode-range="U+000D-FB02"
  />
<missing-glyph horiz-adv-x="517" 
d="M454 -90h-351v842h351v-842zM422 -60v782h-288v-782h288z" />
    <glyph glyph-name="fi" unicode="fi" horiz-adv-x="478" 
d="M97 0h-53l97 437h-80l10 46h80l9 44q33 150 150 150q44 0 76 -21l-23 -42q-20 16 -52 16q-76 0 -98 -103l-10 -44h99l-11 -46h-98zM445 559q-15 0 -25.5 10.5t-10.5 24.5q0 19 14.5 31.5t30.5 12.5t26.5 -10.5t10.5 -24.5q0 -19 -14.5 -31.5t-31.5 -12.5zM344 0h-52
l107 483h52z" />
    <glyph glyph-name="fl" unicode="fl" horiz-adv-x="521" 
d="M97 0h-53l97 437h-80l10 46h80l9 44q33 150 150 150q44 0 76 -21l-23 -42q-20 16 -52 16q-76 0 -98 -103l-10 -44h99l-11 -46h-98zM405 -12q-44 0 -70 19.5t-26 54.5q0 15 3 32l127 573h52l-125 -565q-3 -15 -3 -25q0 -20 13.5 -31t36.5 -11q29 0 51 18l10 -42
q-29 -23 -69 -23z" />
    <glyph glyph-name=".notdef" horiz-adv-x="517" 
d="M454 -90h-351v842h351v-842zM422 -60v782h-288v-782h288z" />
    <glyph glyph-name=".null" horiz-adv-x="0" 
 />
    <glyph glyph-name="nonmarkingreturn" horiz-adv-x="333" 
 />
    <glyph glyph-name="NUL" horiz-adv-x="0" 
 />
    <glyph glyph-name="NUL" horiz-adv-x="0" 
 />
    <glyph glyph-name="CR" unicode="&#xd;" horiz-adv-x="0" 
 />
    <glyph glyph-name="space" unicode=" " horiz-adv-x="259" 
 />
    <glyph glyph-name="exclam" unicode="!" horiz-adv-x="219" 
d="M114 174h-41l96 493h67zM59 -10q-17 0 -28.5 12t-11.5 29q0 19 14 33t34 14q17 0 28.5 -11.5t11.5 -28.5q0 -20 -14 -34t-34 -14z" />
    <glyph glyph-name="quotedbl" unicode="&#x22;" horiz-adv-x="317" 
d="M147 427h-29q23 192 25 206q2 20 13 32t29 12q13 0 22.5 -9.5t9.5 -23.5l-5 -20zM278 427h-29q23 192 25 206q5 44 42 44q14 0 23 -9.5t9 -23.5l-5 -20z" />
    <glyph glyph-name="numbersign" unicode="#" horiz-adv-x="579" 
d="M229 0h-47l105 186h-119l-103 -186h-47l103 186h-110l21 41h112l119 213h-112l20 41h115l102 186h47l-102 -186h117l102 186h48l-104 -186h111l-20 -41h-113l-119 -213h115l-21 -41h-116zM307 227l120 213h-117l-119 -213h116z" />
    <glyph glyph-name="dollar" unicode="$" horiz-adv-x="584" 
d="M281 -12q-13 0 -20 1l-19 -89h-46l21 94q-65 10 -115.5 40t-75.5 71l42 41q57 -81 160 -101l62 277q-31 13 -50.5 22.5t-44.5 25.5t-39.5 32t-24.5 39.5t-10 50.5q0 76 65.5 131t159.5 55q15 0 23 -1l20 91h46l-22 -97q112 -22 163 -97l-43 -40q-45 65 -131 85l-56 -251
q39 -17 63.5 -30.5t52.5 -34.5t41.5 -49t13.5 -62q0 -81 -63 -142.5t-173 -61.5zM454 185q0 41 -31 67.5t-91 52.5l-59 -265h13q82 0 125 44.5t43 100.5zM183 498q0 -37 30.5 -62t90.5 -51l53 240q-5 1 -16 1q-65 0 -111.5 -38.5t-46.5 -89.5z" />
    <glyph glyph-name="percent" unicode="%" horiz-adv-x="720" 
d="M119 0h-45l573 667h46zM494 -12q-62 0 -103.5 37.5t-41.5 96.5q0 84 52 139t123 55q62 0 103.5 -37.5t41.5 -96.5q0 -84 -52 -139t-123 -55zM495 27q51 0 89 43.5t38 107.5q0 43 -28 71t-71 28q-51 0 -89.5 -44t-38.5 -107q0 -43 28.5 -71t71.5 -28zM234 349
q-61 0 -102.5 37.5t-41.5 96.5q0 85 52 139.5t123 54.5q61 0 102.5 -37.5t41.5 -95.5q0 -85 -52 -140t-123 -55zM236 388q51 0 89 44t38 107q0 43 -28.5 71t-71.5 28q-51 0 -89 -43.5t-38 -107.5q0 -43 28.5 -71t71.5 -28z" />
    <glyph glyph-name="ampersand" unicode="&#x26;" horiz-adv-x="639" 
d="M526 0h-72q-12 15 -50 65q-92 -77 -189 -77q-84 0 -139 43t-55 120q0 47 15.5 84t46 63.5t61.5 44t75 36.5q-25 64 -25 119q0 73 53 126t123 53q60 0 98.5 -29.5t38.5 -83.5q0 -33 -12.5 -61t-29.5 -46t-49 -37t-54.5 -29t-62.5 -26q-3 -1 -5.5 -2t-4.5 -2
q20 -44 58 -106q35 -58 70 -112q70 75 113 157l43 -25q-67 -108 -128 -171q32 -43 81 -104zM220 34q74 0 156 70q-54 78 -76 118q-42 71 -64 117q-74 -34 -114.5 -74.5t-40.5 -106.5q0 -59 40 -91.5t99 -32.5zM250 499q0 -44 22 -99q45 17 70 29t54.5 31.5t43 43.5t13.5 55
q0 35 -23.5 54.5t-58.5 19.5q-45 0 -83 -36.5t-38 -97.5z" />
    <glyph glyph-name="quotesingle" unicode="'" horiz-adv-x="187" 
d="M147 427h-29q23 192 25 206q2 20 13 32t29 12q13 0 22.5 -9.5t9.5 -23.5l-5 -20z" />
    <glyph glyph-name="parenleft" unicode="(" horiz-adv-x="227" 
d="M117 -179l-36 -20q-56 132 -56 283q0 316 251 601l26 -26q-221 -297 -221 -599q0 -104 36 -239z" />
    <glyph glyph-name="parenright" unicode=")" horiz-adv-x="227" 
d="M109 665l36 20q56 -132 56 -283q0 -316 -251 -601l-26 26q221 297 221 599q0 104 -36 239z" />
    <glyph glyph-name="asterisk" unicode="*" horiz-adv-x="335" 
d="M220 399h-39l33 119l-112 -52l-11 34l115 41l-91 63l25 30l84 -73l20 116h38l-32 -118l112 51l11 -34l-115 -41l91 -63l-26 -30l-83 73z" />
    <glyph glyph-name="plus" unicode="+" horiz-adv-x="496" 
d="M483 316h-197l-48 -217h-44l48 217h-197l9 42h197l46 211h45l-46 -211h197z" />
    <glyph glyph-name="comma" unicode="," horiz-adv-x="219" 
d="M109 30q0 -41 -30.5 -83t-72.5 -63l-24 26q28 14 49.5 37.5t28.5 46.5h-7q-14 0 -24 10.5t-10 25.5q0 20 14 34t33 14t31 -12.5t12 -35.5z" />
    <glyph glyph-name="hyphen" unicode="-" horiz-adv-x="300" 
d="M264 218h-240l10 48h240z" />
    <glyph glyph-name="period" unicode="." horiz-adv-x="219" 
d="M59 -10q-17 0 -28.5 12t-11.5 29q0 19 14 33t34 14q17 0 28.5 -11.5t11.5 -28.5q0 -20 -14 -34t-34 -14z" />
    <glyph glyph-name="slash" unicode="/" horiz-adv-x="282" 
d="M-13 -20h-46l393 707h47z" />
    <glyph glyph-name="zero" unicode="0" horiz-adv-x="608" 
d="M276 -12q-102 0 -156.5 69t-54.5 187q0 101 35.5 198.5t108 166t164.5 68.5q102 0 155 -68t53 -187q0 -101 -35 -198.5t-107 -166.5t-163 -69zM280 40q54 0 101 36.5t77 94t47 124.5t17 131q0 91 -37.5 145t-117.5 54q-54 0 -101 -36.5t-77 -93.5t-47 -124t-17 -131
q0 -91 37.5 -145.5t117.5 -54.5z" />
    <glyph glyph-name="one" unicode="1" horiz-adv-x="308" 
d="M171 0h-57l129 589l-131 -114l-27 37l181 155h52z" />
    <glyph glyph-name="two" unicode="2" horiz-adv-x="582" 
d="M442 0h-440l14 60q78 50 127.5 82.5t111 76.5t99 77t72 71t50.5 73t16 69q0 54 -42.5 85t-111.5 31q-106 0 -173 -67l-31 40q36 36 91 57.5t115 21.5q89 0 151 -42.5t62 -123.5q0 -46 -26 -95.5t-64.5 -92t-103.5 -93.5t-120 -88.5t-137 -89.5h351z" />
    <glyph glyph-name="three" unicode="3" horiz-adv-x="544" 
d="M241 -12q-82 0 -149.5 39t-90.5 100l46 30q22 -54 75 -85.5t118 -31.5q80 0 128 45t48 115q0 53 -43.5 85.5t-115.5 32.5q-35 0 -57 -2l13 54q9 -1 89 -1q72 0 122.5 36t50.5 101q0 51 -44.5 85t-117.5 34q-97 0 -171 -70l-28 40q37 38 91.5 60t110.5 22q96 0 156.5 -44
t60.5 -122q0 -74 -55.5 -121t-125.5 -52q52 -12 86.5 -49t34.5 -92q0 -87 -65 -148t-167 -61z" />
    <glyph glyph-name="four" unicode="4" horiz-adv-x="541" 
d="M354 0h-57l40 182h-316l13 55l386 430h81l-96 -433h98l-11 -52h-98zM348 234l83 376l-340 -376h257z" />
    <glyph glyph-name="five" unicode="5" horiz-adv-x="582" 
d="M271 -12q-166 0 -229 135l46 33q51 -116 188 -116q76 0 130 52.5t54 129.5q0 67 -45 104.5t-116 37.5q-76 0 -146 -50l-38 22l73 331h385l-11 -52h-328l-55 -247q60 46 143 46t140.5 -49.5t57.5 -137.5q0 -98 -70.5 -168.5t-178.5 -70.5z" />
    <glyph glyph-name="six" unicode="6" horiz-adv-x="584" 
d="M275 -12q-103 0 -158.5 62.5t-55.5 177.5q0 55 11 114.5t36.5 119.5t61 107.5t89.5 77.5t118 30q138 0 192 -104l-43 -37q-40 89 -152 89q-51 0 -94 -25.5t-71.5 -69t-47.5 -90.5t-31 -102q-1 -3 -5 -19q31 36 86.5 64.5t113.5 28.5q89 0 144 -46.5t55 -126.5
q0 -102 -72 -176.5t-177 -74.5zM277 40q80 0 133.5 57.5t53.5 133.5q0 60 -43 95.5t-114 35.5q-103 0 -189 -96q-2 -18 -2 -53q0 -78 42 -125.5t119 -47.5z" />
    <glyph glyph-name="seven" unicode="7" horiz-adv-x="502" 
d="M133 0h-66l414 615h-366l11 52h437l-9 -40z" />
    <glyph glyph-name="eight" unicode="8" 
d="M266 -12q-101 0 -165 44t-64 123q0 76 57.5 127.5t151.5 68.5q-50 19 -86 56t-36 87q0 87 68.5 135t156.5 48q89 0 152 -43.5t63 -117.5q0 -73 -54 -119.5t-142 -58.5q52 -22 91.5 -62t39.5 -98q0 -82 -68 -136t-165 -54zM313 368q85 7 137.5 43.5t52.5 98.5
q0 48 -45.5 81t-110.5 33q-68 0 -116.5 -36t-48.5 -97q0 -43 41.5 -77.5t89.5 -45.5zM267 40q68 0 121 39t53 103q0 50 -44 86.5t-95 50.5q-89 -6 -146.5 -48.5t-57.5 -105.5q0 -59 48.5 -92t120.5 -33z" />
    <glyph glyph-name="nine" unicode="9" horiz-adv-x="584" 
d="M347 678q103 0 158.5 -62.5t55.5 -177.5q0 -55 -11 -114.5t-36 -119.5t-61 -107.5t-90 -77.5t-118 -30q-137 0 -191 104l42 37q40 -89 153 -89q51 0 93.5 25.5t71 69t47.5 90.5t32 102q4 18 4 19q-31 -36 -86.5 -64.5t-113.5 -28.5q-89 0 -144 46.5t-55 126.5
q0 102 72 176.5t177 74.5zM345 626q-79 0 -133 -57.5t-54 -133.5q0 -60 43 -95.5t114 -35.5q105 0 189 96q2 18 2 53q0 78 -42 125.5t-119 47.5z" />
    <glyph glyph-name="colon" unicode=":" horiz-adv-x="217" 
d="M59 -10q-17 0 -28.5 12t-11.5 29q0 19 14 33t34 14q17 0 28.5 -11.5t11.5 -28.5q0 -20 -14 -34t-34 -14zM150 403q-17 0 -28.5 11.5t-11.5 28.5q0 19 14 33t34 14q17 0 28.5 -11.5t11.5 -28.5q0 -20 -14 -33.5t-34 -13.5z" />
    <glyph glyph-name="semicolon" unicode=";" horiz-adv-x="219" 
d="M109 30q0 -41 -30.5 -83t-72.5 -63l-24 26q28 14 49.5 37.5t28.5 46.5h-7q-14 0 -24 10.5t-10 25.5q0 20 14 34t33 14t31 -12.5t12 -35.5zM150 403q-17 0 -28.5 11.5t-11.5 28.5q0 19 14 33t34 14q17 0 28.5 -11.5t11.5 -28.5q0 -20 -14 -33.5t-34 -13.5z" />
    <glyph glyph-name="less" unicode="&#x3c;" horiz-adv-x="496" 
d="M432 90l-388 226l9 37l488 227l-12 -52l-428 -196l341 -195z" />
    <glyph glyph-name="equal" unicode="=" horiz-adv-x="496" 
d="M504 411h-438l9 42h438zM461 216h-439l10 41h438z" />
    <glyph glyph-name="greater" unicode="&#x3e;" horiz-adv-x="496" 
d="M483 316l-489 -226l12 52l430 194l-343 197l10 47l388 -227z" />
    <glyph glyph-name="question" unicode="?" horiz-adv-x="464" 
d="M244 201l-45 -25q-26 33 -26 72q0 40 26.5 69.5t63.5 49t74.5 39t64 49t26.5 69.5q0 46 -37 73.5t-101 27.5q-98 0 -168 -72l-27 39q85 85 199 85q88 0 142.5 -40.5t54.5 -105.5q0 -49 -27.5 -86t-66.5 -59t-78 -41t-66.5 -43.5t-27.5 -55.5q0 -26 19 -45zM172 -10
q-17 0 -28.5 12t-11.5 29q0 19 14 33t34 14q17 0 28.5 -11.5t11.5 -28.5q0 -20 -14 -34t-34 -14z" />
    <glyph glyph-name="at" unicode="@" horiz-adv-x="783" 
d="M372 -70q-136 0 -226.5 90.5t-90.5 223.5q0 106 55.5 197.5t147 144t194.5 52.5q139 0 227 -92.5t88 -229.5q0 -108 -47.5 -169.5t-114.5 -61.5q-39 0 -63 25t-25 60l-1 6q-28 -39 -72 -65t-92 -26q-69 0 -111 43.5t-42 116.5q0 105 73.5 180t165.5 75q47 0 80.5 -23.5
t49.5 -59.5l13 65h49l-59 -282q-2 -12 -2 -19q0 -25 14.5 -40t35.5 -15q40 0 78 46.5t38 144.5q0 125 -80 207t-206 82q-145 0 -253.5 -109.5t-108.5 -251.5q0 -121 82 -202.5t207 -81.5q96 0 187 57l17 -25q-98 -63 -208 -63zM362 127q96 0 164 100l32 148q-11 32 -40 57.5
t-74 25.5q-79 0 -136 -64.5t-57 -146.5q0 -53 30 -86.5t81 -33.5z" />
    <glyph glyph-name="A" unicode="A" horiz-adv-x="647" 
d="M578 0h-63l-30 164h-353l-102 -164h-69l420 667h71zM478 216l-72 390l-244 -390h316z" />
    <glyph glyph-name="B" unicode="B" horiz-adv-x="615" 
d="M314 0h-285l147 667h257q69 0 117 -42t48 -109q0 -70 -45.5 -121t-109.5 -59q41 -10 69 -50.5t28 -87.5q0 -82 -58.5 -140t-167.5 -58zM386 368q77 0 113 42t36 100q0 45 -33.5 75t-81.5 30h-198l-54 -247h218zM317 52q76 0 120 44.5t44 104.5q0 50 -33 82.5t-89 32.5
h-203l-59 -264h220z" />
    <glyph glyph-name="C" unicode="C" horiz-adv-x="671" 
d="M367 -12q-132 0 -216 79.5t-84 209.5q0 88 31.5 164.5t83.5 127.5t118.5 80t136.5 29q88 0 156 -37t106 -106l-55 -25q-64 116 -211 116q-120 0 -212 -97t-92 -250q0 -108 65.5 -173.5t175.5 -65.5q101 0 189 76l40 -34q-97 -94 -232 -94z" />
    <glyph glyph-name="D" unicode="D" horiz-adv-x="692" 
d="M241 0h-212l147 667h208q113 0 192 -81t79 -203q0 -56 -16 -110.5t-50 -104t-81.5 -87t-116.5 -59.5t-150 -22zM253 52h-2q154 0 249 96t95 233q0 101 -63.5 167.5t-158.5 66.5h-151l-125 -563h156z" />
    <glyph glyph-name="E" unicode="E" horiz-adv-x="564" 
d="M452 0h-423l147 667h423l-11 -52h-366l-54 -247h358l-12 -52h-358l-59 -264h366z" />
    <glyph glyph-name="F" unicode="F" horiz-adv-x="542" 
d="M86 0h-57l147 667h423l-11 -52h-366l-54 -247h358l-12 -52h-358z" />
    <glyph glyph-name="G" unicode="G" horiz-adv-x="711" 
d="M355 -12q-128 0 -208 79.5t-80 209.5q0 176 113 288.5t268 112.5q82 0 147.5 -36.5t101.5 -100.5l-51 -26q-30 54 -85.5 82.5t-121.5 28.5q-57 0 -112 -24.5t-99.5 -68t-71.5 -110.5t-27 -144q0 -109 64.5 -174t170.5 -65q110 0 182 66.5t104 173.5h-303l11 52h363
q-33 -163 -126 -253.5t-240 -90.5z" />
    <glyph glyph-name="H" unicode="H" horiz-adv-x="703" 
d="M567 0h-58l70 317h-423l-70 -317h-57l147 667h57l-65 -298h422l66 298h58z" />
    <glyph glyph-name="I" unicode="I" horiz-adv-x="223" 
d="M86 0h-57l147 667h57z" />
    <glyph glyph-name="J" unicode="J" horiz-adv-x="470" 
d="M156 -12q-58 0 -104.5 22.5t-70.5 65.5l39 40q40 -76 133 -76q66 0 107.5 41t57.5 112l105 474h57l-104 -474q-46 -205 -220 -205z" />
    <glyph glyph-name="K" unicode="K" horiz-adv-x="586" 
d="M508 0h-68l-208 317l-94 -84l-52 -233h-57l147 667h57l-79 -358l397 358h77l-354 -318z" />
    <glyph glyph-name="L" unicode="L" horiz-adv-x="484" 
d="M396 0h-381l147 667h58l-136 -615h322z" />
    <glyph glyph-name="M" unicode="M" horiz-adv-x="790" 
d="M653 0h-58l131 595l-374 -595h-22l-112 595l-132 -595h-57l147 667h82l104 -555l350 555h88z" />
    <glyph glyph-name="N" unicode="N" horiz-adv-x="699" 
d="M562 0h-56l-292 578l-128 -578h-57l147 667h58l291 -570l127 570h57z" />
    <glyph glyph-name="O" unicode="O" horiz-adv-x="764" 
d="M367 -12q-129 0 -214.5 77t-85.5 212q0 168 108.5 284.5t261.5 116.5q129 0 214 -77t85 -212q0 -168 -108 -284.5t-261 -116.5zM370 40q124 0 214 99.5t90 247.5q0 113 -69 176t-173 63q-124 0 -213.5 -99t-89.5 -248q0 -113 68.5 -176t172.5 -63z" />
    <glyph glyph-name="P" unicode="P" 
d="M86 0h-57l147 667h239q72 0 121 -49.5t49 -117.5q0 -40 -14 -78.5t-42.5 -71.5t-78 -53t-112.5 -20h-190zM345 329h-1q86 0 133 48.5t47 118.5q0 48 -35.5 83.5t-87.5 35.5h-179l-63 -286h186z" />
    <glyph glyph-name="Q" unicode="Q" horiz-adv-x="764" 
d="M367 -12q-129 0 -214.5 77t-85.5 212q0 168 108.5 284.5t261.5 116.5q129 0 214 -77t85 -212q0 -100 -41.5 -186t-112.5 -141l45 -60l-46 -29l-44 59q-80 -44 -170 -44zM370 40q70 0 134 36l-86 117l46 29l85 -116q58 48 91.5 120.5t33.5 160.5q0 113 -69 176t-173 63
q-124 0 -213.5 -99t-89.5 -248q0 -113 68.5 -176t172.5 -63z" />
    <glyph glyph-name="R" unicode="R" horiz-adv-x="594" 
d="M489 0h-65l-126 276h-151l-61 -276h-57l147 667h229q72 0 126.5 -46t54.5 -122q0 -94 -62.5 -155.5t-165.5 -64.5zM343 328h2q84 0 131.5 48.5t47.5 119.5q0 51 -38 85t-87 34h-177l-63 -287h184z" />
    <glyph glyph-name="S" unicode="S" horiz-adv-x="581" 
d="M279 -12q-84 0 -153.5 33t-101.5 84l42 41q75 -106 218 -106q82 0 125 44.5t43 100.5q0 40 -34.5 69.5t-83 49.5t-97.5 41.5t-83.5 58.5t-34.5 88q0 76 65.5 131t159.5 55q75 0 137 -28.5t93 -75.5l-43 -40q-30 45 -81.5 68.5t-110.5 23.5q-65 0 -111.5 -38.5
t-46.5 -89.5q0 -37 34.5 -64.5t83.5 -47.5t98 -42t83.5 -60.5t34.5 -91.5q0 -81 -63 -142.5t-173 -61.5z" />
    <glyph glyph-name="T" unicode="T" horiz-adv-x="564" 
d="M257 0h-58l136 615h-218l11 52h494l-11 -52h-218z" />
    <glyph glyph-name="U" unicode="U" horiz-adv-x="686" 
d="M328 -12q-115 0 -181 58.5t-66 158.5q0 23 5 51l90 411h58l-90 -410q-6 -24 -6 -45q0 -77 50.5 -124.5t139.5 -47.5q94 0 145 55t75 162l90 410h58l-90 -411q-30 -132 -94 -200t-184 -68z" />
    <glyph glyph-name="V" unicode="V" horiz-adv-x="647" 
d="M305 0h-71l-126 667h63l109 -603l376 603h69z" />
    <glyph glyph-name="W" unicode="W" horiz-adv-x="867" 
d="M604 0h-64l-34 573l-286 -573h-64l-44 667h63l30 -587l294 587h52l34 -587l290 587h66z" />
    <glyph glyph-name="X" unicode="X" horiz-adv-x="645" 
d="M572 0h-65l-170 302l-295 -302h-77l342 346l-180 321h66l157 -283l276 283h78l-323 -328z" />
    <glyph glyph-name="Y" unicode="Y" horiz-adv-x="618" 
d="M284 0h-58l64 285l-182 382h64l153 -328l297 328h74l-349 -382z" />
    <glyph glyph-name="Z" unicode="Z" horiz-adv-x="581" 
d="M477 0h-481l11 50l522 565h-396l10 52h474l-10 -49l-523 -566h404z" />
    <glyph glyph-name="bracketleft" unicode="[" horiz-adv-x="228" 
d="M114 -190h-173l192 868h174l-10 -43h-129l-174 -782h129z" />
    <glyph glyph-name="backslash" unicode="\" horiz-adv-x="282" 
d="M178 -20l-80 707h45l80 -707h-45z" />
    <glyph glyph-name="bracketright" unicode="]" horiz-adv-x="228" 
d="M94 -190h-173l10 43h128l174 782h-130l10 43h174z" />
    <glyph glyph-name="asciicircum" unicode="^" horiz-adv-x="428" 
d="M428 333h-45l-82 293l-212 -293h-51l248 334h42z" />
    <glyph glyph-name="underscore" unicode="_" horiz-adv-x="564" 
d="M494 -83h-569l10 43h569z" />
    <glyph glyph-name="grave" unicode="`" horiz-adv-x="216" 
d="M285 556h-44l-140 144h62z" />
    <glyph glyph-name="a" unicode="a" horiz-adv-x="521" 
d="M390 0h-53l12 54q-69 -66 -153 -66q-68 0 -115.5 36t-47.5 104q0 83 52.5 132t128.5 49q112 0 174 -76l21 92q3 12 3 31q0 42 -36.5 68t-97.5 26q-82 0 -146 -62l-22 38q81 69 175 69q79 0 130 -33.5t51 -97.5q0 -17 -5 -42zM214 29q82 0 144 64l23 105q-20 34 -61 52
t-92 18q-61 0 -100 -38.5t-39 -96.5q0 -50 34.5 -77t90.5 -27z" />
    <glyph glyph-name="b" unicode="b" 
d="M271 -12q-58 0 -103 25.5t-71 68.5l-18 -82h-52l147 667h52l-56 -257q65 85 166 85q84 0 136 -53t52 -145q0 -126 -71 -217.5t-182 -91.5zM266 35q88 0 144.5 76t56.5 176q0 74 -40 117.5t-106 43.5q-49 0 -93 -26.5t-71 -66.5l-51 -232q19 -38 61.5 -63t98.5 -25z" />
    <glyph glyph-name="c" unicode="c" horiz-adv-x="494" 
d="M261 -12q-96 0 -155.5 57t-59.5 157q0 120 78 206.5t190 86.5q121 0 173 -88l-40 -30q-41 71 -131 71q-96 0 -155.5 -73.5t-59.5 -173.5q0 -80 46 -123t119 -43q79 0 131 62l30 -36q-71 -73 -166 -73z" />
    <glyph glyph-name="d" unicode="d" 
d="M299 495q57 0 102.5 -25.5t71.5 -68.5l58 266h53l-148 -667h-53l17 73q-67 -85 -166 -85q-85 0 -137 53t-52 145q0 126 71 217.5t183 91.5zM303 448q-87 0 -144 -76t-57 -176q0 -74 40 -117.5t106 -43.5q49 0 93.5 26.5t70.5 66.5l51 232q-19 38 -61.5 63t-98.5 25z" />
    <glyph glyph-name="e" unicode="e" horiz-adv-x="567" 
d="M276 -12q-107 0 -168.5 58.5t-61.5 154.5q0 121 78 207.5t190 86.5q94 0 149.5 -59t55.5 -150q0 -29 -8 -61h-408q-2 -12 -2 -28q0 -71 46 -117.5t131 -46.5q84 0 146 52l20 -38q-77 -59 -168 -59zM465 266h3q1 5 1 22q0 72 -42.5 117t-118.5 45q-72 0 -129.5 -54.5
t-70.5 -129.5h357z" />
    <glyph glyph-name="f" unicode="f" horiz-adv-x="265" 
d="M97 0h-53l97 437h-80l10 46h80l9 44q33 150 150 150q44 0 76 -21l-23 -42q-20 16 -52 16q-76 0 -98 -103l-10 -44h99l-11 -46h-98z" />
    <glyph glyph-name="g" unicode="g" horiz-adv-x="570" 
d="M212 -196q-72 0 -122.5 18t-85.5 64l37 39q48 -74 171 -74q63 0 109.5 37t62.5 116l15 73q-66 -85 -171 -85q-81 0 -132 51.5t-51 149.5q0 122 70 212t181 90q51 0 99.5 -26.5t75.5 -67.5l19 82h53l-107 -479q-45 -200 -224 -200zM247 39q44 0 89 24.5t74 61.5l53 234
q-22 40 -67.5 64.5t-97.5 24.5q-87 0 -142 -76t-55 -172q0 -75 39.5 -118t106.5 -43z" />
    <glyph glyph-name="h" unicode="h" horiz-adv-x="540" 
d="M405 0h-52l72 328q6 27 6 35q0 43 -29.5 64t-78.5 21q-82 0 -163 -85l-81 -363h-52l147 667h52l-56 -257q87 85 174 85q64 0 102.5 -30.5t38.5 -87.5q0 -19 -6 -41z" />
    <glyph glyph-name="i" unicode="i" horiz-adv-x="214" 
d="M180 559q-15 0 -25.5 10.5t-10.5 24.5q0 19 14.5 31.5t30.5 12.5t26.5 -10.5t10.5 -24.5q0 -19 -14.5 -31.5t-31.5 -12.5zM79 0h-52l107 483h52z" />
    <glyph glyph-name="j" unicode="j" horiz-adv-x="214" 
d="M-74 -196q-73 0 -107 43l31 40q27 -36 70 -36q73 0 93 88l121 544h52l-121 -544q-15 -69 -48.5 -102t-90.5 -33zM180 559q-15 0 -25.5 10.5t-10.5 24.5q0 19 14.5 31.5t30.5 12.5t26.5 -10.5t10.5 -24.5q0 -19 -14.5 -31.5t-31.5 -12.5z" />
    <glyph glyph-name="k" unicode="k" horiz-adv-x="505" 
d="M432 0h-64l-145 233l-112 -88l-32 -145h-52l147 667h52l-101 -456l342 272h73l-274 -218z" />
    <glyph glyph-name="l" unicode="l" horiz-adv-x="256" 
d="M140 -12q-44 0 -70 19.5t-26 54.5q0 15 3 32l127 573h52l-125 -565q-3 -15 -3 -25q0 -20 13.5 -31t36.5 -11q29 0 51 18l10 -42q-29 -23 -69 -23z" />
    <glyph glyph-name="m" unicode="m" horiz-adv-x="789" 
d="M654 0h-52l74 336q4 16 4 27q0 40 -25.5 62.5t-62.5 22.5q-36 0 -75.5 -24t-69.5 -60l-80 -364h-53l75 336q4 30 4 33q-1 35 -24.5 57t-65.5 22q-70 0 -143 -84l-81 -364h-52l107 483h52l-16 -73q74 85 154 85q56 0 89 -31.5t33 -64.5v-2q80 98 166 98q51 0 86.5 -31.5
t35.5 -86.5q0 -13 -6 -41z" />
    <glyph glyph-name="n" unicode="n" horiz-adv-x="540" 
d="M405 0h-52l72 328q6 27 6 35q0 43 -29.5 64t-78.5 21q-83 0 -163 -84l-81 -364h-52l107 483h52l-16 -73q87 85 174 85q64 0 102.5 -30.5t38.5 -87.5q0 -19 -6 -41z" />
    <glyph glyph-name="o" unicode="o" 
d="M258 -12q-97 0 -155 58t-58 154q0 118 77 206.5t189 88.5q97 0 155 -58t58 -154q0 -118 -77 -206.5t-189 -88.5zM259 35q88 0 148 74.5t60 171.5q0 77 -41.5 122t-115.5 45q-88 0 -148 -74.5t-60 -171.5q0 -77 41.5 -122t115.5 -45z" />
    <glyph glyph-name="p" unicode="p" horiz-adv-x="567" 
d="M271 -12q-58 0 -103 25.5t-71 68.5l-59 -266h-52l148 667h52l-16 -73q65 85 166 85q84 0 136 -53t52 -145q0 -126 -71 -217.5t-182 -91.5zM266 35q88 0 144.5 76t56.5 176q0 74 -40 117.5t-106 43.5q-49 0 -93 -26.5t-71 -66.5l-51 -232q19 -38 61.5 -63t98.5 -25z" />
    <glyph glyph-name="q" unicode="q" horiz-adv-x="567" 
d="M299 495q57 0 102.5 -25.5t71.5 -68.5l17 82h53l-148 -667h-53l58 257q-67 -85 -166 -85q-85 0 -137 53t-52 145q0 126 71 217.5t183 91.5zM303 448q-87 0 -144 -76t-57 -176q0 -74 40 -117.5t106 -43.5q49 0 93.5 26.5t70.5 66.5l51 232q-19 38 -61.5 63t-98.5 25z" />
    <glyph glyph-name="r" unicode="r" horiz-adv-x="317" 
d="M79 0h-52l107 483h52l-18 -78q40 46 81 67t103 21l-13 -56q-18 3 -35 3q-42 0 -81.5 -26t-65.5 -62z" />
    <glyph glyph-name="s" unicode="s" horiz-adv-x="459" 
d="M202 -12q-133 0 -194 85l37 36q20 -32 62.5 -54.5t95.5 -22.5q58 0 93 29.5t35 70.5q0 28 -26.5 49.5t-64.5 36t-76 30t-64.5 42t-26.5 62.5q0 61 47.5 102t128.5 41q59 0 107 -23t69 -56l-34 -34q-16 29 -57.5 49t-88.5 20q-54 0 -86.5 -24.5t-32.5 -62.5
q0 -27 26.5 -47t64.5 -34t76 -30t64.5 -44t26.5 -66q0 -64 -49 -109.5t-133 -45.5z" />
    <glyph glyph-name="t" unicode="t" horiz-adv-x="275" 
d="M151 -12q-97 0 -97 80q0 14 4 26l76 343h-80l10 46h80l29 132h53l-29 -132h98l-11 -46h-98l-74 -335q-2 -12 -2 -21q0 -46 49 -46q27 0 51 18l10 -42q-32 -23 -69 -23z" />
    <glyph glyph-name="u" unicode="u" horiz-adv-x="540" 
d="M133 483h53l-73 -327q-5 -23 -5 -36q0 -43 29 -64t78 -21q43 0 86.5 24.5t77.5 60.5l81 363h52l-107 -483h-52l16 73q-87 -85 -174 -85q-64 0 -102.5 30.5t-38.5 87.5q0 19 6 41z" />
    <glyph glyph-name="v" unicode="v" horiz-adv-x="481" 
d="M216 0h-59l-97 483h56l81 -422l269 422h61z" />
    <glyph glyph-name="w" unicode="w" horiz-adv-x="719" 
d="M491 0h-50l-44 413l-227 -413h-50l-50 483h53l38 -410l227 410h44l45 -410l220 410h58z" />
    <glyph glyph-name="x" unicode="x" horiz-adv-x="479" 
d="M408 0h-59l-113 213l-207 -213h-66l245 248l-127 235h59l105 -199l193 199h66l-233 -235z" />
    <glyph glyph-name="y" unicode="y" horiz-adv-x="540" 
d="M181 -196q-75 0 -124.5 19.5t-83.5 62.5l38 39q45 -74 170 -74q137 0 172 153l16 72q-92 -83 -173 -83q-61 0 -100.5 28.5t-39.5 87.5q0 21 5 43l73 331h52l-72 -323q-4 -28 -4 -37q0 -83 106 -83q43 0 87 24t77 60l80 359h52l-106 -479q-45 -200 -225 -200z" />
    <glyph glyph-name="z" unicode="z" horiz-adv-x="469" 
d="M359 0h-357l9 43l370 394h-282l10 46h353l-9 -42l-373 -395h288z" />
    <glyph glyph-name="braceleft" unicode="{" horiz-adv-x="249" 
d="M135 -190h-49q-40 0 -70.5 27t-30.5 70q0 16 4 27l49 219q2 12 2 18q0 22 -10.5 37.5t-28.5 15.5l9 40q53 0 68 71l49 219q14 61 50.5 92.5t88.5 31.5h62l-10 -43h-62q-33 0 -55 -21t-30 -60l-51 -227q-15 -69 -64 -87q29 -15 29 -54q0 -18 -4 -34l-48 -218
q-2 -12 -2 -21q0 -26 16.5 -43t41.5 -17h56z" />
    <glyph glyph-name="bar" unicode="|" horiz-adv-x="208" 
d="M146 -20h-43v707h43v-707z" />
    <glyph glyph-name="braceright" unicode="}" horiz-adv-x="249" 
d="M113 678h49q40 0 70 -27t30 -70q0 -18 -3 -27l-49 -219q-2 -12 -2 -18q0 -22 10.5 -37.5t28.5 -15.5l-9 -40q-53 0 -68 -71l-49 -219q-14 -61 -50.5 -92.5t-88.5 -31.5h-62l10 43h61q69 0 86 81l50 227q16 69 65 88q-29 14 -29 53q0 18 4 34l48 218q2 12 2 21
q0 26 -16.5 43t-41.5 17h-56z" />
    <glyph glyph-name="asciitilde" unicode="~" horiz-adv-x="499" 
d="M522 667l42 -5q-54 -234 -174 -234q-45 0 -66.5 30.5t-24 67.5t-15.5 67.5t-44 30.5q-40 0 -73.5 -52t-55.5 -146l-42 7q24 103 66.5 167.5t106.5 64.5q37 0 58 -20.5t27.5 -49.5t10.5 -57.5t17 -49t38 -20.5q39 0 72.5 52.5t56.5 146.5z" />
    <glyph glyph-name="uni00A0" unicode="&#xa0;" horiz-adv-x="259" 
 />
    <glyph glyph-name="exclamdown" unicode="&#xa1;" horiz-adv-x="219" 
d="M103 309h41l-96 -493h-67zM158 493q17 0 28.5 -12t11.5 -29q0 -19 -14 -33t-34 -14q-17 0 -28.5 11.5t-11.5 28.5q0 20 14 34t34 14z" />
    <glyph glyph-name="cent" unicode="&#xa2;" horiz-adv-x="494" 
d="M261 -12q-12 0 -18 1l-19 -89h-44l21 95q-71 15 -113 69t-42 138q0 120 77 206t189 87l16 70h44l-17 -73q90 -13 132 -85l-40 -30q-33 58 -102 69l-91 -411h12q79 0 131 62l30 -36q-71 -73 -166 -73zM101 201q0 -64 29.5 -104.5t80.5 -54.5l91 405q-90 -6 -145.5 -78
t-55.5 -168z" />
    <glyph glyph-name="sterling" unicode="&#xa3;" horiz-adv-x="504" 
d="M23 267l9 42h132q-5 10 -26 41.5t-30.5 56.5t-9.5 55q0 84 69 149.5t166 65.5q67 0 122.5 -32t70.5 -81l-53 -24q-10 38 -48.5 62.5t-89.5 24.5q-72 0 -123.5 -46t-51.5 -121q0 -30 10 -55t28.5 -53.5t25.5 -42.5h147l-9 -42h-126q2 -14 2 -20q0 -50 -36 -97t-81 -75
q27 8 48 8q34 0 86 -22t81 -22q53 0 96 41l16 -47q-56 -47 -114 -47q-46 0 -103.5 23.5t-101.5 23.5q-48 0 -116 -40l-12 48q77 30 129.5 86t52.5 113q0 14 -3 27h-157z" />
    <glyph glyph-name="yen" unicode="&#xa5;" horiz-adv-x="618" 
d="M287 0h-58l28 126h-262l9 41h262l27 118h-262l8 42h234l-162 340h64l153 -328l297 328h74l-311 -340h227l-9 -42h-256l-26 -118h255l-9 -41h-255z" />
    <glyph glyph-name="brokenbar" unicode="&#xa6;" horiz-adv-x="208" 
d="M146 -20h-43v316h43v-316zM146 371h-43v316h43v-316z" />
    <glyph glyph-name="section" unicode="&#xa7;" horiz-adv-x="461" 
d="M423 317q0 -47 -32 -85t-96 -56q73 -38 73 -105q0 -61 -49 -106.5t-130 -45.5q-138 0 -205 80l38 33q23 -34 67.5 -53t97.5 -19q55 0 91 30.5t36 74.5q0 30 -26.5 51t-63.5 35t-74.5 29.5t-64 43.5t-26.5 67q0 50 40 88t113 47q-99 36 -99 111q0 55 46.5 97.5t125.5 42.5
q127 0 189 -75l-36 -30q-47 64 -150 64q-53 0 -88 -26.5t-35 -64.5q0 -30 26.5 -51t64.5 -34.5t76 -28.5t64.5 -44t26.5 -70zM369 307q0 36 -27 57t-78 40q-76 -10 -114 -38.5t-38 -66.5q0 -37 31.5 -57.5t105.5 -46.5q62 18 91 48t29 64z" />
    <glyph glyph-name="dieresis" unicode="&#xa8;" horiz-adv-x="262" 
d="M349 605q0 -17 -12.5 -29t-28.5 -12q-14 0 -24 9.5t-10 23.5q0 16 12.5 28.5t29.5 12.5q14 0 23.5 -9.5t9.5 -23.5zM145 605q0 -17 -12.5 -29t-29.5 -12q-14 0 -23.5 9.5t-9.5 23.5q0 16 12.5 28.5t29.5 12.5q14 0 23.5 -9.5t9.5 -23.5z" />
    <glyph glyph-name="copyright" unicode="&#xa9;" horiz-adv-x="778" 
d="M754 334q0 -143 -101.5 -244t-244.5 -101q-142 0 -243 101t-101 244t100.5 244t243.5 101t244.5 -101t101.5 -244zM726 334q0 131 -93.5 224t-224.5 93t-223.5 -93t-92.5 -224t93 -224t223 -93q131 0 224.5 93t93.5 224zM505 197l17 -25q-62 -52 -133 -52
q-88 0 -140 53.5t-52 133.5q0 101 72 171.5t164 70.5q108 0 155 -80l-27 -19q-37 69 -128 69q-77 0 -140 -61.5t-63 -150.5q0 -65 44.5 -111t114.5 -46q67 0 116 47z" />
    <glyph glyph-name="ordfeminine" unicode="&#xaa;" horiz-adv-x="409" 
d="M267 613q-55 0 -93 -46.5t-38 -110.5q0 -49 26 -76t68 -27q59 0 108 57l34 152q-13 23 -41.5 37t-63.5 14zM389 640h43l-70 -314h-43l11 50q-47 -58 -113 -58q-53 0 -89.5 35t-36.5 100q0 78 49 136.5t121 58.5q80 0 117 -57z" />
    <glyph glyph-name="guillemotleft" unicode="&#xab;" horiz-adv-x="402" 
d="M202 63h-53l-120 180l200 177h61l-204 -182zM327 63h-53l-120 180l200 177h61l-204 -182z" />
    <glyph glyph-name="logicalnot" unicode="&#xac;" horiz-adv-x="499" 
d="M513 453l-52 -237h-44l43 195h-394l9 42h438z" />
    <glyph glyph-name="registered" unicode="&#xae;" horiz-adv-x="494" 
d="M508 465q0 -88 -62.5 -150t-150.5 -62t-149.5 62t-61.5 150t62 150t150 62t150 -61.5t62 -150.5zM481 465q0 77 -54.5 131t-131.5 54t-130.5 -54t-53.5 -131q0 -76 54 -130.5t130 -54.5t131 54.5t55 130.5zM366 343h-36l-42 96h-48l-21 -96h-30l53 243h91q28 0 48.5 -17
t20.5 -47q0 -35 -25 -58.5t-55 -23.5zM370 518q0 19 -12 29.5t-30 10.5h-62l-20 -90h69q23 0 39 14.5t16 35.5z" />
    <glyph glyph-name="macron" unicode="&#xaf;" horiz-adv-x="363" 
d="M439 591h-362l8 38h362z" />
    <glyph glyph-name="degree" unicode="&#xb0;" horiz-adv-x="282" 
d="M327 560q0 -48 -34.5 -81.5t-82.5 -33.5t-82 33.5t-34 81.5t34 82.5t82 34.5t82.5 -34.5t34.5 -82.5zM288 560q0 32 -23 55t-55 23q-31 0 -53.5 -23t-22.5 -55t22 -54t53 -22q32 0 55.5 22.5t23.5 53.5z" />
    <glyph glyph-name="plusminus" unicode="&#xb1;" horiz-adv-x="496" 
d="M485 323h-197l-48 -218h-45l48 218h-197l10 41h196l47 212h44l-46 -212h197zM413 0h-438l9 41h438z" />
    <glyph glyph-name="twosuperior" unicode="&#xb2;" horiz-adv-x="384" 
d="M372 421h-281l9 39q63 38 96 59t76.5 51.5t65 52t37 47.5t15.5 50q0 34 -27 51.5t-64 17.5q-71 0 -113 -47l-22 30q52 55 135 55q55 0 96 -26t41 -79q0 -28 -16 -57t-37.5 -52.5t-62 -53t-71 -49.5t-82.5 -51h213z" />
    <glyph glyph-name="threesuperior" unicode="&#xb3;" horiz-adv-x="384" 
d="M399 536q0 -47 -39.5 -84.5t-103.5 -37.5q-110 0 -152 72l32 25q38 -59 119 -59q45 0 71.5 25.5t26.5 64.5q0 29 -29 48t-75 19q-21 0 -28 -1l8 38q30 -2 59 -2q45 0 72.5 20.5t27.5 56.5q0 31 -28.5 49.5t-69.5 18.5q-59 0 -109 -44l-20 29q59 53 131 53q60 0 100.5 -26
t40.5 -74q0 -45 -31.5 -73t-79.5 -32q31 -6 54 -29.5t23 -56.5z" />
    <glyph glyph-name="acute" unicode="&#xb4;" horiz-adv-x="216" 
d="M316 700l-204 -144h-45l186 144h63z" />
    <glyph glyph-name="mu" unicode="&#xb5;" horiz-adv-x="540" 
d="M38 -184h-52l148 667h52l-75 -340q-3 -15 -3 -33q0 -77 94 -77q45 0 94.5 24t80.5 58l83 368h52l-107 -483h-52l15 71q-40 -36 -91 -59.5t-101 -23.5q-63 0 -94 25z" />
    <glyph glyph-name="paragraph" unicode="&#xb6;" horiz-adv-x="449" 
d="M291 -100h-38l162 729h-93l-162 -729h-38l94 423q-57 0 -97 44.5t-40 111.5q0 73 56.5 130.5t137.5 57.5h188z" />
    <glyph glyph-name="periodcentered" unicode="&#xb7;" horiz-adv-x="219" 
d="M106 201q-17 0 -29 11.5t-12 28.5q0 20 14.5 33.5t34.5 13.5q17 0 28.5 -11.5t11.5 -28.5q0 -19 -14 -33t-34 -14z" />
    <glyph glyph-name="cedilla" unicode="&#xb8;" horiz-adv-x="198" 
d="M15 -189q-65 0 -104 37l23 30q33 -34 83 -34q32 0 49 14.5t17 36.5q0 15 -11 24.5t-29 9.5q-22 0 -37 -18l-24 16l49 84h38l-41 -67q15 11 34 11q26 0 42 -15t16 -42q0 -38 -29 -62.5t-76 -24.5z" />
    <glyph glyph-name="onesuperior" unicode="&#xb9;" horiz-adv-x="214" 
d="M193 421h-46l74 337l-77 -66l-22 30l119 99h40z" />
    <glyph glyph-name="ordmasculine" unicode="&#xba;" horiz-adv-x="405" 
d="M238 318q-66 0 -105.5 39t-39.5 102q0 77 52 133t127 56q66 0 105.5 -39t39.5 -102q0 -77 -52 -133t-127 -56zM239 355q59 0 96.5 45t37.5 107q0 46 -28 74.5t-73 28.5q-59 0 -96.5 -45t-37.5 -106q0 -46 28 -75t73 -29z" />
    <glyph glyph-name="guillemotright" unicode="&#xbb;" horiz-adv-x="402" 
d="M77 420h53l120 -180l-200 -177h-61l204 182zM202 420h53l120 -180l-200 -177h-62l205 182z" />
    <glyph glyph-name="onequarter" unicode="&#xbc;" horiz-adv-x="742" 
d="M661 667l-574 -667h-45l573 667h46zM671 107h-60l-24 -107h-44l23 107h-196l8 35l236 258h61l-57 -256h60zM574 144l47 211l-196 -211h149zM159 267h-46l74 337l-77 -66l-22 30l119 99h40z" />
    <glyph glyph-name="onehalf" unicode="&#xbd;" horiz-adv-x="781" 
d="M661 667l-574 -667h-45l573 667h46zM676 0h-281l9 39q63 38 96 59t76.5 51.5t65 52t37 47.5t15.5 50q0 34 -27 51.5t-64 17.5q-71 0 -113 -47l-22 30q52 55 135 55q55 0 96 -26t41 -79q0 -28 -16 -57t-37.5 -52.5t-62 -53t-71 -49.5t-82.5 -51h213zM159 267h-46l74 337
l-77 -66l-22 30l119 99h40z" />
    <glyph glyph-name="threequarters" unicode="&#xbe;" horiz-adv-x="859" 
d="M778 667l-574 -667h-45l573 667h46zM788 107h-60l-24 -107h-44l23 107h-196l8 35l236 258h61l-57 -256h60zM691 144l47 211l-196 -211h149zM365 382q0 -47 -39.5 -84.5t-103.5 -37.5q-110 0 -152 72l32 25q38 -59 119 -59q45 0 71.5 25.5t26.5 64.5q0 29 -29 48t-75 19
q-21 0 -28 -1l8 38q30 -2 59 -2q45 0 72.5 20.5t27.5 56.5q0 31 -28.5 49.5t-69.5 18.5q-59 0 -109 -44l-20 29q59 53 131 53q60 0 100.5 -26t40.5 -74q0 -45 -31.5 -73t-79.5 -32q31 -6 54 -29.5t23 -56.5z" />
    <glyph glyph-name="questiondown" unicode="&#xbf;" horiz-adv-x="392" 
d="M218 282l46 24q26 -32 26 -71q0 -40 -26.5 -69.5t-64 -49l-75 -39t-64 -49.5t-26.5 -70q0 -45 37 -72.5t102 -27.5q98 0 167 72l28 -39q-86 -85 -200 -85q-88 0 -142 40t-54 105q0 50 27.5 87t66.5 59t78 41t66.5 43.5t27.5 55.5q0 25 -20 45zM290 492q17 0 28.5 -11.5
t11.5 -28.5q0 -20 -14 -33.5t-34 -13.5q-16 0 -28 11.5t-12 28.5q0 20 14 33.5t34 13.5z" />
    <glyph glyph-name="Agrave" unicode="&#xc0;" horiz-adv-x="647" 
d="M491 728h-44l-140 144h62zM578 0h-63l-30 164h-353l-102 -164h-69l420 667h71zM478 216l-72 390l-244 -390h316z" />
    <glyph glyph-name="Aacute" unicode="&#xc1;" horiz-adv-x="647" 
d="M619 872l-204 -144h-45l186 144h63zM578 0h-63l-30 164h-353l-102 -164h-69l420 667h71zM478 216l-72 390l-244 -390h316z" />
    <glyph glyph-name="Acircumflex" unicode="&#xc2;" horiz-adv-x="647" 
d="M557 728h-38l-62 113l-108 -113h-42l129 144h54zM578 0h-63l-30 164h-353l-102 -164h-69l420 667h71zM478 216l-72 390l-244 -390h316z" />
    <glyph glyph-name="Atilde" unicode="&#xc3;" horiz-adv-x="647" 
d="M501 726q-25 0 -41.5 16t-23 35t-19.5 35t-33 16q-46 0 -69 -96h-36q12 60 40.5 97t71.5 37q25 0 41.5 -16t23.5 -35t20 -35t32 -16q46 0 70 96h36q-13 -60 -41.5 -97t-71.5 -37zM578 0h-63l-30 164h-353l-102 -164h-69l420 667h71zM478 216l-72 390l-244 -390h316z" />
    <glyph glyph-name="Adieresis" unicode="&#xc4;" horiz-adv-x="647" 
d="M580 773q0 -17 -12 -29t-29 -12q-14 0 -24 9.5t-10 23.5q0 16 12.5 28.5t29.5 12.5q14 0 23.5 -9.5t9.5 -23.5zM376 773q0 -17 -12.5 -29t-29.5 -12q-14 0 -23.5 9.5t-9.5 23.5q0 16 12.5 28.5t29.5 12.5q14 0 23.5 -9.5t9.5 -23.5zM578 0h-63l-30 164h-353l-102 -164
h-69l420 667h71zM478 216l-72 390l-244 -390h316z" />
    <glyph glyph-name="Aring" unicode="&#xc5;" horiz-adv-x="647" 
d="M434 692q-38 0 -62.5 24.5t-24.5 62.5q0 42 31 73.5t74 31.5q38 0 62.5 -24.5t24.5 -62.5q0 -43 -31.5 -74t-73.5 -31zM435 724q29 0 50.5 21t21.5 49q0 26 -15.5 42t-40.5 16q-29 0 -50.5 -21t-21.5 -49q0 -26 15.5 -42t40.5 -16zM578 0h-63l-30 164h-353l-102 -164h-69
l420 667h71zM478 216l-72 390l-244 -390h316z" />
    <glyph glyph-name="AE" unicode="&#xc6;" horiz-adv-x="939" 
d="M825 0h-423l36 164h-271l-138 -164h-69l568 667h444l-11 -52h-365l-55 -247h358l-11 -52h-359l-58 -264h365zM450 216l85 385l-327 -385h242z" />
    <glyph glyph-name="Ccedilla" unicode="&#xc7;" horiz-adv-x="671" 
d="M367 -12q-13 0 -19 1l-27 -45q15 11 34 11q26 0 42 -15t16 -42q0 -38 -29 -62.5t-76 -24.5q-65 0 -104 37l23 30q33 -34 83 -34q32 0 49 14.5t17 36.5q0 15 -11 24.5t-29 9.5q-22 0 -37 -18l-24 16l38 65q-111 16 -178.5 92.5t-67.5 192.5q0 88 31.5 164.5t83.5 127.5
t118.5 80t136.5 29q88 0 156 -37t106 -106l-55 -25q-64 116 -211 116q-120 0 -212 -97t-92 -250q0 -108 65.5 -173.5t175.5 -65.5q101 0 189 76l40 -34q-97 -94 -232 -94z" />
    <glyph glyph-name="Egrave" unicode="&#xc8;" horiz-adv-x="564" 
d="M461 728h-44l-140 144h62zM452 0h-423l147 667h423l-11 -52h-366l-54 -247h358l-12 -52h-358l-59 -264h366z" />
    <glyph glyph-name="Eacute" unicode="&#xc9;" horiz-adv-x="564" 
d="M589 872l-204 -144h-45l186 144h63zM452 0h-423l147 667h423l-11 -52h-366l-54 -247h358l-12 -52h-358l-59 -264h366z" />
    <glyph glyph-name="Ecircumflex" unicode="&#xca;" horiz-adv-x="564" 
d="M525 728h-38l-62 113l-108 -113h-42l129 144h54zM452 0h-423l147 667h423l-11 -52h-366l-54 -247h358l-12 -52h-358l-59 -264h366z" />
    <glyph glyph-name="Edieresis" unicode="&#xcb;" horiz-adv-x="564" 
d="M548 773q0 -17 -12 -29t-29 -12q-14 0 -24 9.5t-10 23.5q0 16 12.5 28.5t29.5 12.5q14 0 23.5 -9.5t9.5 -23.5zM344 773q0 -17 -12.5 -29t-29.5 -12q-14 0 -23.5 9.5t-9.5 23.5q0 16 12.5 28.5t29.5 12.5q14 0 23.5 -9.5t9.5 -23.5zM452 0h-423l147 667h423l-11 -52h-366
l-54 -247h358l-12 -52h-358l-59 -264h366z" />
    <glyph glyph-name="Igrave" unicode="&#xcc;" horiz-adv-x="223" 
d="M279 728h-44l-140 144h62zM86 0h-57l147 667h57z" />
    <glyph glyph-name="Iacute" unicode="&#xcd;" horiz-adv-x="223" 
d="M407 872l-204 -144h-45l186 144h63zM86 0h-57l147 667h57z" />
    <glyph glyph-name="Icircumflex" unicode="&#xce;" horiz-adv-x="223" 
d="M345 728h-38l-62 113l-108 -113h-42l129 144h54zM86 0h-57l147 667h57z" />
    <glyph glyph-name="Idieresis" unicode="&#xcf;" horiz-adv-x="223" 
d="M367 773q0 -17 -12.5 -29t-28.5 -12q-14 0 -24 9.5t-10 23.5q0 16 12.5 28.5t29.5 12.5q14 0 23.5 -9.5t9.5 -23.5zM163 773q0 -17 -12.5 -29t-29.5 -12q-14 0 -23.5 9.5t-9.5 23.5q0 16 12.5 28.5t29.5 12.5q14 0 23.5 -9.5t9.5 -23.5zM86 0h-57l147 667h57z" />
    <glyph glyph-name="Eth" unicode="&#xd0;" horiz-adv-x="721" 
d="M270 0h-212l68 309h-101l11 50h101l68 308h208q113 0 192 -81t79 -203q0 -56 -16 -110.5t-50 -104t-81.5 -87t-116.5 -59.5t-150 -22zM362 309h-179l-57 -257h154q154 0 249 96t95 233q0 101 -63.5 167.5t-158.5 66.5h-151l-57 -256h179z" />
    <glyph glyph-name="Ntilde" unicode="&#xd1;" horiz-adv-x="699" 
d="M525 726q-25 0 -41.5 16t-23 35t-20 35t-32.5 16q-46 0 -69 -96h-36q12 60 40.5 97t71.5 37q25 0 41.5 -16t23.5 -35t20 -35t32 -16q46 0 70 96h36q-13 -60 -41.5 -97t-71.5 -37zM562 0h-56l-292 578l-128 -578h-57l147 667h58l291 -570l127 570h57z" />
    <glyph glyph-name="Ograve" unicode="&#xd2;" horiz-adv-x="764" 
d="M553 728h-44l-140 144h62zM367 -12q-129 0 -214.5 77t-85.5 212q0 168 108.5 284.5t261.5 116.5q129 0 214 -77t85 -212q0 -168 -108 -284.5t-261 -116.5zM370 40q124 0 214 99.5t90 247.5q0 113 -69 176t-173 63q-124 0 -213.5 -99t-89.5 -248q0 -113 68.5 -176
t172.5 -63z" />
    <glyph glyph-name="Oacute" unicode="&#xd3;" horiz-adv-x="764" 
d="M678 872l-204 -144h-45l186 144h63zM367 -12q-129 0 -214.5 77t-85.5 212q0 168 108.5 284.5t261.5 116.5q129 0 214 -77t85 -212q0 -168 -108 -284.5t-261 -116.5zM370 40q124 0 214 99.5t90 247.5q0 113 -69 176t-173 63q-124 0 -213.5 -99t-89.5 -248
q0 -113 68.5 -176t172.5 -63z" />
    <glyph glyph-name="Ocircumflex" unicode="&#xd4;" horiz-adv-x="764" 
d="M616 728h-38l-62 113l-108 -113h-42l129 144h54zM367 -12q-129 0 -214.5 77t-85.5 212q0 168 108.5 284.5t261.5 116.5q129 0 214 -77t85 -212q0 -168 -108 -284.5t-261 -116.5zM370 40q124 0 214 99.5t90 247.5q0 113 -69 176t-173 63q-124 0 -213.5 -99t-89.5 -248
q0 -113 68.5 -176t172.5 -63z" />
    <glyph glyph-name="Otilde" unicode="&#xd5;" horiz-adv-x="764" 
d="M559 726q-25 0 -41.5 16t-23 35t-19.5 35t-33 16q-46 0 -69 -96h-36q12 60 40.5 97t71.5 37q25 0 41.5 -16t23.5 -35t20 -35t32 -16q46 0 70 96h36q-13 -60 -41.5 -97t-71.5 -37zM367 -12q-129 0 -214.5 77t-85.5 212q0 168 108.5 284.5t261.5 116.5q129 0 214 -77
t85 -212q0 -168 -108 -284.5t-261 -116.5zM370 40q124 0 214 99.5t90 247.5q0 113 -69 176t-173 63q-124 0 -213.5 -99t-89.5 -248q0 -113 68.5 -176t172.5 -63z" />
    <glyph glyph-name="Odieresis" unicode="&#xd6;" horiz-adv-x="764" 
d="M636 773q0 -17 -12 -29t-29 -12q-14 0 -24 9.5t-10 23.5q0 16 12.5 28.5t29.5 12.5q14 0 23.5 -9.5t9.5 -23.5zM432 773q0 -17 -12.5 -29t-29.5 -12q-14 0 -23.5 9.5t-9.5 23.5q0 16 12.5 28.5t29.5 12.5q14 0 23.5 -9.5t9.5 -23.5zM367 -12q-129 0 -214.5 77t-85.5 212
q0 168 108.5 284.5t261.5 116.5q129 0 214 -77t85 -212q0 -168 -108 -284.5t-261 -116.5zM370 40q124 0 214 99.5t90 247.5q0 113 -69 176t-173 63q-124 0 -213.5 -99t-89.5 -248q0 -113 68.5 -176t172.5 -63z" />
    <glyph glyph-name="multiply" unicode="&#xd7;" horiz-adv-x="496" 
d="M381 155l-117 150l-186 -153l-26 31l187 154l-117 150l33 27l116 -151l188 153l25 -31l-187 -154l116 -150z" />
    <glyph glyph-name="Oslash" unicode="&#xd8;" horiz-adv-x="764" 
d="M367 -12q-112 0 -189 56l-38 -44h-51l59 69q-81 79 -81 208q0 168 108.5 284.5t261.5 116.5q106 0 185 -54l37 43h52l-58 -68q83 -80 83 -210q0 -168 -108 -284.5t-261 -116.5zM370 40q124 0 214 99.5t90 247.5q0 101 -60 166l-399 -465q63 -48 155 -48zM129 279
q0 -102 57 -165l398 466q-64 46 -152 46q-124 0 -213.5 -99t-89.5 -248z" />
    <glyph glyph-name="Ugrave" unicode="&#xd9;" horiz-adv-x="686" 
d="M512 728h-44l-140 144h62zM328 -12q-115 0 -181 58.5t-66 158.5q0 23 5 51l90 411h58l-90 -410q-6 -24 -6 -45q0 -77 50.5 -124.5t139.5 -47.5q94 0 145 55t75 162l90 410h58l-90 -411q-30 -132 -94 -200t-184 -68z" />
    <glyph glyph-name="Uacute" unicode="&#xda;" horiz-adv-x="686" 
d="M637 872l-204 -144h-45l186 144h63zM328 -12q-115 0 -181 58.5t-66 158.5q0 23 5 51l90 411h58l-90 -410q-6 -24 -6 -45q0 -77 50.5 -124.5t139.5 -47.5q94 0 145 55t75 162l90 410h58l-90 -411q-30 -132 -94 -200t-184 -68z" />
    <glyph glyph-name="Ucircumflex" unicode="&#xdb;" horiz-adv-x="686" 
d="M579 728h-38l-62 113l-108 -113h-42l129 144h54zM328 -12q-115 0 -181 58.5t-66 158.5q0 23 5 51l90 411h58l-90 -410q-6 -24 -6 -45q0 -77 50.5 -124.5t139.5 -47.5q94 0 145 55t75 162l90 410h58l-90 -411q-30 -132 -94 -200t-184 -68z" />
    <glyph glyph-name="Udieresis" unicode="&#xdc;" horiz-adv-x="686" 
d="M599 773q0 -17 -12.5 -29t-28.5 -12q-14 0 -24 9.5t-10 23.5q0 16 12.5 28.5t29.5 12.5q14 0 23.5 -9.5t9.5 -23.5zM395 773q0 -17 -12.5 -29t-29.5 -12q-14 0 -23.5 9.5t-9.5 23.5q0 16 12.5 28.5t29.5 12.5q14 0 23.5 -9.5t9.5 -23.5zM328 -12q-115 0 -181 58.5
t-66 158.5q0 23 5 51l90 411h58l-90 -410q-6 -24 -6 -45q0 -77 50.5 -124.5t139.5 -47.5q94 0 145 55t75 162l90 410h58l-90 -411q-30 -132 -94 -200t-184 -68z" />
    <glyph glyph-name="Yacute" unicode="&#xdd;" horiz-adv-x="618" 
d="M608 872l-204 -144h-45l186 144h63zM284 0h-58l64 285l-182 382h64l153 -328l297 328h74l-349 -382z" />
    <glyph glyph-name="Thorn" unicode="&#xde;" 
d="M86 0h-57l147 667h57l-27 -124h181q71 0 121 -48.5t50 -118.5q0 -88 -63 -155.5t-185 -67.5h-190zM316 205q87 0 133.5 49t46.5 118q0 50 -36 84.5t-87 34.5h-178l-63 -286h184z" />
    <glyph glyph-name="germandbls" unicode="&#xdf;" horiz-adv-x="578" 
d="M537 141q0 -61 -47.5 -107t-132.5 -46q-68 0 -114 21t-85 69l37 33q60 -79 163 -79q59 0 93 31t34 71q0 28 -26 48t-63 33t-74 27t-63 40.5t-26 63.5t21 64.5t50.5 43t59.5 29t51 31.5t21 42q0 33 -33 53.5t-72 20.5q-50 0 -88 -32.5t-51 -88.5l-113 -509h-52l112 509
q17 74 67 121t125 47q63 0 111 -31.5t48 -81.5q0 -36 -21 -61.5t-51 -40t-60 -28t-51 -33.5t-21 -48q0 -26 26 -45t63 -32t73.5 -28t62.5 -42t26 -65z" />
    <glyph glyph-name="agrave" unicode="&#xe0;" horiz-adv-x="521" 
d="M399 556h-44l-140 144h62zM390 0h-53l12 54q-69 -66 -153 -66q-68 0 -115.5 36t-47.5 104q0 83 52.5 132t128.5 49q112 0 174 -76l21 92q3 12 3 31q0 42 -36.5 68t-97.5 26q-82 0 -146 -62l-22 38q81 69 175 69q79 0 130 -33.5t51 -97.5q0 -17 -5 -42zM214 29
q82 0 144 64l23 105q-20 34 -61 52t-92 18q-61 0 -100 -38.5t-39 -96.5q0 -50 34.5 -77t90.5 -27z" />
    <glyph glyph-name="aacute" unicode="&#xe1;" horiz-adv-x="521" 
d="M526 700l-204 -144h-45l186 144h63zM390 0h-53l12 54q-69 -66 -153 -66q-68 0 -115.5 36t-47.5 104q0 83 52.5 132t128.5 49q112 0 174 -76l21 92q3 12 3 31q0 42 -36.5 68t-97.5 26q-82 0 -146 -62l-22 38q81 69 175 69q79 0 130 -33.5t51 -97.5q0 -17 -5 -42zM214 29
q82 0 144 64l23 105q-20 34 -61 52t-92 18q-61 0 -100 -38.5t-39 -96.5q0 -50 34.5 -77t90.5 -27z" />
    <glyph glyph-name="acircumflex" unicode="&#xe2;" horiz-adv-x="521" 
d="M466 556h-38l-62 113l-108 -113h-42l129 144h54zM390 0h-53l12 54q-69 -66 -153 -66q-68 0 -115.5 36t-47.5 104q0 83 52.5 132t128.5 49q112 0 174 -76l21 92q3 12 3 31q0 42 -36.5 68t-97.5 26q-82 0 -146 -62l-22 38q81 69 175 69q79 0 130 -33.5t51 -97.5
q0 -17 -5 -42zM214 29q82 0 144 64l23 105q-20 34 -61 52t-92 18q-61 0 -100 -38.5t-39 -96.5q0 -50 34.5 -77t90.5 -27z" />
    <glyph glyph-name="atilde" unicode="&#xe3;" horiz-adv-x="521" 
d="M408 554q-25 0 -41.5 16t-23 35t-20 35t-32.5 16q-46 0 -69 -96h-36q12 60 40.5 97t71.5 37q25 0 41.5 -16t23.5 -35t20 -35t32 -16q46 0 70 96h36q-13 -60 -41.5 -97t-71.5 -37zM390 0h-53l12 54q-69 -66 -153 -66q-68 0 -115.5 36t-47.5 104q0 83 52.5 132t128.5 49
q112 0 174 -76l21 92q3 12 3 31q0 42 -36.5 68t-97.5 26q-82 0 -146 -62l-22 38q81 69 175 69q79 0 130 -33.5t51 -97.5q0 -17 -5 -42zM214 29q82 0 144 64l23 105q-20 34 -61 52t-92 18q-61 0 -100 -38.5t-39 -96.5q0 -50 34.5 -77t90.5 -27z" />
    <glyph glyph-name="adieresis" unicode="&#xe4;" horiz-adv-x="521" 
d="M486 605q0 -17 -12 -29t-29 -12q-14 0 -24 9.5t-10 23.5q0 16 12.5 28.5t29.5 12.5q14 0 23.5 -9.5t9.5 -23.5zM282 605q0 -17 -12.5 -29t-29.5 -12q-14 0 -23.5 9.5t-9.5 23.5q0 16 12.5 28.5t29.5 12.5q14 0 23.5 -9.5t9.5 -23.5zM390 0h-53l12 54q-69 -66 -153 -66
q-68 0 -115.5 36t-47.5 104q0 83 52.5 132t128.5 49q112 0 174 -76l21 92q3 12 3 31q0 42 -36.5 68t-97.5 26q-82 0 -146 -62l-22 38q81 69 175 69q79 0 130 -33.5t51 -97.5q0 -17 -5 -42zM214 29q82 0 144 64l23 105q-20 34 -61 52t-92 18q-61 0 -100 -38.5t-39 -96.5
q0 -50 34.5 -77t90.5 -27z" />
    <glyph glyph-name="aring" unicode="&#xe5;" horiz-adv-x="521" 
d="M350 557q-38 0 -62.5 24.5t-24.5 62.5q0 42 31 73.5t74 31.5q38 0 62.5 -24.5t24.5 -62.5q0 -43 -31.5 -74t-73.5 -31zM351 589q29 0 50.5 21t21.5 49q0 26 -15.5 42t-40.5 16q-29 0 -50.5 -21t-21.5 -49q0 -26 15.5 -42t40.5 -16zM390 0h-53l12 54q-69 -66 -153 -66
q-68 0 -115.5 36t-47.5 104q0 83 52.5 132t128.5 49q112 0 174 -76l21 92q3 12 3 31q0 42 -36.5 68t-97.5 26q-82 0 -146 -62l-22 38q81 69 175 69q79 0 130 -33.5t51 -97.5q0 -17 -5 -42zM214 29q82 0 144 64l23 105q-20 34 -61 52t-92 18q-61 0 -100 -38.5t-39 -96.5
q0 -50 34.5 -77t90.5 -27z" />
    <glyph glyph-name="ae" unicode="&#xe6;" horiz-adv-x="901" 
d="M845 225h-405q-2 -6 -2 -27q0 -71 45.5 -118t129.5 -47t145 52l21 -38q-72 -59 -166 -59q-75 0 -127.5 29.5t-76.5 82.5q-22 -24 -38 -39.5t-42.5 -34.5t-59 -28.5t-70.5 -9.5q-71 0 -118.5 36t-47.5 104q0 85 53.5 133t127.5 48q56 0 103 -19.5t72 -53.5l20 89
q3 15 3 31q0 44 -38 69t-96 25q-77 0 -146 -62l-22 38q78 69 175 69q160 0 165 -123q25 54 79 88.5t122 34.5q90 0 146 -57t56 -152q0 -45 -8 -61zM448 266h354q2 8 2 22q0 73 -43.5 117.5t-117.5 44.5q-77 0 -126 -54.5t-69 -129.5zM388 131q-7 30 -7 61q0 5 -1 7
q-17 32 -60.5 50.5t-91.5 18.5q-61 0 -100 -38.5t-39 -96.5q0 -50 34 -77t90 -27q95 0 175 102z" />
    <glyph glyph-name="ccedilla" unicode="&#xe7;" horiz-adv-x="494" 
d="M207 -189q-65 0 -104 37l23 30q33 -34 83 -34q32 0 49 14.5t17 36.5q0 15 -11 24.5t-29 9.5q-22 0 -37 -18l-24 16l38 65q-76 14 -121 68.5t-45 141.5q0 120 78 206.5t190 86.5q121 0 173 -88l-40 -30q-41 71 -131 71q-96 0 -155.5 -73.5t-59.5 -173.5q0 -80 46 -123
t119 -43q79 0 131 62l30 -36q-71 -73 -166 -73q-3 0 -7.5 0.5t-6.5 0.5l-27 -45q15 11 34 11q26 0 42 -15t16 -42q0 -38 -29 -62.5t-76 -24.5z" />
    <glyph glyph-name="egrave" unicode="&#xe8;" horiz-adv-x="567" 
d="M276 -12q-107 0 -168.5 58.5t-61.5 154.5q0 121 78 207.5t190 86.5q94 0 149.5 -59t55.5 -150q0 -29 -8 -61h-408q-2 -12 -2 -28q0 -71 46 -117.5t131 -46.5q84 0 146 52l20 -38q-77 -59 -168 -59zM465 266h3q1 5 1 22q0 72 -42.5 117t-118.5 45q-72 0 -129.5 -54.5
t-70.5 -129.5h357zM416 556h-44l-140 144h62z" />
    <glyph glyph-name="eacute" unicode="&#xe9;" horiz-adv-x="567" 
d="M276 -12q-107 0 -168.5 58.5t-61.5 154.5q0 121 78 207.5t190 86.5q94 0 149.5 -59t55.5 -150q0 -29 -8 -61h-408q-2 -12 -2 -28q0 -71 46 -117.5t131 -46.5q84 0 146 52l20 -38q-77 -59 -168 -59zM465 266h3q1 5 1 22q0 72 -42.5 117t-118.5 45q-72 0 -129.5 -54.5
t-70.5 -129.5h357zM544 700l-204 -144h-45l186 144h63z" />
    <glyph glyph-name="ecircumflex" unicode="&#xea;" horiz-adv-x="567" 
d="M276 -12q-107 0 -168.5 58.5t-61.5 154.5q0 121 78 207.5t190 86.5q94 0 149.5 -59t55.5 -150q0 -29 -8 -61h-408q-2 -12 -2 -28q0 -71 46 -117.5t131 -46.5q84 0 146 52l20 -38q-77 -59 -168 -59zM465 266h3q1 5 1 22q0 72 -42.5 117t-118.5 45q-72 0 -129.5 -54.5
t-70.5 -129.5h357zM482 556h-38l-62 113l-108 -113h-42l129 144h54z" />
    <glyph glyph-name="edieresis" unicode="&#xeb;" horiz-adv-x="567" 
d="M276 -12q-107 0 -168.5 58.5t-61.5 154.5q0 121 78 207.5t190 86.5q94 0 149.5 -59t55.5 -150q0 -29 -8 -61h-408q-2 -12 -2 -28q0 -71 46 -117.5t131 -46.5q84 0 146 52l20 -38q-77 -59 -168 -59zM465 266h3q1 5 1 22q0 72 -42.5 117t-118.5 45q-72 0 -129.5 -54.5
t-70.5 -129.5h357zM505 605q0 -17 -12.5 -29t-28.5 -12q-14 0 -24 9.5t-10 23.5q0 16 12.5 28.5t29.5 12.5q14 0 23.5 -9.5t9.5 -23.5zM301 605q0 -17 -12.5 -29t-29.5 -12q-14 0 -23.5 9.5t-9.5 23.5q0 16 12.5 28.5t29.5 12.5q14 0 23.5 -9.5t9.5 -23.5z" />
    <glyph glyph-name="igrave" unicode="&#xec;" horiz-adv-x="214" 
d="M235 556h-44l-140 144h62zM79 0h-52l107 483h52z" />
    <glyph glyph-name="iacute" unicode="&#xed;" horiz-adv-x="214" 
d="M364 700l-204 -144h-45l186 144h63zM79 0h-52l107 483h52z" />
    <glyph glyph-name="icircumflex" unicode="&#xee;" horiz-adv-x="214" 
d="M301 556h-38l-62 113l-108 -113h-42l129 144h54zM79 0h-52l107 483h52z" />
    <glyph glyph-name="idieresis" unicode="&#xef;" horiz-adv-x="214" 
d="M325 605q0 -17 -12.5 -29t-28.5 -12q-14 0 -24 9.5t-10 23.5q0 16 12.5 28.5t29.5 12.5q14 0 23.5 -9.5t9.5 -23.5zM121 605q0 -17 -12.5 -29t-29.5 -12q-14 0 -23.5 9.5t-9.5 23.5q0 16 12.5 28.5t29.5 12.5q14 0 23.5 -9.5t9.5 -23.5zM79 0h-52l107 483h52z" />
    <glyph glyph-name="eth" unicode="&#xf0;" 
d="M189 523l-7 33l135 40q-32 29 -70 58l39 40q55 -42 92 -80l119 36l7 -33l-100 -30q120 -138 120 -286q0 -131 -75 -222t-188 -91q-95 0 -155 58t-60 147q0 122 74.5 208t178.5 86q51 0 97.5 -25.5t70.5 -79.5q-38 102 -122 187zM262 35q83 0 143 72.5t60 172.5
q0 64 -41 112t-120 48q-83 0 -142.5 -69.5t-59.5 -170.5q0 -73 42.5 -119t117.5 -46z" />
    <glyph glyph-name="ntilde" unicode="&#xf1;" horiz-adv-x="540" 
d="M407 0h-52l72 328q6 27 6 35q0 43 -29.5 64t-78.5 21q-83 0 -163 -84l-81 -364h-52l107 483h52l-16 -73q87 85 174 85q64 0 102.5 -30.5t38.5 -87.5q0 -19 -6 -41zM409 554q-25 0 -41.5 16t-23 35t-19.5 35t-33 16q-46 0 -69 -96h-36q12 60 40.5 97t71.5 37
q25 0 41.5 -16t23.5 -35t20 -35t32 -16q46 0 70 96h36q-13 -60 -41.5 -97t-71.5 -37z" />
    <glyph glyph-name="ograve" unicode="&#xf2;" 
d="M258 -12q-97 0 -155 58t-58 154q0 118 77 206.5t189 88.5q97 0 155 -58t58 -154q0 -118 -77 -206.5t-189 -88.5zM259 35q88 0 148 74.5t60 171.5q0 77 -41.5 122t-115.5 45q-88 0 -148 -74.5t-60 -171.5q0 -77 41.5 -122t115.5 -45zM415 556h-44l-140 144h62z" />
    <glyph glyph-name="oacute" unicode="&#xf3;" 
d="M258 -12q-97 0 -155 58t-58 154q0 118 77 206.5t189 88.5q97 0 155 -58t58 -154q0 -118 -77 -206.5t-189 -88.5zM259 35q88 0 148 74.5t60 171.5q0 77 -41.5 122t-115.5 45q-88 0 -148 -74.5t-60 -171.5q0 -77 41.5 -122t115.5 -45zM543 700l-204 -144h-45l186 144h63z
" />
    <glyph glyph-name="ocircumflex" unicode="&#xf4;" 
d="M258 -12q-97 0 -155 58t-58 154q0 118 77 206.5t189 88.5q97 0 155 -58t58 -154q0 -118 -77 -206.5t-189 -88.5zM259 35q88 0 148 74.5t60 171.5q0 77 -41.5 122t-115.5 45q-88 0 -148 -74.5t-60 -171.5q0 -77 41.5 -122t115.5 -45zM481 556h-38l-62 113l-108 -113h-42
l129 144h54z" />
    <glyph glyph-name="otilde" unicode="&#xf5;" 
d="M258 -12q-97 0 -155 58t-58 154q0 118 77 206.5t189 88.5q97 0 155 -58t58 -154q0 -118 -77 -206.5t-189 -88.5zM259 35q88 0 148 74.5t60 171.5q0 77 -41.5 122t-115.5 45q-88 0 -148 -74.5t-60 -171.5q0 -77 41.5 -122t115.5 -45zM424 554q-25 0 -41.5 16t-23 35
t-20 35t-32.5 16q-46 0 -69 -96h-36q12 60 40.5 97t71.5 37q25 0 41.5 -16t23.5 -35t20 -35t32 -16q46 0 70 96h36q-13 -60 -41.5 -97t-71.5 -37z" />
    <glyph glyph-name="odieresis" unicode="&#xf6;" 
d="M258 -12q-97 0 -155 58t-58 154q0 118 77 206.5t189 88.5q97 0 155 -58t58 -154q0 -118 -77 -206.5t-189 -88.5zM259 35q88 0 148 74.5t60 171.5q0 77 -41.5 122t-115.5 45q-88 0 -148 -74.5t-60 -171.5q0 -77 41.5 -122t115.5 -45zM504 605q0 -17 -12 -29t-29 -12
q-14 0 -24 9.5t-10 23.5q0 16 12.5 28.5t29.5 12.5q14 0 23.5 -9.5t9.5 -23.5zM300 605q0 -17 -12.5 -29t-29.5 -12q-14 0 -23.5 9.5t-9.5 23.5q0 16 12.5 28.5t29.5 12.5q14 0 23.5 -9.5t9.5 -23.5z" />
    <glyph glyph-name="divide" unicode="&#xf7;" horiz-adv-x="511" 
d="M498 316h-453l9 42h453zM228 100q-15 0 -25 10.5t-10 25.5q0 18 12.5 30t30.5 12q15 0 25.5 -10.5t10.5 -25.5q0 -18 -13 -30t-31 -12zM315 492q-15 0 -25.5 10.5t-10.5 25.5q0 17 13 29.5t30 12.5q16 0 26 -10.5t10 -25.5q0 -18 -12.5 -30t-30.5 -12z" />
    <glyph glyph-name="oslash" unicode="&#xf8;" 
d="M65 0h-46l66 66q-40 54 -40 134q0 118 77 206.5t189 88.5q90 0 147 -51l38 39h46l-61 -62q43 -55 43 -138q0 -118 -77 -206.5t-189 -88.5q-95 0 -152 54zM259 35q88 0 148 74.5t60 171.5q0 59 -26 100l-297 -301q42 -45 115 -45zM102 202q0 -58 22 -96l297 301
q-43 41 -111 41q-88 0 -148 -74.5t-60 -171.5z" />
    <glyph glyph-name="ugrave" unicode="&#xf9;" horiz-adv-x="540" 
d="M133 483h53l-73 -327q-5 -23 -5 -36q0 -43 29 -64t78 -21q43 0 86.5 24.5t77.5 60.5l81 363h52l-107 -483h-52l16 73q-87 -85 -174 -85q-64 0 -102.5 30.5t-38.5 87.5q0 19 6 41zM401 556h-44l-140 144h62z" />
    <glyph glyph-name="uacute" unicode="&#xfa;" horiz-adv-x="540" 
d="M133 483h53l-73 -327q-5 -23 -5 -36q0 -43 29 -64t78 -21q43 0 86.5 24.5t77.5 60.5l81 363h52l-107 -483h-52l16 73q-87 -85 -174 -85q-64 0 -102.5 30.5t-38.5 87.5q0 19 6 41zM528 700l-204 -144h-45l186 144h63z" />
    <glyph glyph-name="ucircumflex" unicode="&#xfb;" horiz-adv-x="540" 
d="M133 483h53l-73 -327q-5 -23 -5 -36q0 -43 29 -64t78 -21q43 0 86.5 24.5t77.5 60.5l81 363h52l-107 -483h-52l16 73q-87 -85 -174 -85q-64 0 -102.5 30.5t-38.5 87.5q0 19 6 41zM464 556h-38l-62 113l-108 -113h-42l129 144h54z" />
    <glyph glyph-name="udieresis" unicode="&#xfc;" horiz-adv-x="540" 
d="M133 483h53l-73 -327q-5 -23 -5 -36q0 -43 29 -64t78 -21q43 0 86.5 24.5t77.5 60.5l81 363h52l-107 -483h-52l16 73q-87 -85 -174 -85q-64 0 -102.5 30.5t-38.5 87.5q0 19 6 41zM492 605q0 -17 -12 -29t-29 -12q-14 0 -24 9.5t-10 23.5q0 16 12.5 28.5t29.5 12.5
q14 0 23.5 -9.5t9.5 -23.5zM288 605q0 -17 -12.5 -29t-29.5 -12q-14 0 -23.5 9.5t-9.5 23.5q0 16 12.5 28.5t29.5 12.5q14 0 23.5 -9.5t9.5 -23.5z" />
    <glyph glyph-name="yacute" unicode="&#xfd;" horiz-adv-x="540" 
d="M525 700l-204 -144h-45l186 144h63zM181 -196q-75 0 -124.5 19.5t-83.5 62.5l38 39q45 -74 170 -74q137 0 172 153l16 72q-92 -83 -173 -83q-61 0 -100.5 28.5t-39.5 87.5q0 21 5 43l73 331h52l-72 -323q-4 -28 -4 -37q0 -83 106 -83q43 0 87 24t77 60l80 359h52
l-106 -479q-45 -200 -225 -200z" />
    <glyph glyph-name="thorn" unicode="&#xfe;" horiz-adv-x="567" 
d="M271 -12q-58 0 -103 25.5t-71 68.5l-59 -266h-52l188 851h52l-56 -257q65 85 166 85q84 0 136 -53t52 -145q0 -126 -71 -217.5t-182 -91.5zM266 35q88 0 144.5 76t56.5 176q0 74 -40 117.5t-106 43.5q-49 0 -93 -26.5t-71 -66.5l-51 -232q19 -38 61.5 -63t98.5 -25z" />
    <glyph glyph-name="ydieresis" unicode="&#xff;" horiz-adv-x="540" 
d="M483 605q0 -17 -12.5 -29t-28.5 -12q-14 0 -24 9.5t-10 23.5q0 16 12.5 28.5t29.5 12.5q14 0 23.5 -9.5t9.5 -23.5zM279 605q0 -17 -12.5 -29t-29.5 -12q-14 0 -23.5 9.5t-9.5 23.5q0 16 12.5 28.5t29.5 12.5q14 0 23.5 -9.5t9.5 -23.5zM181 -196q-75 0 -124.5 19.5
t-83.5 62.5l38 39q45 -74 170 -74q137 0 172 153l16 72q-92 -83 -173 -83q-61 0 -100.5 28.5t-39.5 87.5q0 21 5 43l73 331h52l-72 -323q-4 -28 -4 -37q0 -83 106 -83q43 0 87 24t77 60l80 359h52l-106 -479q-45 -200 -225 -200z" />
    <glyph glyph-name="dotlessi" unicode="&#x131;" horiz-adv-x="214" 
d="M79 0h-52l107 483h52z" />
    <glyph glyph-name="Lslash" unicode="&#x141;" horiz-adv-x="520" 
d="M9 234l12 52l104 54l72 327h58l-65 -294l119 62l-11 -53l-120 -61l-59 -269h322l-10 -52h-381l63 287z" />
    <glyph glyph-name="lslash" unicode="&#x142;" horiz-adv-x="287" 
d="M9 238l11 46l114 58l72 325h52l-66 -295l115 58l-10 -46l-115 -58l-49 -224q-3 -15 -3 -25q0 -20 13.5 -31t36.5 -11q29 0 51 18l10 -42q-29 -23 -69 -23q-44 0 -70 19.5t-26 54.5q0 15 3 32l45 202z" />
    <glyph glyph-name="OE" unicode="&#x152;" horiz-adv-x="1115" 
d="M1001 0h-423l25 114q-92 -126 -255 -126q-125 0 -203 81t-78 208q0 173 110.5 286.5t264.5 113.5q88 0 154 -41t94 -131l35 162h423l-11 -52h-365l-55 -247h358l-12 -52h-358l-58 -264h365zM621 194l51 231q-13 95 -75.5 147.5t-157.5 52.5q-128 0 -219 -99.5t-91 -246.5
q0 -109 65 -174t170 -65q77 0 146 41t111 113z" />
    <glyph glyph-name="oe" unicode="&#x153;" horiz-adv-x="975" 
d="M920 225h-404q-2 -10 -2 -28q0 -70 46 -117t129 -47q82 0 144 52l21 -38q-74 -59 -167 -59q-90 0 -147 49t-63 102q-17 -29 -31.5 -48.5t-41.5 -46.5t-65 -41.5t-83 -14.5q-95 0 -153 57t-58 155q0 118 76 206.5t188 88.5q86 0 136.5 -50t56.5 -101q88 151 223 151
q90 0 146.5 -56.5t56.5 -152.5q0 -29 -8 -61zM521 266h356q2 12 2 22q0 71 -42 116.5t-117 45.5q-76 0 -132.5 -58.5t-66.5 -125.5zM463 281q0 84 -44.5 125.5t-110.5 41.5q-85 0 -145.5 -73.5t-60.5 -172.5q0 -76 41 -121.5t114 -45.5q86 0 146 73.5t60 172.5z" />
    <glyph glyph-name="Scaron" unicode="&#x160;" horiz-adv-x="581" 
d="M419 728h-54l-68 144h38l61 -113l109 113h42zM279 -12q-84 0 -153.5 33t-101.5 84l42 41q75 -106 218 -106q82 0 125 44.5t43 100.5q0 40 -34.5 69.5t-83 49.5t-97.5 41.5t-83.5 58.5t-34.5 88q0 76 65.5 131t159.5 55q75 0 137 -28.5t93 -75.5l-43 -40
q-30 45 -81.5 68.5t-110.5 23.5q-65 0 -111.5 -38.5t-46.5 -89.5q0 -37 34.5 -64.5t83.5 -47.5t98 -42t83.5 -60.5t34.5 -91.5q0 -81 -63 -142.5t-173 -61.5z" />
    <glyph glyph-name="scaron" unicode="&#x161;" horiz-adv-x="459" 
d="M202 -12q-133 0 -194 85l37 36q20 -32 62.5 -54.5t95.5 -22.5q58 0 93 29.5t35 70.5q0 28 -26.5 49.5t-64.5 36t-76 30t-64.5 42t-26.5 62.5q0 61 47.5 102t128.5 41q59 0 107 -23t69 -56l-34 -34q-16 29 -57.5 49t-88.5 20q-54 0 -86.5 -24.5t-32.5 -62.5
q0 -27 26.5 -47t64.5 -34t76 -30t64.5 -44t26.5 -66q0 -64 -49 -109.5t-133 -45.5zM323 556h-54l-68 144h38l61 -113l109 113h42z" />
    <glyph glyph-name="Ydieresis" unicode="&#x178;" horiz-adv-x="618" 
d="M568 773q0 -17 -12 -29t-29 -12q-14 0 -24 9.5t-10 23.5q0 16 12.5 28.5t29.5 12.5q14 0 23.5 -9.5t9.5 -23.5zM364 773q0 -17 -12.5 -29t-29.5 -12q-14 0 -23.5 9.5t-9.5 23.5q0 16 12.5 28.5t29.5 12.5q14 0 23.5 -9.5t9.5 -23.5zM284 0h-58l64 285l-182 382h64
l153 -328l297 328h74l-349 -382z" />
    <glyph glyph-name="Zcaron" unicode="&#x17d;" horiz-adv-x="581" 
d="M426 728h-54l-68 144h38l61 -113l109 113h42zM477 0h-481l11 50l522 565h-396l10 52h474l-10 -49l-523 -566h404z" />
    <glyph glyph-name="zcaron" unicode="&#x17e;" horiz-adv-x="469" 
d="M359 0h-357l9 43l370 394h-282l10 46h353l-9 -42l-373 -395h288zM325 556h-54l-68 144h38l61 -113l109 113h42z" />
    <glyph glyph-name="florin" unicode="&#x192;" horiz-adv-x="422" 
d="M37 -161h-59l94 421h-74v49h84l49 221q34 147 149 147q61 0 99 -38l-29 -40q-22 26 -61 26q-78 0 -101 -102l-48 -214h151v-49h-161z" />
    <glyph glyph-name="circumflex" unicode="&#x2c6;" horiz-adv-x="250" 
d="M319 556h-38l-62 113l-108 -113h-42l129 144h54z" />
    <glyph glyph-name="caron" unicode="&#x2c7;" horiz-adv-x="250" 
d="M223 556h-54l-68 144h38l61 -113l109 113h42z" />
    <glyph glyph-name="breve" unicode="&#x2d8;" horiz-adv-x="351" 
d="M441 654q-85 -88 -194 -88q-53 0 -94 23.5t-63 64.5l33 25q37 -75 130 -75t163 75z" />
    <glyph glyph-name="dotaccent" unicode="&#x2d9;" horiz-adv-x="85" 
d="M164 624q0 -17 -13 -29.5t-30 -12.5q-14 0 -24 9.5t-10 24.5q0 17 13 29.5t30 12.5q14 0 24 -10t10 -24z" />
    <glyph glyph-name="ring" unicode="&#x2da;" horiz-adv-x="191" 
d="M176 557q-38 0 -62.5 24.5t-24.5 62.5q0 42 31 73.5t74 31.5q38 0 62.5 -24.5t24.5 -62.5q0 -43 -31.5 -74t-73.5 -31zM177 589q29 0 50.5 21t21.5 49q0 26 -15.5 42t-40.5 16q-29 0 -50.5 -21t-21.5 -49q0 -26 15.5 -42t40.5 -16z" />
    <glyph glyph-name="ogonek" unicode="&#x2db;" horiz-adv-x="171" 
d="M63 -110l26 -18q-36 -58 -90 -58q-34 0 -55.5 18.5t-21.5 51.5q0 85 115 136l25 -20q-104 -45 -104 -110q0 -43 46 -43q35 0 59 43z" />
    <glyph glyph-name="tilde" unicode="&#x2dc;" horiz-adv-x="307" 
d="M292 554q-25 0 -41.5 16t-23 35t-20 35t-32.5 16q-46 0 -69 -96h-36q12 60 40.5 97t71.5 37q25 0 41.5 -16t23.5 -35t20 -35t32 -16q46 0 70 96h36q-13 -60 -41.5 -97t-71.5 -37z" />
    <glyph glyph-name="hungarumlaut" unicode="&#x2dd;" horiz-adv-x="291" 
d="M253 700l-147 -144h-39l129 144h57zM392 700l-147 -144h-39l129 144h57z" />
    <glyph glyph-name="pi" unicode="&#x3c0;" horiz-adv-x="535" 
d="M367 0h-55l100 452h-198l-99 -452h-55l100 452h-79l10 48h465l-10 -48h-80z" />
    <glyph glyph-name="endash" unicode="&#x2013;" horiz-adv-x="593" 
d="M557 218h-533l10 48h533z" />
    <glyph glyph-name="emdash" unicode="&#x2014;" horiz-adv-x="833" 
d="M797 218h-773l10 48h773z" />
    <glyph glyph-name="quoteleft" unicode="&#x2018;" horiz-adv-x="219" 
d="M116 531q0 41 30.5 82.5t72.5 63.5l24 -26q-28 -14 -49.5 -37.5t-28.5 -46.5h7q14 0 24 -10.5t10 -26.5q0 -19 -14 -33t-33 -14t-31 12.5t-12 35.5z" />
    <glyph glyph-name="quoteright" unicode="&#x2019;" horiz-adv-x="219" 
d="M242 629q0 -41 -30.5 -82.5t-72.5 -63.5l-24 26q28 14 49.5 37.5t28.5 46.5h-7q-14 0 -24 10.5t-10 25.5q0 20 14 34t33 14t31 -12.5t12 -35.5z" />
    <glyph glyph-name="quotesinglbase" unicode="&#x201a;" horiz-adv-x="219" 
d="M109 30q0 -41 -30.5 -83t-72.5 -63l-24 26q28 14 49.5 37.5t28.5 46.5h-7q-14 0 -24 10.5t-10 25.5q0 20 14 34t33 14t31 -12.5t12 -35.5z" />
    <glyph glyph-name="quotedblleft" unicode="&#x201c;" horiz-adv-x="361" 
d="M267 531q0 41 30 82.5t72 63.5l24 -26q-28 -15 -49.5 -38t-28.5 -46h7q14 0 24.5 -10.5t10.5 -26.5q0 -19 -14.5 -33t-33.5 -14t-30.5 12.5t-11.5 35.5zM126 531q0 41 30 82.5t72 63.5l25 -26q-28 -14 -49.5 -37.5t-28.5 -46.5h7q14 0 24 -10.5t10 -26.5q0 -19 -14.5 -33
t-33.5 -14q-18 0 -30 12.5t-12 35.5z" />
    <glyph glyph-name="quotedblright" unicode="&#x201d;" horiz-adv-x="361" 
d="M242 629q0 -41 -30.5 -82.5t-72.5 -63.5l-24 26q28 14 49.5 37.5t28.5 46.5h-7q-14 0 -24 10.5t-10 25.5q0 20 14 34t33 14t31 -12.5t12 -35.5zM382 629q0 -41 -30 -82.5t-72 -63.5l-24 26q28 14 49.5 37.5t28.5 46.5h-7q-14 0 -24 10.5t-10 25.5q0 20 14 34t33 14
t30.5 -12.5t11.5 -35.5z" />
    <glyph glyph-name="quotedblbase" unicode="&#x201e;" horiz-adv-x="361" 
d="M109 30q0 -41 -30.5 -83t-72.5 -63l-24 26q28 14 49.5 37.5t28.5 46.5h-7q-14 0 -24 10.5t-10 25.5q0 20 14 34t33 14t31 -12.5t12 -35.5zM249 30q0 -41 -30.5 -83t-71.5 -63l-24 26q28 15 49.5 38t28.5 46h-7q-14 0 -24.5 10.5t-10.5 25.5q0 20 14.5 34t33.5 14
t30.5 -12.5t11.5 -35.5z" />
    <glyph glyph-name="dagger" unicode="&#x2020;" horiz-adv-x="257" 
d="M297 535l-88 4l-43 -212h-39l51 212l-90 -4l8 35l88 -3l21 110h39l-29 -110l90 3z" />
    <glyph glyph-name="daggerdbl" unicode="&#x2021;" horiz-adv-x="257" 
d="M305 570l-8 -35l-88 4l-49 -221l90 4l-8 -35l-88 3l-21 -110h-39l29 110l-90 -3l8 35l88 -4l49 221l-90 -4l8 35l88 -3l21 110h39l-29 -110z" />
    <glyph glyph-name="bullet" unicode="&#x2022;" horiz-adv-x="358" 
d="M283 252q0 -45 -34.5 -78.5t-80.5 -33.5q-40 0 -66.5 26.5t-26.5 66.5q0 45 34.5 78.5t80.5 33.5q40 0 66.5 -26.5t26.5 -66.5z" />
    <glyph glyph-name="ellipsis" unicode="&#x2026;" horiz-adv-x="657" 
d="M59 -10q-17 0 -28.5 12t-11.5 29q0 19 14 33t34 14q17 0 28.5 -11.5t11.5 -28.5q0 -20 -14 -34t-34 -14zM278 -10q-17 0 -28.5 12t-11.5 29q0 19 14 33t34 14q17 0 28.5 -11.5t11.5 -28.5q0 -20 -14 -34t-34 -14zM497 -10q-17 0 -28.5 12t-11.5 29q0 19 14 33t34 14
q17 0 28.5 -11.5t11.5 -28.5q0 -20 -14 -34t-34 -14z" />
    <glyph glyph-name="perthousand" unicode="&#x2030;" horiz-adv-x="1067" 
d="M119 0h-45l573 667h46zM494 -12q-62 0 -103.5 37.5t-41.5 96.5q0 84 52 139t123 55q62 0 103.5 -37.5t41.5 -96.5q0 -84 -52 -139t-123 -55zM495 27q51 0 89 43.5t38 107.5q0 43 -28 71t-71 28q-51 0 -89.5 -44t-38.5 -107q0 -43 28.5 -71t71.5 -28zM234 349
q-61 0 -102.5 37.5t-41.5 96.5q0 85 52 139.5t123 54.5q61 0 102.5 -37.5t41.5 -95.5q0 -85 -52 -140t-123 -55zM236 388q51 0 89 44t38 107q0 43 -28.5 71t-71.5 28q-51 0 -89 -43.5t-38 -107.5q0 -43 28.5 -71t71.5 -28zM841 -12q-62 0 -103.5 37.5t-41.5 96.5
q0 84 52 139t123 55q62 0 103.5 -37.5t41.5 -96.5q0 -84 -52 -139t-123 -55zM842 27q51 0 89.5 43.5t38.5 107.5q0 43 -28.5 71t-71.5 28q-51 0 -89 -44t-38 -107q0 -43 28 -71t71 -28z" />
    <glyph glyph-name="guilsinglleft" unicode="&#x2039;" horiz-adv-x="277" 
d="M202 63h-53l-120 180l200 177h61l-204 -182z" />
    <glyph glyph-name="guilsinglright" unicode="&#x203a;" horiz-adv-x="277" 
d="M77 420h53l120 -180l-200 -177h-61l204 182z" />
    <glyph glyph-name="fraction" unicode="&#x2044;" horiz-adv-x="130" 
d="M394 667l-574 -667h-45l573 667h46z" />
    <glyph glyph-name="Euro" unicode="&#x20ac;" horiz-adv-x="690" 
d="M389 -12q-123 0 -205 69.5t-93 184.5h-57l9 41h46q0 50 13 102h-36l9 41h39q42 115 138 183.5t207 68.5q88 0 156 -37t106 -106l-55 -25q-64 116 -211 116q-86 0 -162.5 -54t-114.5 -146h339l-10 -41h-343q-13 -52 -13 -102h334l-9 -41h-323q11 -93 75 -147.5t164 -54.5
q101 0 189 76l40 -34q-97 -94 -232 -94z" />
    <glyph glyph-name="trademark" unicode="&#x2122;" horiz-adv-x="454" 
d="M464 447h-28l40 182l-115 -182h-8l-35 182l-40 -182h-28l48 220h43l29 -160l99 160h43zM257 641h-62l-43 -194h-28l43 194h-62l5 26h152z" />
    <glyph glyph-name="Omega" unicode="&#x2126;" horiz-adv-x="764" 
d="M23 0l11 52h157q-120 91 -120 237q0 101 45 189.5t130.5 144t190.5 55.5q134 0 216 -78t82 -212q0 -113 -60 -199t-161 -137h131l-11 -52h-227l11 52q107 22 180.5 115t73.5 219q0 109 -65 174t-171 65q-132 0 -219.5 -101.5t-87.5 -244.5q0 -81 37 -138t95 -89l-11 -52
h-227z" />
    <glyph glyph-name="partialdiff" unicode="&#x2202;" 
d="M261 -12q-95 0 -155.5 58t-60.5 147q0 122 74.5 208t179.5 86q51 0 97.5 -25.5t70.5 -79.5q-57 152 -220 272l39 40q109 -79 173.5 -182t64.5 -211q0 -131 -75 -222t-188 -91zM262 35q83 0 143 72.5t60 172.5q0 64 -41 112t-120 48q-83 0 -142.5 -69.5t-59.5 -170.5
q0 -73 42.5 -119t117.5 -46z" />
    <glyph glyph-name="Delta" unicode="&#x2206;" horiz-adv-x="647" 
d="M578 0h-617l420 667h71zM508 52l-102 554l-347 -554h449z" />
    <glyph glyph-name="product" unicode="&#x220f;" horiz-adv-x="673" 
d="M453 -90h-58l156 705h-265l-156 -705h-58l156 705h-111l11 52h603l-11 -52h-111z" />
    <glyph glyph-name="summation" unicode="&#x2211;" 
d="M207 615l175 -322l-314 -331h382l-11 -52h-455l11 52l318 336l-172 317l11 52h454l-11 -52h-388z" />
    <glyph glyph-name="minus" unicode="&#x2212;" horiz-adv-x="496" 
d="M482 313h-438l9 42h439z" />
    <glyph glyph-name="radical" unicode="&#x221a;" horiz-adv-x="744" 
d="M382 0h-46l-64 338l-179 -67l-6 39l219 81l64 -335l385 611h47z" />
    <glyph glyph-name="infinity" unicode="&#x221e;" horiz-adv-x="642" 
d="M177 175q-61 0 -96 35.5t-35 95.5q0 76 47.5 132.5t120.5 56.5q51 0 87 -31.5t49 -83.5q69 115 153 115q61 0 96 -35.5t35 -95.5q0 -76 -47.5 -132.5t-121.5 -56.5q-50 0 -86 31.5t-49 82.5q-69 -114 -153 -114zM468 217q55 0 89 42.5t34 102.5q0 40 -25 65.5t-67 25.5
q-43 0 -75 -32t-64 -88q8 -56 36 -86t72 -30zM181 217q75 0 140 121q-8 55 -36.5 85t-72.5 30q-55 0 -89 -42t-34 -102q0 -40 25.5 -66t66.5 -26z" />
    <glyph glyph-name="integral" unicode="&#x222b;" horiz-adv-x="337" 
d="M2 -100h-61l9 43h62q67 0 85 81l138 620q27 124 139 124h62l-10 -43h-62q-67 0 -85 -81l-138 -620q-28 -124 -139 -124z" />
    <glyph glyph-name="approxequal" unicode="&#x2248;" horiz-adv-x="496" 
d="M22 216l11 47q39 -35 102 -35q47 0 111 31t120 31q62 0 105 -29l-11 -47q-40 34 -103 34q-47 0 -111 -30.5t-120 -30.5q-61 0 -104 29zM65 407l10 47q41 -34 102 -34q47 0 111 30.5t121 30.5q60 0 104 -28l-10 -48q-41 35 -103 35q-47 0 -111 -30.5t-121 -30.5
q-63 0 -103 28z" />
    <glyph glyph-name="notequal" unicode="&#x2260;" horiz-adv-x="496" 
d="M85 93h-48l105 123h-120l10 41h145l133 154h-244l9 42h271l104 121h49l-104 -121h118l-9 -42h-145l-133 -154h244l-9 -41h-270z" />
    <glyph glyph-name="lessequal" unicode="&#x2264;" horiz-adv-x="496" 
d="M433 95l-388 225l9 38l488 227l-12 -52l-429 -197l342 -195zM413 0h-438l9 41h438z" />
    <glyph glyph-name="greaterequal" unicode="&#x2265;" horiz-adv-x="496" 
d="M484 320l-489 -225l12 51l430 195l-343 197l10 47l388 -227zM413 0h-439l9 41h438z" />
    <glyph glyph-name="lozenge" unicode="&#x25ca;" horiz-adv-x="375" 
d="M144 0h-21l-84 334l231 333h21l85 -333zM142 45l197 293l-67 284l-196 -292z" />
    <glyph glyph-name="apple" unicode="&#xf8ff;" horiz-adv-x="667" 
d="M210 153l17 79h-86q-36 0 -61.5 -26.5t-25.5 -62.5q0 -29 19 -48.5t47 -19.5q36 0 59 20.5t31 57.5zM271 435l16 69q2 8 2 21q0 31 -19 49t-50 18q-36 0 -61.5 -25t-25.5 -61q0 -32 20.5 -51.5t52.5 -19.5h65zM269 265h137l31 137h-137zM573 161q0 32 -20.5 51.5
t-52.5 19.5h-66l-15 -69q-2 -8 -2 -21q0 -31 19 -49t50 -18q36 0 61.5 25t25.5 61zM652 524q0 29 -19 48.5t-47 19.5q-72 0 -90 -78l-17 -79h86q36 0 61.5 26.5t25.5 62.5zM607 160q0 -48 -39 -83t-89 -35q-42 0 -70 28t-28 70q0 14 3 29l15 63h-137l-20 -87
q-11 -46 -45 -74.5t-80 -28.5q-41 0 -70 28t-29 69q0 49 38 87.5t87 38.5h91l31 137h-66q-45 0 -72.5 29t-27.5 76q0 48 38.5 83t88.5 35q42 0 70 -28t28 -70q0 -14 -3 -29l-14 -63h137l19 87q11 46 45 74.5t80 28.5q42 0 71 -28t29 -69q0 -50 -38 -88t-87 -38h-91l-31 -137
h63q46 0 74.5 -29t28.5 -76z" />
    <hkern u1="W" u2="&#x152;" k="9" />
    <hkern u1="W" u2="&#xd8;" k="9" />
    <hkern u1="W" u2="&#xd6;" k="9" />
    <hkern u1="W" u2="&#xd5;" k="9" />
    <hkern u1="W" u2="&#xd4;" k="9" />
    <hkern u1="W" u2="&#xd3;" k="9" />
    <hkern u1="W" u2="&#xd2;" k="9" />
    <hkern u1="W" u2="&#xc7;" k="9" />
    <hkern u1="W" u2="Q" k="9" />
    <hkern u1="W" u2="G" k="9" />
    <hkern u1="&#x2019;" u2="&#x26;" k="-9" />
    <hkern u1="&#x201a;" u2="&#x153;" k="9" />
    <hkern u1="&#x201a;" u2="&#xf8;" k="9" />
    <hkern u1="&#x201a;" u2="&#xf0;" k="9" />
    <hkern u1="&#x201a;" u2="&#xe7;" k="9" />
    <hkern u1="&#x201a;" u2="q" k="9" />
    <hkern u1="&#x201a;" u2="o" k="9" />
    <hkern u1="&#x201a;" u2="g" k="9" />
    <hkern u1="&#x201a;" u2="e" k="9" />
    <hkern u1="&#x201a;" u2="d" k="9" />
    <hkern u1="&#x201a;" u2="c" k="9" />
    <hkern g1="A,Agrave,Aacute,Acircumflex,Atilde,Adieresis,Aring,Delta"
	g2="asterisk"
	k="106" />
    <hkern g1="A,Agrave,Aacute,Acircumflex,Atilde,Adieresis,Aring,Delta"
	g2="question"
	k="79" />
    <hkern g1="A,Agrave,Aacute,Acircumflex,Atilde,Adieresis,Aring,Delta"
	g2="C,G,O,Q,Ccedilla,Ograve,Oacute,Ocircumflex,Otilde,Odieresis,Oslash,OE"
	k="49" />
    <hkern g1="A,Agrave,Aacute,Acircumflex,Atilde,Adieresis,Aring,Delta"
	g2="S,Scaron"
	k="19" />
    <hkern g1="A,Agrave,Aacute,Acircumflex,Atilde,Adieresis,Aring,Delta"
	g2="T"
	k="79" />
    <hkern g1="A,Agrave,Aacute,Acircumflex,Atilde,Adieresis,Aring,Delta"
	g2="U,Ugrave,Uacute,Ucircumflex,Udieresis"
	k="33" />
    <hkern g1="A,Agrave,Aacute,Acircumflex,Atilde,Adieresis,Aring,Delta"
	g2="V"
	k="67" />
    <hkern g1="A,Agrave,Aacute,Acircumflex,Atilde,Adieresis,Aring,Delta"
	g2="W"
	k="58" />
    <hkern g1="A,Agrave,Aacute,Acircumflex,Atilde,Adieresis,Aring,Delta"
	g2="Y,Yacute,Ydieresis"
	k="72" />
    <hkern g1="A,Agrave,Aacute,Acircumflex,Atilde,Adieresis,Aring,Delta"
	g2="u"
	k="11" />
    <hkern g1="A,Agrave,Aacute,Acircumflex,Atilde,Adieresis,Aring,Delta"
	g2="v"
	k="20" />
    <hkern g1="A,Agrave,Aacute,Acircumflex,Atilde,Adieresis,Aring,Delta"
	g2="w"
	k="19" />
    <hkern g1="A,Agrave,Aacute,Acircumflex,Atilde,Adieresis,Aring,Delta"
	g2="dagger"
	k="99" />
    <hkern g1="A,Agrave,Aacute,Acircumflex,Atilde,Adieresis,Aring,Delta"
	g2="quotedbl,quotesingle,registered,quoteleft,quoteright,quotedblleft,quotedblright,trademark"
	k="99" />
    <hkern g1="A,Agrave,Aacute,Acircumflex,Atilde,Adieresis,Aring,Delta"
	g2="daggerdbl"
	k="39" />
    <hkern g1="A,Agrave,Aacute,Acircumflex,Atilde,Adieresis,Aring,Delta"
	g2="y,yacute,ydieresis"
	k="11" />
    <hkern g1="B"
	g2="T"
	k="19" />
    <hkern g1="B"
	g2="V"
	k="12" />
    <hkern g1="B"
	g2="W"
	k="10" />
    <hkern g1="B"
	g2="Y,Yacute,Ydieresis"
	k="30" />
    <hkern g1="B"
	g2="quotedbl,quotesingle,registered,quoteleft,quoteright,quotedblleft,quotedblright,trademark"
	k="10" />
    <hkern g1="C,Ccedilla"
	g2="V"
	k="11" />
    <hkern g1="C,Ccedilla"
	g2="W"
	k="10" />
    <hkern g1="C,Ccedilla"
	g2="Y,Yacute,Ydieresis"
	k="23" />
    <hkern g1="D,O,Q,Eth,Ograve,Oacute,Ocircumflex,Otilde,Odieresis,Oslash,Thorn"
	g2="question"
	k="13" />
    <hkern g1="D,O,Q,Eth,Ograve,Oacute,Ocircumflex,Otilde,Odieresis,Oslash,Thorn"
	g2="T"
	k="39" />
    <hkern g1="D,O,Q,Eth,Ograve,Oacute,Ocircumflex,Otilde,Odieresis,Oslash,Thorn"
	g2="V"
	k="32" />
    <hkern g1="D,O,Q,Eth,Ograve,Oacute,Ocircumflex,Otilde,Odieresis,Oslash,Thorn"
	g2="W"
	k="31" />
    <hkern g1="D,O,Q,Eth,Ograve,Oacute,Ocircumflex,Otilde,Odieresis,Oslash,Thorn"
	g2="Y,Yacute,Ydieresis"
	k="53" />
    <hkern g1="D,O,Q,Eth,Ograve,Oacute,Ocircumflex,Otilde,Odieresis,Oslash,Thorn"
	g2="quotedbl,quotesingle,registered,quoteleft,quoteright,quotedblleft,quotedblright,trademark"
	k="10" />
    <hkern g1="D,O,Q,Eth,Ograve,Oacute,Ocircumflex,Otilde,Odieresis,Oslash,Thorn"
	g2="comma,period,quotesinglbase,quotedblbase,ellipsis"
	k="29" />
    <hkern g1="D,O,Q,Eth,Ograve,Oacute,Ocircumflex,Otilde,Odieresis,Oslash,Thorn"
	g2="A,Agrave,Aacute,Acircumflex,Atilde,Adieresis,Aring,AE,Delta"
	k="27" />
    <hkern g1="D,O,Q,Eth,Ograve,Oacute,Ocircumflex,Otilde,Odieresis,Oslash,Thorn"
	g2="J"
	k="20" />
    <hkern g1="D,O,Q,Eth,Ograve,Oacute,Ocircumflex,Otilde,Odieresis,Oslash,Thorn"
	g2="X"
	k="30" />
    <hkern g1="D,O,Q,Eth,Ograve,Oacute,Ocircumflex,Otilde,Odieresis,Oslash,Thorn"
	g2="Z,Zcaron"
	k="19" />
    <hkern g1="F"
	g2="comma,period,quotesinglbase,quotedblbase,ellipsis"
	k="50" />
    <hkern g1="F"
	g2="A,Agrave,Aacute,Acircumflex,Atilde,Adieresis,Aring,AE,Delta"
	k="33" />
    <hkern g1="F"
	g2="J"
	k="55" />
    <hkern g1="G"
	g2="T"
	k="20" />
    <hkern g1="G"
	g2="V"
	k="22" />
    <hkern g1="G"
	g2="Y,Yacute,Ydieresis"
	k="25" />
    <hkern g1="K"
	g2="C,G,O,Q,Ccedilla,Ograve,Oacute,Ocircumflex,Otilde,Odieresis,Oslash,OE"
	k="57" />
    <hkern g1="K"
	g2="Y,Yacute,Ydieresis"
	k="26" />
    <hkern g1="K"
	g2="u"
	k="20" />
    <hkern g1="K"
	g2="v"
	k="60" />
    <hkern g1="K"
	g2="w"
	k="40" />
    <hkern g1="K"
	g2="y,yacute,ydieresis"
	k="20" />
    <hkern g1="K"
	g2="hyphen,periodcentered,endash,emdash"
	k="50" />
    <hkern g1="K"
	g2="c,d,e,g,o,q,ccedilla,eth,oslash,oe"
	k="37" />
    <hkern g1="K"
	g2="t"
	k="35" />
    <hkern g1="K"
	g2="x"
	k="23" />
    <hkern g1="K"
	g2="f,fi,fl"
	k="23" />
    <hkern g1="L,Lslash"
	g2="asterisk"
	k="177" />
    <hkern g1="L,Lslash"
	g2="question"
	k="117" />
    <hkern g1="L,Lslash"
	g2="C,G,O,Q,Ccedilla,Ograve,Oacute,Ocircumflex,Otilde,Odieresis,Oslash,OE"
	k="37" />
    <hkern g1="L,Lslash"
	g2="T"
	k="100" />
    <hkern g1="L,Lslash"
	g2="U,Ugrave,Uacute,Ucircumflex,Udieresis"
	k="29" />
    <hkern g1="L,Lslash"
	g2="V"
	k="90" />
    <hkern g1="L,Lslash"
	g2="W"
	k="63" />
    <hkern g1="L,Lslash"
	g2="Y,Yacute,Ydieresis"
	k="122" />
    <hkern g1="L,Lslash"
	g2="u"
	k="17" />
    <hkern g1="L,Lslash"
	g2="v"
	k="59" />
    <hkern g1="L,Lslash"
	g2="w"
	k="39" />
    <hkern g1="L,Lslash"
	g2="dagger"
	k="130" />
    <hkern g1="L,Lslash"
	g2="quotedbl,quotesingle,registered,quoteleft,quoteright,quotedblleft,quotedblright,trademark"
	k="116" />
    <hkern g1="L,Lslash"
	g2="daggerdbl"
	k="106" />
    <hkern g1="L,Lslash"
	g2="y,yacute,ydieresis"
	k="17" />
    <hkern g1="L,Lslash"
	g2="c,d,e,g,o,q,ccedilla,eth,oslash,oe"
	k="26" />
    <hkern g1="L,Lslash"
	g2="t"
	k="32" />
    <hkern g1="P"
	g2="Y,Yacute,Ydieresis"
	k="20" />
    <hkern g1="P"
	g2="comma,period,quotesinglbase,quotedblbase,ellipsis"
	k="97" />
    <hkern g1="P"
	g2="A,Agrave,Aacute,Acircumflex,Atilde,Adieresis,Aring,AE,Delta"
	k="79" />
    <hkern g1="P"
	g2="J"
	k="105" />
    <hkern g1="P"
	g2="hyphen,periodcentered,endash,emdash"
	k="37" />
    <hkern g1="P"
	g2="c,d,e,g,o,q,ccedilla,eth,oslash,oe"
	k="12" />
    <hkern g1="P"
	g2="ampersand"
	k="23" />
    <hkern g1="R"
	g2="T"
	k="10" />
    <hkern g1="R"
	g2="V"
	k="10" />
    <hkern g1="R"
	g2="Y,Yacute,Ydieresis"
	k="16" />
    <hkern g1="R"
	g2="c,d,e,g,o,q,ccedilla,eth,oslash,oe"
	k="30" />
    <hkern g1="S,Scaron"
	g2="T"
	k="13" />
    <hkern g1="S,Scaron"
	g2="V"
	k="11" />
    <hkern g1="S,Scaron"
	g2="W"
	k="10" />
    <hkern g1="S,Scaron"
	g2="Y,Yacute,Ydieresis"
	k="27" />
    <hkern g1="S,Scaron"
	g2="t"
	k="19" />
    <hkern g1="S,Scaron"
	g2="x"
	k="12" />
    <hkern g1="T"
	g2="C,G,O,Q,Ccedilla,Ograve,Oacute,Ocircumflex,Otilde,Odieresis,Oslash,OE"
	k="18" />
    <hkern g1="T"
	g2="u"
	k="93" />
    <hkern g1="T"
	g2="v"
	k="68" />
    <hkern g1="T"
	g2="w"
	k="68" />
    <hkern g1="T"
	g2="y,yacute,ydieresis"
	k="93" />
    <hkern g1="T"
	g2="comma,period,quotesinglbase,quotedblbase,ellipsis"
	k="92" />
    <hkern g1="T"
	g2="A,Agrave,Aacute,Acircumflex,Atilde,Adieresis,Aring,AE,Delta"
	k="59" />
    <hkern g1="T"
	g2="J"
	k="82" />
    <hkern g1="T"
	g2="hyphen,periodcentered,endash,emdash"
	k="60" />
    <hkern g1="T"
	g2="c,d,e,g,o,q,ccedilla,eth,oslash,oe"
	k="123" />
    <hkern g1="T"
	g2="x"
	k="78" />
    <hkern g1="T"
	g2="f,fi,fl"
	k="36" />
    <hkern g1="T"
	g2="ampersand"
	k="40" />
    <hkern g1="T"
	g2="colon,semicolon"
	k="50" />
    <hkern g1="T"
	g2="m,n,p,r,z"
	k="93" />
    <hkern g1="T"
	g2="s"
	k="96" />
    <hkern g1="J,U,Ugrave,Uacute,Ucircumflex,Udieresis"
	g2="comma,period,quotesinglbase,quotedblbase,ellipsis"
	k="30" />
    <hkern g1="J,U,Ugrave,Uacute,Ucircumflex,Udieresis"
	g2="A,Agrave,Aacute,Acircumflex,Atilde,Adieresis,Aring,AE,Delta"
	k="13" />
    <hkern g1="V"
	g2="S,Scaron"
	k="-11" />
    <hkern g1="V"
	g2="u"
	k="36" />
    <hkern g1="V"
	g2="v"
	k="12" />
    <hkern g1="V"
	g2="y,yacute,ydieresis"
	k="36" />
    <hkern g1="V"
	g2="comma,period,quotesinglbase,quotedblbase,ellipsis"
	k="90" />
    <hkern g1="V"
	g2="A,Agrave,Aacute,Acircumflex,Atilde,Adieresis,Aring,AE,Delta"
	k="47" />
    <hkern g1="V"
	g2="J"
	k="92" />
    <hkern g1="V"
	g2="hyphen,periodcentered,endash,emdash"
	k="52" />
    <hkern g1="V"
	g2="c,d,e,g,o,q,ccedilla,eth,oslash,oe"
	k="60" />
    <hkern g1="V"
	g2="t"
	k="12" />
    <hkern g1="V"
	g2="x"
	k="22" />
    <hkern g1="V"
	g2="f,fi,fl"
	k="22" />
    <hkern g1="V"
	g2="m,n,p,r,z"
	k="36" />
    <hkern g1="V"
	g2="s"
	k="35" />
    <hkern g1="W"
	g2="S,Scaron"
	k="-10" />
    <hkern g1="W"
	g2="u"
	k="30" />
    <hkern g1="W"
	g2="y,yacute,ydieresis"
	k="30" />
    <hkern g1="W"
	g2="comma,period,quotesinglbase,quotedblbase,ellipsis"
	k="69" />
    <hkern g1="W"
	g2="A,Agrave,Aacute,Acircumflex,Atilde,Adieresis,Aring,AE,Delta"
	k="39" />
    <hkern g1="W"
	g2="J"
	k="29" />
    <hkern g1="W"
	g2="hyphen,periodcentered,endash,emdash"
	k="32" />
    <hkern g1="W"
	g2="c,d,e,g,o,q,ccedilla,eth,oslash,oe"
	k="40" />
    <hkern g1="W"
	g2="t"
	k="12" />
    <hkern g1="W"
	g2="x"
	k="22" />
    <hkern g1="W"
	g2="f,fi,fl"
	k="12" />
    <hkern g1="W"
	g2="ampersand"
	k="10" />
    <hkern g1="W"
	g2="m,n,p,r,z"
	k="30" />
    <hkern g1="W"
	g2="s"
	k="15" />
    <hkern g1="Y,Yacute,Ydieresis"
	g2="C,G,O,Q,Ccedilla,Ograve,Oacute,Ocircumflex,Otilde,Odieresis,Oslash,OE"
	k="27" />
    <hkern g1="Y,Yacute,Ydieresis"
	g2="u"
	k="90" />
    <hkern g1="Y,Yacute,Ydieresis"
	g2="v"
	k="60" />
    <hkern g1="Y,Yacute,Ydieresis"
	g2="w"
	k="60" />
    <hkern g1="Y,Yacute,Ydieresis"
	g2="y,yacute,ydieresis"
	k="90" />
    <hkern g1="Y,Yacute,Ydieresis"
	g2="comma,period,quotesinglbase,quotedblbase,ellipsis"
	k="90" />
    <hkern g1="Y,Yacute,Ydieresis"
	g2="A,Agrave,Aacute,Acircumflex,Atilde,Adieresis,Aring,AE,Delta"
	k="52" />
    <hkern g1="Y,Yacute,Ydieresis"
	g2="J"
	k="112" />
    <hkern g1="Y,Yacute,Ydieresis"
	g2="hyphen,periodcentered,endash,emdash"
	k="113" />
    <hkern g1="Y,Yacute,Ydieresis"
	g2="c,d,e,g,o,q,ccedilla,eth,oslash,oe"
	k="129" />
    <hkern g1="Y,Yacute,Ydieresis"
	g2="t"
	k="23" />
    <hkern g1="Y,Yacute,Ydieresis"
	g2="x"
	k="72" />
    <hkern g1="Y,Yacute,Ydieresis"
	g2="f,fi,fl"
	k="45" />
    <hkern g1="Y,Yacute,Ydieresis"
	g2="ampersand"
	k="41" />
    <hkern g1="Y,Yacute,Ydieresis"
	g2="colon,semicolon"
	k="55" />
    <hkern g1="Y,Yacute,Ydieresis"
	g2="m,n,p,r,z"
	k="90" />
    <hkern g1="Y,Yacute,Ydieresis"
	g2="s"
	k="100" />
    <hkern g1="Z,Zcaron"
	g2="C,G,O,Q,Ccedilla,Ograve,Oacute,Ocircumflex,Otilde,Odieresis,Oslash,OE"
	k="19" />
    <hkern g1="ampersand"
	g2="T"
	k="96" />
    <hkern g1="ampersand"
	g2="V"
	k="69" />
    <hkern g1="ampersand"
	g2="W"
	k="64" />
    <hkern g1="ampersand"
	g2="Y,Yacute,Ydieresis"
	k="115" />
    <hkern g1="ampersand"
	g2="quotedbl,quotesingle,registered,quoteleft,quoteright,quotedblleft,quotedblright,trademark"
	k="26" />
    <hkern g1="asterisk"
	g2="A,Agrave,Aacute,Acircumflex,Atilde,Adieresis,Aring,AE,Delta"
	k="106" />
    <hkern g1="asterisk"
	g2="J"
	k="113" />
    <hkern g1="b,o,p,oslash,thorn"
	g2="question"
	k="43" />
    <hkern g1="b,o,p,oslash,thorn"
	g2="T"
	k="123" />
    <hkern g1="b,o,p,oslash,thorn"
	g2="V"
	k="60" />
    <hkern g1="b,o,p,oslash,thorn"
	g2="W"
	k="40" />
    <hkern g1="b,o,p,oslash,thorn"
	g2="Y,Yacute,Ydieresis"
	k="127" />
    <hkern g1="b,o,p,oslash,thorn"
	g2="quotedbl,quotesingle,registered,quoteleft,quoteright,quotedblleft,quotedblright,trademark"
	k="10" />
    <hkern g1="b,o,p,oslash,thorn"
	g2="x"
	k="39" />
    <hkern g1="c,cent,ccedilla"
	g2="question"
	k="22" />
    <hkern g1="c,cent,ccedilla"
	g2="T"
	k="86" />
    <hkern g1="c,cent,ccedilla"
	g2="V"
	k="33" />
    <hkern g1="c,cent,ccedilla"
	g2="W"
	k="22" />
    <hkern g1="c,cent,ccedilla"
	g2="Y,Yacute,Ydieresis"
	k="62" />
    <hkern g1="colon,semicolon"
	g2="T"
	k="50" />
    <hkern g1="colon,semicolon"
	g2="Y,Yacute,Ydieresis"
	k="55" />
    <hkern g1="e,ae,oe"
	g2="asterisk"
	k="19" />
    <hkern g1="e,ae,oe"
	g2="question"
	k="33" />
    <hkern g1="e,ae,oe"
	g2="T"
	k="106" />
    <hkern g1="e,ae,oe"
	g2="V"
	k="52" />
    <hkern g1="e,ae,oe"
	g2="W"
	k="40" />
    <hkern g1="e,ae,oe"
	g2="Y,Yacute,Ydieresis"
	k="110" />
    <hkern g1="f"
	g2="asterisk"
	k="-69" />
    <hkern g1="f"
	g2="question"
	k="-59" />
    <hkern g1="f"
	g2="S,Scaron"
	k="-22" />
    <hkern g1="f"
	g2="T"
	k="-40" />
    <hkern g1="f"
	g2="U,Ugrave,Uacute,Ucircumflex,Udieresis"
	k="-40" />
    <hkern g1="f"
	g2="V"
	k="-62" />
    <hkern g1="f"
	g2="W"
	k="-62" />
    <hkern g1="f"
	g2="Y,Yacute,Ydieresis"
	k="-53" />
    <hkern g1="f"
	g2="quotedbl,quotesingle,registered,quoteleft,quoteright,quotedblleft,quotedblright,trademark"
	k="-69" />
    <hkern g1="f"
	g2="comma,period,quotesinglbase,quotedblbase,ellipsis"
	k="42" />
    <hkern g1="f"
	g2="X"
	k="-40" />
    <hkern g1="f"
	g2="Z,Zcaron"
	k="-40" />
    <hkern g1="f"
	g2="exclam,B,D,E,F,H,I,K,L,M,N,P,R,Egrave,Eacute,Ecircumflex,Edieresis,Igrave,Iacute,Icircumflex,Idieresis,Eth,Ntilde,Lslash"
	k="-40" />
    <hkern g1="f"
	g2="parenright,bracketright,braceright"
	k="-77" />
    <hkern g1="g,q"
	g2="question"
	k="22" />
    <hkern g1="g,q"
	g2="T"
	k="93" />
    <hkern g1="g,q"
	g2="V"
	k="36" />
    <hkern g1="g,q"
	g2="W"
	k="30" />
    <hkern g1="g,q"
	g2="Y,Yacute,Ydieresis"
	k="90" />
    <hkern g1="g,q"
	g2="j"
	k="-43" />
    <hkern g1="hyphen,periodcentered,endash,emdash"
	g2="V"
	k="52" />
    <hkern g1="hyphen,periodcentered,endash,emdash"
	g2="W"
	k="32" />
    <hkern g1="hyphen,periodcentered,endash,emdash"
	g2="Y,Yacute,Ydieresis"
	k="105" />
    <hkern g1="hyphen,periodcentered,endash,emdash"
	g2="X"
	k="42" />
    <hkern g1="k"
	g2="T"
	k="80" />
    <hkern g1="k"
	g2="V"
	k="22" />
    <hkern g1="k"
	g2="W"
	k="22" />
    <hkern g1="k"
	g2="Y,Yacute,Ydieresis"
	k="63" />
    <hkern g1="k"
	g2="hyphen,periodcentered,endash,emdash"
	k="29" />
    <hkern g1="k"
	g2="bullet"
	k="29" />
    <hkern g1="comma,period,quotesinglbase,quotedblbase,ellipsis"
	g2="T"
	k="92" />
    <hkern g1="comma,period,quotesinglbase,quotedblbase,ellipsis"
	g2="U,Ugrave,Uacute,Ucircumflex,Udieresis"
	k="30" />
    <hkern g1="comma,period,quotesinglbase,quotedblbase,ellipsis"
	g2="V"
	k="89" />
    <hkern g1="comma,period,quotesinglbase,quotedblbase,ellipsis"
	g2="W"
	k="69" />
    <hkern g1="comma,period,quotesinglbase,quotedblbase,ellipsis"
	g2="Y,Yacute,Ydieresis"
	k="90" />
    <hkern g1="comma,period,quotesinglbase,quotedblbase,ellipsis"
	g2="v"
	k="69" />
    <hkern g1="comma,period,quotesinglbase,quotedblbase,ellipsis"
	g2="w"
	k="47" />
    <hkern g1="comma,period,quotesinglbase,quotedblbase,ellipsis"
	g2="quotedbl,quotesingle,registered,quoteleft,quoteright,quotedblleft,quotedblright,trademark"
	k="73" />
    <hkern g1="comma,period,quotesinglbase,quotedblbase,ellipsis"
	g2="t"
	k="22" />
    <hkern g1="comma,period,quotesinglbase,quotedblbase,ellipsis"
	g2="f,fi,fl"
	k="22" />
    <hkern g1="comma,period,quotesinglbase,quotedblbase,ellipsis"
	g2="j"
	k="-40" />
    <hkern g1="comma,period,quotesinglbase,quotedblbase,ellipsis"
	g2="zero,six"
	k="36" />
    <hkern g1="comma,period,quotesinglbase,quotedblbase,ellipsis"
	g2="one"
	k="69" />
    <hkern g1="comma,period,quotesinglbase,quotedblbase,ellipsis"
	g2="seven"
	k="63" />
    <hkern g1="questiondown"
	g2="j"
	k="-160" />
    <hkern g1="quotedbl,quotesingle,quoteleft,quoteright,quotedblleft,quotedblright"
	g2="comma,period,quotesinglbase,quotedblbase,ellipsis"
	k="73" />
    <hkern g1="quotedbl,quotesingle,quoteleft,quoteright,quotedblleft,quotedblright"
	g2="A,Agrave,Aacute,Acircumflex,Atilde,Adieresis,Aring,AE,Delta"
	k="107" />
    <hkern g1="quotedbl,quotesingle,quoteleft,quoteright,quotedblleft,quotedblright"
	g2="J"
	k="86" />
    <hkern g1="quotedbl,quotesingle,quoteleft,quoteright,quotedblleft,quotedblright"
	g2="s"
	k="30" />
    <hkern g1="r"
	g2="T"
	k="54" />
    <hkern g1="r"
	g2="V"
	k="22" />
    <hkern g1="r"
	g2="Y,Yacute,Ydieresis"
	k="50" />
    <hkern g1="r"
	g2="comma,period,quotesinglbase,quotedblbase,ellipsis"
	k="82" />
    <hkern g1="s"
	g2="question"
	k="42" />
    <hkern g1="s"
	g2="T"
	k="94" />
    <hkern g1="s"
	g2="V"
	k="42" />
    <hkern g1="s"
	g2="W"
	k="35" />
    <hkern g1="s"
	g2="Y,Yacute,Ydieresis"
	k="92" />
    <hkern g1="s"
	g2="quotedbl,quotesingle,registered,quoteleft,quoteright,quotedblleft,quotedblright,trademark"
	k="20" />
    <hkern g1="t"
	g2="T"
	k="61" />
    <hkern g1="t"
	g2="V"
	k="23" />
    <hkern g1="t"
	g2="W"
	k="12" />
    <hkern g1="t"
	g2="Y,Yacute,Ydieresis"
	k="32" />
    <hkern g1="u,z"
	g2="question"
	k="22" />
    <hkern g1="u,z"
	g2="T"
	k="93" />
    <hkern g1="u,z"
	g2="V"
	k="36" />
    <hkern g1="u,z"
	g2="W"
	k="30" />
    <hkern g1="u,z"
	g2="Y,Yacute,Ydieresis"
	k="90" />
    <hkern g1="v"
	g2="T"
	k="68" />
    <hkern g1="v"
	g2="V"
	k="12" />
    <hkern g1="v"
	g2="Y,Yacute,Ydieresis"
	k="60" />
    <hkern g1="v"
	g2="comma,period,quotesinglbase,quotedblbase,ellipsis"
	k="69" />
    <hkern g1="v"
	g2="A,Agrave,Aacute,Acircumflex,Atilde,Adieresis,Aring,AE,Delta"
	k="20" />
    <hkern g1="v"
	g2="X"
	k="39" />
    <hkern g1="w"
	g2="T"
	k="68" />
    <hkern g1="w"
	g2="Y,Yacute,Ydieresis"
	k="60" />
    <hkern g1="w"
	g2="comma,period,quotesinglbase,quotedblbase,ellipsis"
	k="47" />
    <hkern g1="w"
	g2="A,Agrave,Aacute,Acircumflex,Atilde,Adieresis,Aring,AE,Delta"
	k="19" />
    <hkern g1="w"
	g2="X"
	k="47" />
    <hkern g1="y,yacute,ydieresis"
	g2="question"
	k="22" />
    <hkern g1="y,yacute,ydieresis"
	g2="T"
	k="93" />
    <hkern g1="y,yacute,ydieresis"
	g2="V"
	k="36" />
    <hkern g1="y,yacute,ydieresis"
	g2="W"
	k="30" />
    <hkern g1="y,yacute,ydieresis"
	g2="Y,Yacute,Ydieresis"
	k="90" />
    <hkern g1="y,yacute,ydieresis"
	g2="j"
	k="-43" />
    <hkern g1="X"
	g2="C,G,O,Q,Ccedilla,Ograve,Oacute,Ocircumflex,Otilde,Odieresis,Oslash,OE"
	k="30" />
    <hkern g1="X"
	g2="v"
	k="39" />
    <hkern g1="X"
	g2="w"
	k="47" />
    <hkern g1="X"
	g2="hyphen,periodcentered,endash,emdash"
	k="42" />
    <hkern g1="X"
	g2="t"
	k="30" />
    <hkern g1="X"
	g2="f,fi,fl"
	k="30" />
    <hkern g1="zero,nine"
	g2="comma,period,quotesinglbase,quotedblbase,ellipsis"
	k="36" />
    <hkern g1="seven"
	g2="comma,period,quotesinglbase,quotedblbase,ellipsis"
	k="99" />
    <hkern g1="x"
	g2="T"
	k="78" />
    <hkern g1="x"
	g2="V"
	k="22" />
    <hkern g1="x"
	g2="W"
	k="22" />
    <hkern g1="x"
	g2="Y,Yacute,Ydieresis"
	k="72" />
    <hkern g1="x"
	g2="c,d,e,g,o,q,ccedilla,eth,oslash,oe"
	k="39" />
    <hkern g1="parenleft,bracketleft,braceleft"
	g2="j"
	k="-110" />
  </font>
</defs></svg>
