<?xml version="1.0" standalone="no"?>
<!DOCTYPE svg PUBLIC "-//W3C//DTD SVG 1.1//EN" "http://www.w3.org/Graphics/SVG/1.1/DTD/svg11.dtd" >
<svg xmlns="http://www.w3.org/2000/svg" xmlns:xlink="http://www.w3.org/1999/xlink" version="1.1">
<metadata>
Created by FontForge 20170731 at Wed Oct  6 21:41:04 2010
 By Aleksey,,,
Copyright (c) Mark Simonson, 2005. All rights reserved.
</metadata>
<defs>
<font id="ProximaNovaAExCn-Semibold" horiz-adv-x="402" >
  <font-face 
    font-family="Proxima Nova Alt ExCn Lt"
    font-weight="600"
    font-stretch="normal"
    units-per-em="1000"
    panose-1="2 0 5 6 3 0 0 2 0 4"
    ascent="800"
    descent="-200"
    x-height="483"
    cap-height="667"
    bbox="-99 -199 831 872"
    underline-thickness="20"
    underline-position="-173"
    unicode-range="U+000D-FB02"
  />
<missing-glyph horiz-adv-x="464" 
d="M408 -90h-351v842h351v-842zM376 -60v782h-288v-782h288z" />
    <glyph glyph-name="fi" unicode="fi" horiz-adv-x="433" 
d="M159 0h-94v401h-46v82h46v63q0 62 29.5 96.5t79.5 34.5q36 0 61 -14l-18 -76q-6 7 -20 7q-17 0 -27.5 -13t-10.5 -35v-63h63v-82h-63v-401zM336 546q-24 0 -42 17.5t-18 41.5q0 25 18 42.5t42 17.5q25 0 42.5 -17.5t17.5 -42.5t-17.5 -42t-42.5 -17zM383 0h-94v483h94
v-483z" />
    <glyph glyph-name="fl" unicode="fl" horiz-adv-x="461" 
d="M159 0h-94v401h-46v82h46v63q0 62 29.5 96.5t79.5 34.5q36 0 61 -14l-18 -76q-6 7 -20 7q-17 0 -27.5 -13t-10.5 -35v-63h63v-82h-63v-401zM388 -12q-52 0 -75.5 28t-23.5 87v564h94v-547q0 -49 28 -49q18 0 30 15l22 -72q-26 -26 -75 -26z" />
    <glyph glyph-name=".notdef" horiz-adv-x="464" 
d="M408 -90h-351v842h351v-842zM376 -60v782h-288v-782h288z" />
    <glyph glyph-name=".null" horiz-adv-x="0" 
 />
    <glyph glyph-name="nonmarkingreturn" horiz-adv-x="333" 
 />
    <glyph glyph-name="NUL" horiz-adv-x="0" 
 />
    <glyph glyph-name="NUL" horiz-adv-x="0" 
 />
    <glyph glyph-name="CR" unicode="&#xd;" horiz-adv-x="0" 
 />
    <glyph glyph-name="space" unicode=" " horiz-adv-x="165" 
 />
    <glyph glyph-name="exclam" unicode="!" horiz-adv-x="239" 
d="M160 198h-80l-18 469h115zM119 -11q-26 0 -45 19.5t-19 45.5t19 45t45 19q27 0 46 -19t19 -45t-19 -45.5t-46 -19.5z" />
    <glyph glyph-name="quotedbl" unicode="&#x22;" horiz-adv-x="366" 
d="M126 399h-44q-32 208 -32 224q0 22 16 38t38 16t38 -16t16 -38zM284 399h-44q-32 208 -32 224q0 23 16 38.5t38 15.5t38 -15.5t16 -38.5z" />
    <glyph glyph-name="numbersign" unicode="#" horiz-adv-x="441" 
d="M248 0h-73l43 177h-67l-41 -177h-72l41 177h-63l14 63h64l43 187h-64l13 62h66l41 178h72l-41 -178h66l41 178h72l-41 -178h63l-13 -62h-65l-43 -187h66l-14 -63h-67zM231 240l44 187h-66l-42 -187h64z" />
    <glyph glyph-name="dollar" unicode="$" horiz-adv-x="369" 
d="M158 -100v89q-90 5 -142 63l47 82q41 -53 106 -53q33 0 54 24t21 62q0 36 -21.5 66t-52.5 53.5t-62 49.5t-52.5 68.5t-21.5 96.5q0 63 33 109.5t91 61.5v96h73v-91q63 -8 109 -50l-42 -80q-37 38 -89 38q-30 0 -49.5 -21.5t-19.5 -56.5q0 -31 21.5 -59t52.5 -52t62 -52
t52.5 -72t21.5 -99q0 -65 -32 -112.5t-87 -64.5v-96h-73z" />
    <glyph glyph-name="percent" unicode="%" horiz-adv-x="580" 
d="M150 347q-57 0 -91.5 46.5t-34.5 117.5q0 72 34.5 119t91.5 47t91.5 -47t34.5 -119q0 -71 -34.5 -117.5t-91.5 -46.5zM175 0h-46l276 667h47zM430 -12q-57 0 -91.5 46.5t-34.5 117.5q0 72 34.5 119t91.5 47t91.5 -47t34.5 -119q0 -71 -34.5 -117.5t-91.5 -46.5zM150 407
q28 0 44 29t16 75q0 47 -16 76t-44 29t-44 -29t-16 -76q0 -46 16 -75t44 -29zM430 49q28 0 44 28.5t16 74.5q0 47 -16 76.5t-44 29.5t-44 -29.5t-16 -76.5q0 -46 16 -74.5t44 -28.5z" />
    <glyph glyph-name="ampersand" unicode="&#x26;" horiz-adv-x="426" 
d="M426 0h-101q-5 8 -15 24.5t-15 24.5q-55 -61 -123 -61q-62 0 -101.5 48.5t-39.5 132.5q0 68 26 114t72 86q-36 88 -36 144q0 73 34 118.5t88 45.5q48 0 82 -39t34 -97q0 -34 -8 -61.5t-28 -53t-31.5 -37.5t-40.5 -39q15 -34 38 -77q8 -15 35 -65q14 43 32 124l76 -34
q-24 -101 -60 -173q8 -13 82 -125zM190 64q34 0 66 52q-34 58 -52 95q-17 31 -40 78q-38 -54 -38 -115q0 -49 18 -79.5t46 -30.5zM177 513q0 -37 16 -87q57 55 57 112q0 33 -10 51t-25 18q-38 0 -38 -94z" />
    <glyph glyph-name="quotesingle" unicode="'" horiz-adv-x="208" 
d="M126 399h-44q-32 208 -32 224q0 22 16 38t38 16t38 -16t16 -38z" />
    <glyph glyph-name="parenleft" unicode="(" horiz-adv-x="237" 
d="M217 -169l-68 -30q-102 207 -102 442t102 442l68 -29q-67 -204 -67 -413t67 -412z" />
    <glyph glyph-name="parenright" unicode=")" horiz-adv-x="237" 
d="M87 -199l-67 30q67 203 67 412t-67 413l67 29q103 -206 103 -442t-103 -442z" />
    <glyph glyph-name="asterisk" unicode="*" horiz-adv-x="313" 
d="M182 381h-51l5 113l-95 -61l-26 45l100 51l-100 51l26 45l95 -61l-5 113h51l-5 -113l95 61l26 -45l-101 -51l101 -51l-26 -45l-95 61z" />
    <glyph glyph-name="plus" unicode="+" horiz-adv-x="381" 
d="M352 306h-128v-149h-67v149h-128v62h128v143h67v-143h128v-62z" />
    <glyph glyph-name="comma" unicode="," horiz-adv-x="241" 
d="M189 32q0 -48 -24.5 -91t-64.5 -71l-43 35q25 15 45 42t24 52q-4 -2 -15 -2q-24 0 -40 16.5t-16 41.5q0 26 18.5 44.5t44.5 18.5q30 0 50.5 -23t20.5 -63z" />
    <glyph glyph-name="hyphen" unicode="-" horiz-adv-x="239" 
d="M208 201h-178v82h178v-82z" />
    <glyph glyph-name="period" unicode="." horiz-adv-x="239" 
d="M120 -10q-26 0 -45.5 19t-19.5 45t19.5 45t45.5 19t45 -19t19 -45t-19 -45t-45 -19z" />
    <glyph glyph-name="slash" unicode="/" horiz-adv-x="216" 
d="M69 -20h-69l147 707h69z" />
    <glyph glyph-name="zero" unicode="0" horiz-adv-x="436" 
d="M218 -12q-64 0 -107 53.5t-59 127.5t-16 164t16 164t59 127t107 53q49 0 85.5 -30t57 -80.5t30.5 -109t10 -124.5t-9.5 -124.5t-30 -109.5t-57.5 -81t-86 -30zM218 81q46 0 60.5 65.5t14.5 186.5t-14.5 186t-60.5 65q-24 0 -40 -19.5t-23 -57.5t-9.5 -77.5t-2.5 -96.5
q0 -121 14.5 -186.5t60.5 -65.5z" />
    <glyph glyph-name="one" unicode="1" horiz-adv-x="324" 
d="M267 0h-104v531l-95 -101l-61 64l169 173h91v-667z" />
    <glyph glyph-name="two" unicode="2" horiz-adv-x="419" 
d="M382 0h-336v87q152 214 190 282.5t38 124.5q0 38 -20 64t-52 26q-64 0 -103 -78l-69 61q65 110 176 110q79 0 126.5 -50t47.5 -131q0 -66 -38.5 -144t-159.5 -260h200v-92z" />
    <glyph glyph-name="three" unicode="3" horiz-adv-x="418" 
d="M203 -12q-60 0 -106.5 30.5t-72.5 79.5l73 60q39 -77 101 -77q81 0 81 108q0 57 -25.5 81.5t-59.5 24.5q-30 0 -39 -2v95q8 -1 35 -1q38 0 60 24.5t22 71.5q0 101 -74 101q-63 0 -96 -70l-70 55q27 52 72 80t99 28q78 0 125 -45t47 -134q0 -53 -28 -97t-73 -56
q47 -10 78 -56t31 -107q0 -87 -47.5 -140.5t-132.5 -53.5z" />
    <glyph glyph-name="four" unicode="4" horiz-adv-x="403" 
d="M337 0h-104v158h-218v93l199 416h123v-417h51v-92h-51v-158zM233 250v292l-132 -292h132z" />
    <glyph glyph-name="five" unicode="5" horiz-adv-x="423" 
d="M208 -12q-63 0 -104.5 27.5t-71.5 82.5l71 60q35 -77 99 -77q37 0 59 37.5t22 89.5q0 127 -73 127q-48 0 -83 -58l-78 22v368h311v-92h-207v-203q32 54 94 54q65 0 104 -56t39 -160q0 -95 -49.5 -158.5t-132.5 -63.5z" />
    <glyph glyph-name="six" unicode="6" horiz-adv-x="421" 
d="M223 -12q-52 0 -89.5 28t-58 78t-30 109t-9.5 130q0 151 51.5 247.5t152.5 96.5q43 0 79.5 -21.5t57.5 -58.5l-57 -73q-26 60 -77 60q-35 0 -58.5 -36.5t-33 -87.5t-9.5 -111v-12q14 38 43 62.5t66 24.5q61 0 100.5 -56t39.5 -158q0 -94 -45.5 -158t-122.5 -64zM217 81
q35 0 51 36t16 89q0 128 -67 128q-48 0 -75 -86q5 -167 75 -167z" />
    <glyph glyph-name="seven" unicode="7" horiz-adv-x="364" 
d="M185 0h-111l157 575h-212v92h326v-72z" />
    <glyph glyph-name="eight" unicode="8" horiz-adv-x="419" 
d="M210 -12q-86 0 -131.5 46.5t-45.5 129.5q0 59 33 109.5t76 70.5q-41 18 -71 62t-30 102q0 82 48.5 125.5t120.5 43.5q71 0 120 -43.5t49 -125.5q0 -58 -30.5 -101.5t-70.5 -62.5q43 -20 76 -70t33 -109q0 -83 -46 -130t-131 -47zM210 379q10 5 22 15t27.5 37t15.5 59
q0 44 -16.5 69t-48.5 25q-66 0 -66 -94q0 -32 15.5 -59t28 -37.5t22.5 -14.5zM210 81q31 0 51.5 25.5t20.5 72.5q0 51 -27 87t-45 40q-18 -4 -45 -40t-27 -87q0 -47 19.5 -72.5t52.5 -25.5z" />
    <glyph glyph-name="nine" unicode="9" horiz-adv-x="421" 
d="M180 -11q-90 0 -136 80l57 73q26 -60 77 -60q33 0 56.5 35t34 87t10.5 113v12q-15 -38 -43.5 -62.5t-65.5 -24.5q-61 0 -100.5 55.5t-39.5 158.5q0 94 45.5 158t122.5 64q51 0 88.5 -28t58.5 -78t30.5 -109t9.5 -130q0 -151 -52 -247.5t-153 -96.5zM203 332q48 0 75 86
q-3 167 -73 167q-35 0 -52 -36t-17 -89q0 -68 19 -98t48 -30z" />
    <glyph glyph-name="colon" unicode=":" horiz-adv-x="238" 
d="M120 362q-26 0 -45.5 19t-19.5 45t19.5 45t45.5 19t45 -19t19 -45t-19 -45t-45 -19zM120 -10q-26 0 -45.5 19t-19.5 45t19.5 45t45.5 19t45 -19t19 -45t-19 -45t-45 -19z" />
    <glyph glyph-name="semicolon" unicode=";" horiz-adv-x="239" 
d="M120 362q-26 0 -45.5 19t-19.5 45t19.5 45t45.5 19t45 -19t19 -45t-19 -45t-45 -19zM189 35q0 -48 -24.5 -91t-64.5 -72l-43 36q24 14 44.5 41t24.5 52q-1 0 -6.5 -1t-8.5 -1q-24 0 -40 16.5t-16 42.5t18.5 44.5t44.5 18.5q30 0 50.5 -23.5t20.5 -62.5z" />
    <glyph glyph-name="less" unicode="&#x3c;" horiz-adv-x="381" 
d="M352 158l-323 143v67l323 143v-73l-249 -104l249 -102v-74z" />
    <glyph glyph-name="equal" unicode="=" horiz-adv-x="381" 
d="M352 399h-323v62h323v-62zM352 207h-323v62h323v-62z" />
    <glyph glyph-name="greater" unicode="&#x3e;" horiz-adv-x="381" 
d="M352 301l-323 -143v74l249 102l-249 104v73l323 -143v-67z" />
    <glyph glyph-name="question" unicode="?" horiz-adv-x="320" 
d="M125 192q-25 34 -25 86q0 38 15.5 71.5t33.5 54t33.5 50t15.5 61.5q0 28 -17.5 50t-45.5 22q-35 0 -60 -32l-44 66q53 57 127 57q64 0 103.5 -41t39.5 -102q0 -42 -17.5 -80t-39 -62t-39 -56t-17.5 -64q0 -28 17 -49zM163 -10q-26 0 -45.5 19t-19.5 45t19.5 45t45.5 19
t45 -19t19 -45t-19 -45t-45 -19z" />
    <glyph glyph-name="at" unicode="@" horiz-adv-x="620" 
d="M267 -70q-108 0 -170 76.5t-62 208.5q0 107 46 205t125 158.5t170 60.5q93 0 151 -65.5t58 -177.5q0 -128 -48 -219.5t-112 -91.5q-33 0 -54.5 18.5t-25.5 49.5l-1 8q-49 -76 -111 -76q-39 0 -66 29.5t-27 96.5q0 69 22.5 134.5t66.5 109.5t98 44q56 0 72 -68l11 52h84
l-56 -263q-3 -15 -3 -25q0 -24 6.5 -34t22.5 -10q11 0 25 16.5t27 46t22 78t9 103.5q0 99 -47 153.5t-126 54.5q-80 0 -150.5 -57t-110.5 -146t-40 -184q0 -113 52 -182t147 -69q72 0 143 56l18 -28q-80 -63 -166 -63zM272 153q26 0 44.5 18.5t37.5 51.5l32 148
q-12 59 -47 59q-34 0 -60.5 -35.5t-38.5 -81.5t-12 -89q0 -71 44 -71z" />
    <glyph glyph-name="A" unicode="A" horiz-adv-x="398" 
d="M395 0h-107l-23 136h-132l-23 -136h-107l136 667h120zM253 228l-54 320l-54 -320h108z" />
    <glyph glyph-name="B" unicode="B" horiz-adv-x="431" 
d="M240 0h-183v667h176q75 0 114 -47t39 -123q0 -123 -93 -153q45 -7 73.5 -54.5t28.5 -109.5q0 -83 -38.5 -131.5t-116.5 -48.5zM208 386q71 0 71 94q0 95 -71 95h-47v-189h47zM212 92q76 0 76 101q0 45 -19 73t-57 28h-51v-202h51z" />
    <glyph glyph-name="C" unicode="C" horiz-adv-x="412" 
d="M230 -12q-98 0 -146 94.5t-48 250.5q0 157 48 251t146 94q35 0 62 -12.5t45 -35.5t28.5 -45t19.5 -52l-84 -31q-12 42 -28 62.5t-43 20.5q-87 0 -87 -252t87 -252q54 0 72 99l85 -31q-39 -161 -157 -161z" />
    <glyph glyph-name="D" unicode="D" horiz-adv-x="455" 
d="M207 0h-150v667h149q108 0 160.5 -91t52.5 -243q0 -153 -52 -243t-160 -90zM206 92q106 0 106 241q0 242 -106 242h-45v-483h45z" />
    <glyph glyph-name="E" unicode="E" horiz-adv-x="367" 
d="M330 0h-273v667h273v-92h-169v-189h162v-92h-162v-202h169v-92z" />
    <glyph glyph-name="F" unicode="F" horiz-adv-x="365" 
d="M161 0h-104v667h273v-92h-169v-189h162v-92h-162v-294z" />
    <glyph glyph-name="G" unicode="G" horiz-adv-x="435" 
d="M227 -12q-95 0 -143 93t-48 252q0 160 48.5 252.5t145.5 92.5q116 0 155 -145l-84 -31q-11 41 -27 62t-44 21q-87 0 -87 -252t87 -252q40 0 58 51.5t19 128.5h-93v92h193q0 -183 -41 -274t-139 -91z" />
    <glyph glyph-name="H" unicode="H" horiz-adv-x="463" 
d="M407 0h-105v297h-141v-297h-104v667h104v-278h141v278h105v-667z" />
    <glyph glyph-name="I" unicode="I" horiz-adv-x="218" 
d="M161 0h-104v667h104v-667z" />
    <glyph glyph-name="J" unicode="J" horiz-adv-x="337" 
d="M115 -12q-64 0 -108 40l32 85q26 -32 65 -32q73 0 73 80v506h104v-511q0 -85 -44.5 -126.5t-121.5 -41.5z" />
    <glyph glyph-name="K" unicode="K" horiz-adv-x="448" 
d="M442 0h-119l-119 269l-43 -85v-184h-104v667h104v-325l153 325h115l-165 -315z" />
    <glyph glyph-name="L" unicode="L" horiz-adv-x="351" 
d="M330 0h-273v667h104v-575h169v-92z" />
    <glyph glyph-name="M" unicode="M" horiz-adv-x="591" 
d="M535 0h-103v465l-118 -465h-37l-116 465v-465h-104v667h135l104 -412l106 412h133v-667z" />
    <glyph glyph-name="N" unicode="N" horiz-adv-x="463" 
d="M407 0h-99l-147 426v-426h-104v667h104l141 -415v415h105v-667z" />
    <glyph glyph-name="O" unicode="O" horiz-adv-x="459" 
d="M229 -12q-98 0 -145.5 95t-47.5 250q0 156 47.5 250.5t145.5 94.5q99 0 146.5 -94.5t47.5 -250.5q0 -155 -47.5 -250t-146.5 -95zM229 81q87 0 87 252t-87 252q-86 0 -86 -252t86 -252z" />
    <glyph glyph-name="P" unicode="P" horiz-adv-x="418" 
d="M161 0h-104v667h161q87 0 131.5 -58.5t44.5 -147.5t-44.5 -147.5t-131.5 -58.5h-57v-255zM208 347q38 0 58.5 31t20.5 83t-20.5 83t-58.5 31h-47v-228h47z" />
    <glyph glyph-name="Q" unicode="Q" horiz-adv-x="459" 
d="M229 -12q-98 0 -145.5 95t-47.5 250q0 156 47.5 250.5t145.5 94.5q99 0 146.5 -94.5t47.5 -250.5q0 -216 -83 -300l15 -39l-74 -29l-11 28q-22 -5 -41 -5zM229 81h7l-51 134l74 29l36 -95q21 64 21 184q0 252 -87 252q-86 0 -86 -252t86 -252z" />
    <glyph glyph-name="R" unicode="R" horiz-adv-x="438" 
d="M400 0h-112l-79 255h-48v-255h-104v667h166q75 0 123 -56t48 -147q0 -78 -26.5 -122.5t-62.5 -61.5zM208 347q38 0 58.5 31t20.5 83t-20.5 83t-58.5 31h-47v-228h47z" />
    <glyph glyph-name="S" unicode="S" horiz-adv-x="378" 
d="M175 -12q-100 0 -159 64l47 82q41 -53 106 -53q33 0 54 24t21 62q0 36 -21.5 66t-52.5 53.5t-62 49.5t-52.5 68.5t-21.5 96.5q0 76 47 126.5t125 50.5q81 0 134 -51l-42 -80q-37 38 -89 38q-30 0 -49.5 -21.5t-19.5 -56.5q0 -31 21.5 -59t52.5 -52t62 -52t52.5 -72
t21.5 -99q0 -81 -48 -133t-127 -52z" />
    <glyph glyph-name="T" unicode="T" horiz-adv-x="347" 
d="M225 0h-104v575h-103v92h311v-92h-104v-575z" />
    <glyph glyph-name="U" unicode="U" horiz-adv-x="464" 
d="M232 -12q-76 0 -125.5 49.5t-49.5 146.5v483h104v-488q0 -99 71 -99t71 99v488h104v-483q0 -97 -49.5 -146.5t-125.5 -49.5z" />
    <glyph glyph-name="V" unicode="V" horiz-adv-x="398" 
d="M259 0h-120l-136 667h107l89 -532l89 532h107z" />
    <glyph glyph-name="W" unicode="W" horiz-adv-x="587" 
d="M462 0h-107l-62 466l-61 -466h-107l-111 667h107l62 -483l68 483h85l69 -483l61 483h107z" />
    <glyph glyph-name="X" unicode="X" horiz-adv-x="408" 
d="M408 0h-116l-88 246l-88 -246h-115l143 340l-135 327h115l80 -235l80 235h116l-136 -327z" />
    <glyph glyph-name="Y" unicode="Y" horiz-adv-x="405" 
d="M255 0h-104v279l-154 388h112l94 -285l95 285h110l-153 -388v-279z" />
    <glyph glyph-name="Z" unicode="Z" horiz-adv-x="360" 
d="M330 0h-299v89l175 486h-175v92h292v-85l-178 -490h185v-92z" />
    <glyph glyph-name="bracketleft" unicode="[" horiz-adv-x="195" 
d="M177 -190h-142v868h142v-66h-72v-736h72v-66z" />
    <glyph glyph-name="backslash" unicode="\" horiz-adv-x="216" 
d="M148 -20l-147 707h68l147 -707h-68z" />
    <glyph glyph-name="bracketright" unicode="]" horiz-adv-x="195" 
d="M160 -190h-143v66h73v736h-73v66h143v-868z" />
    <glyph glyph-name="asciicircum" unicode="^" horiz-adv-x="334" 
d="M315 333h-70l-78 257l-78 -257h-70l113 334h70z" />
    <glyph glyph-name="underscore" unicode="_" horiz-adv-x="279" 
d="M282 -106h-285v66h285v-66z" />
    <glyph glyph-name="grave" unicode="`" horiz-adv-x="164" 
d="M164 556h-61l-103 144h85z" />
    <glyph glyph-name="a" unicode="a" horiz-adv-x="406" 
d="M356 0h-94v62q-15 -35 -41 -54.5t-52 -19.5q-68 0 -103 68t-35 185q0 116 35 185t103 69q28 0 53.5 -19t39.5 -56v63h94v-483zM198 71q20 0 38 20t26 48v204q-8 28 -26 48t-38 20q-70 0 -70 -170t70 -170z" />
    <glyph glyph-name="b" unicode="b" horiz-adv-x="406" 
d="M144 139q9 -29 27 -48.5t38 -19.5q69 0 69 170q0 171 -69 171q-20 0 -38 -20t-27 -49v-204zM144 0h-94v667h94v-247q14 37 39.5 56t53.5 19q68 0 103 -69t35 -185q0 -117 -35 -185t-103 -68q-26 0 -52 19.5t-41 54.5v-62z" />
    <glyph glyph-name="c" unicode="c" horiz-adv-x="333" 
d="M205 -12q-81 0 -127.5 71t-46.5 183t46.5 182.5t127.5 70.5q69 0 109 -44l-33 -72q-29 33 -61 33q-45 0 -68.5 -48.5t-23.5 -121.5t23.5 -122t68.5 -49q32 0 61 33l33 -72q-37 -44 -109 -44z" />
    <glyph glyph-name="d" unicode="d" horiz-adv-x="406" 
d="M356 0h-94v62q-15 -35 -41 -54.5t-52 -19.5q-68 0 -103 68t-35 185q0 116 35 185t103 69q28 0 53.5 -19t39.5 -56v247h94v-667zM198 71q20 0 38 20t26 48v205q-8 28 -26 48t-38 20q-70 0 -70 -171q0 -170 70 -170z" />
    <glyph glyph-name="e" unicode="e" horiz-adv-x="391" 
d="M213 -12q-88 0 -135 70t-47 184q0 111 43.5 182t126.5 71t123 -69.5t40 -181.5v-33h-241q1 -66 26 -106t73 -40q45 0 80 52l49 -51q-56 -78 -138 -78zM272 278q0 140 -74 140q-40 0 -57.5 -42.5t-17.5 -97.5h149z" />
    <glyph glyph-name="f" unicode="f" horiz-adv-x="239" 
d="M159 0h-94v401h-46v82h46v63q0 62 29.5 96.5t79.5 34.5q36 0 61 -14l-18 -76q-6 7 -20 7q-17 0 -27.5 -13t-10.5 -35v-63h63v-82h-63v-401z" />
    <glyph glyph-name="g" unicode="g" horiz-adv-x="406" 
d="M187 -196q-88 0 -140 51l34 78q43 -46 97 -46q84 0 84 110v79q-15 -36 -41 -56t-52 -20q-68 0 -103 65t-35 182q0 115 35 181.5t103 66.5q28 0 53.5 -19t39.5 -56v63h94v-486q0 -103 -47 -148t-122 -45zM198 83q20 0 38 20t26 48v193q-8 28 -26 48t-38 20q-70 0 -70 -165
q0 -164 70 -164z" />
    <glyph glyph-name="h" unicode="h" 
d="M352 0h-94v357q0 55 -41 55q-23 0 -42.5 -20.5t-30.5 -49.5v-342h-94v667h94v-249q16 31 47.5 54t63.5 23q97 0 97 -107v-388z" />
    <glyph glyph-name="i" unicode="i" horiz-adv-x="194" 
d="M97 546q-24 0 -42 17.5t-18 41.5q0 25 18 42.5t42 17.5q25 0 42.5 -17.5t17.5 -42.5t-17.5 -42t-42.5 -17zM144 0h-94v483h94v-483z" />
    <glyph glyph-name="j" unicode="j" horiz-adv-x="194" 
d="M97 546q-24 0 -42 17.5t-18 41.5q0 25 18 42.5t42 17.5q25 0 42.5 -17.5t17.5 -42.5t-17.5 -42t-42.5 -17zM24 -196q-40 0 -59 27l26 72q8 -16 26 -16q33 0 33 59v537h94v-537q0 -74 -29 -108t-91 -34z" />
    <glyph glyph-name="k" unicode="k" horiz-adv-x="385" 
d="M375 0h-102l-80 204l-49 -87v-117h-94v667h94v-426l127 242h102l-118 -215z" />
    <glyph glyph-name="l" unicode="l" horiz-adv-x="222" 
d="M149 -12q-52 0 -75.5 28t-23.5 87v564h94v-547q0 -49 28 -49q18 0 30 15l22 -72q-26 -26 -75 -26z" />
    <glyph glyph-name="m" unicode="m" horiz-adv-x="610" 
d="M560 0h-94v356q0 56 -41 56q-23 0 -43 -21t-30 -49v-342h-94v356q0 56 -41 56q-23 0 -43 -21t-30 -49v-342h-94v483h94v-65q14 30 46 53.5t65 23.5q39 0 64.5 -20.5t29.5 -60.5q15 33 47.5 57t66.5 24q97 0 97 -108v-387z" />
    <glyph glyph-name="n" unicode="n" 
d="M352 0h-94v356q0 56 -41 56q-23 0 -42.5 -20.5t-30.5 -49.5v-342h-94v483h94v-65q16 31 47.5 54t63.5 23q97 0 97 -108v-387z" />
    <glyph glyph-name="o" unicode="o" 
d="M201 -12q-85 0 -127.5 72.5t-42.5 181.5t42.5 181t127.5 72t127 -72t42 -181t-42 -181.5t-127 -72.5zM201 71q72 0 72 171q0 170 -72 170t-72 -170q0 -171 72 -171z" />
    <glyph glyph-name="p" unicode="p" horiz-adv-x="406" 
d="M237 -12q-28 0 -53.5 19t-39.5 56v-247h-94v667h94v-62q15 35 41 54.5t52 19.5q68 0 103 -68t35 -185q0 -116 -35 -185t-103 -69zM209 71q69 0 69 171q0 170 -69 170q-20 0 -38.5 -19t-26.5 -48v-206q9 -28 27 -48t38 -20z" />
    <glyph glyph-name="q" unicode="q" horiz-adv-x="406" 
d="M198 71q20 0 38 20t26 48v206q-8 28 -26 47.5t-38 19.5q-70 0 -70 -170q0 -171 70 -171zM169 -12q-68 0 -103 69t-35 185q0 117 35 185t103 68q26 0 52 -19.5t41 -54.5v62h94v-667h-94v247q-14 -37 -39.5 -56t-53.5 -19z" />
    <glyph glyph-name="r" unicode="r" horiz-adv-x="268" 
d="M144 0h-94v483h94v-71q16 36 46 59t64 23v-94q-11 3 -20 3q-27 0 -51 -20t-39 -50v-333z" />
    <glyph glyph-name="s" unicode="s" horiz-adv-x="330" 
d="M162 -12q-97 0 -146 62l41 65q43 -52 97 -52q28 0 46.5 16.5t18.5 43.5q0 25 -19.5 44t-46.5 34.5t-54.5 34t-47 51.5t-19.5 78q0 56 38.5 93t104.5 37q77 0 130 -56l-40 -63q-33 44 -88 44q-25 0 -41 -15t-16 -37q0 -23 19.5 -41.5t47 -33.5t55 -34t47 -53t19.5 -80
q0 -61 -41.5 -99.5t-104.5 -38.5z" />
    <glyph glyph-name="t" unicode="t" horiz-adv-x="247" 
d="M165 -12q-53 0 -76.5 28t-23.5 87v298h-47v82h47v132h94v-132h63v-82h-63v-281q0 -49 28 -49q18 0 30 15l22 -72q-26 -26 -74 -26z" />
    <glyph glyph-name="u" unicode="u" 
d="M352 0h-94v63q-16 -31 -46.5 -53t-64.5 -22q-97 0 -97 107v388h94v-357q0 -55 41 -55q23 0 43 20t30 48v344h94v-483z" />
    <glyph glyph-name="v" unicode="v" horiz-adv-x="357" 
d="M229 0h-102l-122 483h100l73 -366l75 366h99z" />
    <glyph glyph-name="w" unicode="w" horiz-adv-x="579" 
d="M462 0h-98l-74 355l-75 -355h-98l-108 483h97l66 -354l69 354h92l73 -354l67 354h98z" />
    <glyph glyph-name="x" unicode="x" horiz-adv-x="352" 
d="M345 0h-101l-68 173l-69 -173h-100l111 244l-106 239h100l64 -168l64 168h99l-105 -239z" />
    <glyph glyph-name="y" unicode="y" 
d="M188 -196q-90 0 -139 51l34 78q42 -46 97 -46q37 0 57.5 28.5t20.5 81.5v79q-16 -32 -46.5 -53.5t-64.5 -21.5q-97 0 -97 107v375h94v-344q0 -55 41 -55q23 0 43 20t30 48v331h94v-486q0 -92 -41.5 -142.5t-122.5 -50.5z" />
    <glyph glyph-name="z" unicode="z" horiz-adv-x="321" 
d="M291 0h-261v72l146 329h-146v82h257v-69l-146 -332h150v-82z" />
    <glyph glyph-name="braceleft" unicode="{" horiz-adv-x="212" 
d="M195 -190h-29q-44 0 -76.5 31.5t-32.5 80.5v225q0 29 -13.5 48.5t-38.5 19.5v58q25 0 38.5 19.5t13.5 48.5v224q0 49 32.5 81t76.5 32h29v-66h-29q-16 0 -27.5 -13t-11.5 -34v-232q0 -70 -45 -89q45 -19 45 -89v-233q0 -20 11.5 -33.5t27.5 -13.5h29v-65z" />
    <glyph glyph-name="bar" unicode="|" horiz-adv-x="179" 
d="M122 -20h-65v707h65v-707z" />
    <glyph glyph-name="braceright" unicode="}" horiz-adv-x="212" 
d="M17 -190v65h29q17 0 28 13.5t11 33.5v233q0 70 45 89q-45 19 -45 89v232q0 21 -11 34t-28 13h-29v66h29q44 0 76.5 -32t32.5 -81v-224q0 -29 13.5 -48.5t38.5 -19.5v-58q-25 0 -38.5 -19.5t-13.5 -48.5v-225q0 -49 -32.5 -80.5t-76.5 -31.5h-29z" />
    <glyph glyph-name="asciitilde" unicode="~" horiz-adv-x="407" 
d="M313 667l67 -6q-2 -47 -6.5 -81t-16 -75t-35 -63.5t-58.5 -22.5t-55 29t-25.5 63.5t-15 63.5t-25.5 29q-23 0 -32 -39t-17 -147l-67 7q2 46 7 80.5t16 75t35 63t58 22.5q35 0 55 -29t25.5 -64t15.5 -64t25 -29q23 0 32 39t17 148z" />
    <glyph glyph-name="uni00A0" unicode="&#xa0;" horiz-adv-x="165" 
 />
    <glyph glyph-name="exclamdown" unicode="&#xa1;" horiz-adv-x="239" 
d="M62 -184l18 469h80l18 -469h-116zM55 429q0 26 19.5 45t45.5 19t45.5 -19t19.5 -45t-19.5 -45t-45.5 -19t-45.5 19t-19.5 45z" />
    <glyph glyph-name="cent" unicode="&#xa2;" horiz-adv-x="333" 
d="M175 -100v91q-68 12 -106 81t-38 170t38 169.5t106 80.5v73h71v-75q40 -10 68 -39l-33 -72q-20 22 -35 28v-331q17 7 35 28l33 -72q-25 -30 -68 -40v-92h-71zM128 242q0 -114 47 -154v307q-47 -40 -47 -153z" />
    <glyph glyph-name="sterling" unicode="&#xa3;" horiz-adv-x="405" 
d="M30 274v63h56q-39 76 -39 145q0 81 51 138t124 57q59 0 100 -32t53 -91l-83 -37q-9 36 -23.5 55t-41.5 19t-47.5 -30t-20.5 -81q0 -19 2 -35.5t7.5 -33t8.5 -25t11.5 -26.5t10.5 -23h74v-63h-55q3 -18 3 -39q0 -35 -17.5 -74t-42.5 -61q18 9 37 9q23 0 51.5 -14t46.5 -14
q43 0 67 32l30 -82q-13 -18 -43.5 -30.5t-62.5 -12.5q-37 0 -72.5 20.5t-55.5 20.5q-35 0 -82 -36l-33 73q38 25 60.5 64.5t22.5 79.5q0 30 -12 64h-85z" />
    <glyph glyph-name="yen" unicode="&#xa5;" horiz-adv-x="405" 
d="M255 0h-104v120h-128v62h128v97h-128v62h103l-129 326h112l94 -285l95 285h110l-129 -326h101v-62h-125v-97h125v-62h-125v-120z" />
    <glyph glyph-name="brokenbar" unicode="&#xa6;" horiz-adv-x="179" 
d="M122 -20h-65v316h65v-316zM122 371h-65v316h65v-316z" />
    <glyph glyph-name="section" unicode="&#xa7;" horiz-adv-x="331" 
d="M308 308q0 -81 -71 -119q71 -53 71 -132q0 -58 -41.5 -98t-104.5 -40q-92 0 -146 62l41 63q15 -20 41.5 -37t55.5 -17q30 0 47.5 19t17.5 46t-19.5 48.5t-46.5 37.5t-54.5 34t-47 50.5t-19.5 75.5q0 39 22 70.5t60 42.5q-82 56 -82 138q0 55 39 90t96 35q85 0 137 -57
l-40 -57q-41 46 -88 46q-25 0 -40.5 -16t-15.5 -41t19.5 -45t47 -36.5t55 -35t47 -51.5t19.5 -76zM225 288q0 59 -51 94q-59 -13 -59 -66q0 -55 65 -96q45 22 45 68z" />
    <glyph glyph-name="dieresis" unicode="&#xa8;" horiz-adv-x="272" 
d="M267 607q0 -22 -16 -38t-38 -16q-23 0 -38.5 15.5t-15.5 38.5q0 22 16 37.5t38 15.5t38 -15.5t16 -37.5zM113 607q0 -23 -15.5 -38.5t-38.5 -15.5q-22 0 -38 16t-16 38t16 37.5t38 15.5t38 -15.5t16 -37.5z" />
    <glyph glyph-name="copyright" unicode="&#xa9;" horiz-adv-x="778" 
d="M734 334q0 -142 -101 -243.5t-244 -101.5t-244 101.5t-101 243.5t101 243.5t244 101.5t244 -101.5t101 -243.5zM701 334q0 128 -92 220t-220 92t-220 -92t-92 -220t92 -220t220 -92t220 92t92 220zM512 215l28 -26q-57 -67 -147 -67q-87 0 -148 61t-61 151
q0 92 60.5 152.5t148.5 60.5q90 0 146 -66l-27 -27q-20 26 -52 42t-67 16q-70 0 -119.5 -50t-49.5 -128q0 -75 50 -126t119 -51q76 0 119 58z" />
    <glyph glyph-name="ordfeminine" unicode="&#xaa;" horiz-adv-x="292" 
d="M251 326h-70v32q-23 -40 -70 -40q-39 0 -64 27.5t-25 75.5t25 75.5t64 27.5q47 0 70 -37v45q0 61 -52 61q-35 0 -67 -36l-27 47q43 44 108 44q108 0 108 -113v-209zM135 365q32 0 46 33v50q-14 34 -46 34q-20 0 -31.5 -16.5t-11.5 -42.5t11.5 -42t31.5 -16z" />
    <glyph glyph-name="guillemotleft" unicode="&#xab;" horiz-adv-x="359" 
d="M329 63h-75l-90 180l90 177h75l-90 -177zM195 63h-75l-90 180l90 177h75l-90 -177z" />
    <glyph glyph-name="logicalnot" unicode="&#xac;" horiz-adv-x="381" 
d="M352 461v-254h-64v192h-259v62h323z" />
    <glyph glyph-name="registered" unicode="&#xae;" horiz-adv-x="494" 
d="M459 465q0 -88 -62 -150t-150 -62t-150 62t-62 150t62 150t150 62q89 0 150.5 -61.5t61.5 -150.5zM429 465q0 76 -53 129t-129 53t-129 -53t-53 -129q0 -75 53 -128.5t129 -53.5t129 53.5t53 128.5zM346 343h-41l-63 96h-43v-96h-33v243h99q32 0 55 -20.5t23 -53.5
q0 -35 -22.5 -53.5t-39.5 -18.5zM309 512q0 19 -13.5 32t-30.5 13h-66v-88h66q17 0 30.5 12.5t13.5 30.5z" />
    <glyph glyph-name="macron" unicode="&#xaf;" horiz-adv-x="254" 
d="M254 591h-254v57h254v-57z" />
    <glyph glyph-name="degree" unicode="&#xb0;" horiz-adv-x="298" 
d="M275 550q0 -52 -37 -89t-90 -37q-52 0 -89 37t-37 89q0 53 37 90t89 37t89.5 -37.5t37.5 -89.5zM220 550q0 29 -21.5 50.5t-50.5 21.5t-49.5 -21.5t-20.5 -50.5t20.5 -49.5t49.5 -20.5t50.5 20.5t21.5 49.5z" />
    <glyph glyph-name="plusminus" unicode="&#xb1;" horiz-adv-x="381" 
d="M352 306h-128v-149h-67v149h-128v62h128v143h67v-143h128v-62zM352 35h-323v61h323v-61z" />
    <glyph glyph-name="twosuperior" unicode="&#xb2;" horiz-adv-x="281" 
d="M261 421h-232v54q102 120 130 161.5t28 77.5q0 24 -14 39t-37 15q-44 0 -71 -49l-45 42q44 66 120 66q54 0 86.5 -29.5t32.5 -81.5q0 -42 -28 -88t-111 -148h141v-59z" />
    <glyph glyph-name="threesuperior" unicode="&#xb3;" horiz-adv-x="281" 
d="M262 531q0 -53 -33 -85t-90 -32q-83 0 -122 65l48 44q27 -50 71 -50q54 0 54 62q0 33 -17 47.5t-41 14.5q-22 0 -28 -1v59q5 -1 25 -1q56 0 56 56q0 58 -50 58q-42 0 -68 -44l-46 39q41 64 118 64q53 0 85 -27.5t32 -80.5q0 -32 -19.5 -58.5t-47.5 -32.5
q30 -5 51.5 -32.5t21.5 -64.5z" />
    <glyph glyph-name="acute" unicode="&#xb4;" horiz-adv-x="164" 
d="M164 700l-103 -144h-61l79 144h85z" />
    <glyph glyph-name="mu" unicode="&#xb5;" 
d="M144 -184h-94v667h94v-357q0 -56 41 -56q23 0 42.5 20.5t30.5 48.5v344h94v-483h-94v63q-16 -31 -46.5 -53t-64.5 -22h-3v-172z" />
    <glyph glyph-name="paragraph" unicode="&#xb6;" horiz-adv-x="449" 
d="M387 -100h-51v716h-86v-716h-51v423q-71 0 -121.5 50.5t-50.5 121.5t50.5 121.5t121.5 50.5h188v-767z" />
    <glyph glyph-name="periodcentered" unicode="&#xb7;" horiz-adv-x="239" 
d="M184 245q0 -26 -19 -45.5t-46 -19.5q-26 0 -45 19.5t-19 45.5t19 45t45 19q27 0 46 -19t19 -45z" />
    <glyph glyph-name="cedilla" unicode="&#xb8;" horiz-adv-x="175" 
d="M82 -193q-46 0 -82 31l20 41q32 -27 60 -27q18 0 31 10.5t13 27.5q0 30 -26 30q-16 0 -27 -13l-37 21l31 83h51l-26 -65q13 10 29 10q24 0 40 -19t16 -48q0 -36 -26.5 -59t-66.5 -23z" />
    <glyph glyph-name="onesuperior" unicode="&#xb9;" horiz-adv-x="232" 
d="M184 421h-73v306l-58 -60l-41 43l109 111h63v-400z" />
    <glyph glyph-name="ordmasculine" unicode="&#xba;" horiz-adv-x="300" 
d="M150 318q-59 0 -91 47.5t-32 117.5t32 117.5t91 47.5q60 0 91.5 -47.5t31.5 -117.5t-31.5 -117.5t-91.5 -47.5zM150 375q50 0 50 108q0 107 -50 107q-51 0 -51 -107q0 -108 51 -108z" />
    <glyph glyph-name="guillemotright" unicode="&#xbb;" horiz-adv-x="359" 
d="M195 243l-90 -180h-75l90 180l-90 177h75zM329 243l-90 -180h-75l90 180l-90 177h75z" />
    <glyph glyph-name="onequarter" unicode="&#xbc;" horiz-adv-x="617" 
d="M469 667l-277 -667h-46l276 667h47zM603 95h-35v-95h-72v95h-145v58l129 247h88v-247h35v-58zM496 153v166l-83 -166h83zM184 267h-73v306l-58 -60l-41 43l109 111h63v-400z" />
    <glyph glyph-name="onehalf" unicode="&#xbd;" horiz-adv-x="651" 
d="M469 667l-277 -667h-46l276 667h47zM631 0h-232v54q102 120 130 162t28 77q0 24 -14 39t-37 15q-44 0 -71 -49l-45 42q44 66 120 66q54 0 86.5 -29.5t32.5 -81.5q0 -42 -28 -88t-111 -148h141v-59zM184 267h-73v306l-58 -60l-41 43l109 111h63v-400z" />
    <glyph glyph-name="threequarters" unicode="&#xbe;" horiz-adv-x="653" 
d="M505 667l-277 -667h-46l276 667h47zM639 95h-35v-95h-72v95h-145v58l129 247h88v-247h35v-58zM532 153v166l-83 -166h83zM262 377q0 -53 -33 -85t-90 -32q-83 0 -122 65l48 44q27 -50 71 -50q54 0 54 62q0 33 -17 47.5t-41 14.5q-22 0 -28 -1v59q5 -1 25 -1q56 0 56 56
q0 58 -50 58q-42 0 -68 -44l-46 39q41 64 118 64q53 0 85 -27.5t32 -80.5q0 -32 -19.5 -58.5t-47.5 -32.5q30 -5 51.5 -32.5t21.5 -64.5z" />
    <glyph glyph-name="questiondown" unicode="&#xbf;" horiz-adv-x="280" 
d="M194 289q26 -33 26 -86q0 -38 -15.5 -71.5t-33.5 -54t-33.5 -50t-15.5 -61.5q0 -28 17.5 -50t45.5 -22q34 0 60 32l44 -66q-52 -56 -127 -56q-64 0 -103.5 40.5t-39.5 101.5q0 42 17.5 80t39 62t39 56.5t17.5 63.5q0 28 -17 49zM157 493q26 0 45.5 -19t19.5 -45
t-19.5 -45t-45.5 -19t-45 19t-19 45t19 45t45 19z" />
    <glyph glyph-name="Agrave" unicode="&#xc0;" horiz-adv-x="398" 
d="M258 728h-61l-103 144h85zM395 0h-107l-23 136h-132l-23 -136h-107l136 667h120zM253 228l-54 320l-54 -320h108z" />
    <glyph glyph-name="Aacute" unicode="&#xc1;" horiz-adv-x="398" 
d="M306 872l-103 -144h-61l79 144h85zM395 0h-107l-23 136h-132l-23 -136h-107l136 667h120zM253 228l-54 320l-54 -320h108z" />
    <glyph glyph-name="Acircumflex" unicode="&#xc2;" horiz-adv-x="398" 
d="M308 728h-53l-57 98l-53 -98h-54l64 144h87zM395 0h-107l-23 136h-132l-23 -136h-107l136 667h120zM253 228l-54 320l-54 -320h108z" />
    <glyph glyph-name="Atilde" unicode="&#xc3;" horiz-adv-x="398" 
d="M242 726q-18 0 -31 13t-18.5 28.5t-14 28.5t-18.5 13q-32 0 -32 -77h-50q0 59 21 96.5t59 37.5q18 0 31 -13t18.5 -28.5t14 -28.5t18.5 -13q31 0 31 77h50q0 -60 -20.5 -97t-58.5 -37zM395 0h-107l-23 136h-132l-23 -136h-107l136 667h120zM253 228l-54 320l-54 -320h108
z" />
    <glyph glyph-name="Adieresis" unicode="&#xc4;" horiz-adv-x="398" 
d="M330 778q0 -22 -16 -38t-38 -16t-38 16t-16 38t16 37.5t38 15.5t38 -15.5t16 -37.5zM176 778q0 -22 -16 -38t-38 -16t-38 16t-16 38t16 37.5t38 15.5t38 -15.5t16 -37.5zM395 0h-107l-23 136h-132l-23 -136h-107l136 667h120zM253 228l-54 320l-54 -320h108z" />
    <glyph glyph-name="Aring" unicode="&#xc5;" horiz-adv-x="398" 
d="M200 693q-36 0 -61.5 25.5t-25.5 60.5q0 36 25.5 61.5t61.5 25.5q35 0 60 -25.5t25 -61.5q0 -35 -25 -60.5t-60 -25.5zM200 737q17 0 29.5 12.5t12.5 29.5q0 18 -12.5 30.5t-29.5 12.5q-18 0 -30.5 -12.5t-12.5 -30.5q0 -17 12.5 -29.5t30.5 -12.5zM395 0h-107l-23 136
h-132l-23 -136h-107l136 667h120zM253 228l-54 320l-54 -320h108z" />
    <glyph glyph-name="AE" unicode="&#xc6;" horiz-adv-x="584" 
d="M548 0h-273v136h-119l-41 -136h-106l221 667h318v-92h-168v-189h161v-92h-161v-202h168v-92zM275 228v320l-94 -320h94z" />
    <glyph glyph-name="Ccedilla" unicode="&#xc7;" horiz-adv-x="412" 
d="M225 -189q-46 0 -82 31l20 41q32 -27 60 -27q18 0 31 10.5t13 27.5q0 30 -26 30q-16 0 -27 -13l-37 21l22 59q-83 15 -123 107t-40 235q0 157 48 251t146 94q35 0 62 -12.5t45 -35.5t28.5 -45t19.5 -52l-84 -31q-12 42 -28 62.5t-43 20.5q-87 0 -87 -252t87 -252
q54 0 72 99l85 -31q-36 -148 -139 -160l-15 -39q13 10 29 10q24 0 40 -19t16 -48q0 -36 -26.5 -59t-66.5 -23z" />
    <glyph glyph-name="Egrave" unicode="&#xc8;" horiz-adv-x="367" 
d="M255 728h-61l-103 144h85zM330 0h-273v667h273v-92h-169v-189h162v-92h-162v-202h169v-92z" />
    <glyph glyph-name="Eacute" unicode="&#xc9;" horiz-adv-x="367" 
d="M303 872l-103 -144h-61l79 144h85zM330 0h-273v667h273v-92h-169v-189h162v-92h-162v-202h169v-92z" />
    <glyph glyph-name="Ecircumflex" unicode="&#xca;" horiz-adv-x="367" 
d="M303 728h-53l-57 98l-53 -98h-54l64 144h87zM330 0h-273v667h273v-92h-169v-189h162v-92h-162v-202h169v-92z" />
    <glyph glyph-name="Edieresis" unicode="&#xcb;" horiz-adv-x="367" 
d="M326 778q0 -22 -16 -38t-38 -16t-38 16t-16 38t16 37.5t38 15.5t38 -15.5t16 -37.5zM172 778q0 -22 -16 -38t-38 -16t-38 16t-16 38t16 37.5t38 15.5t38 -15.5t16 -37.5zM330 0h-273v667h273v-92h-169v-189h162v-92h-162v-202h169v-92z" />
    <glyph glyph-name="Igrave" unicode="&#xcc;" horiz-adv-x="218" 
d="M167 728h-61l-103 144h85zM161 0h-104v667h104v-667z" />
    <glyph glyph-name="Iacute" unicode="&#xcd;" horiz-adv-x="218" 
d="M217 872l-103 -144h-61l79 144h85zM161 0h-104v667h104v-667z" />
    <glyph glyph-name="Icircumflex" unicode="&#xce;" horiz-adv-x="218" 
d="M218 728h-53l-57 98l-53 -98h-54l64 144h87zM161 0h-104v667h104v-667z" />
    <glyph glyph-name="Idieresis" unicode="&#xcf;" horiz-adv-x="218" 
d="M242 777q0 -22 -16 -38t-38 -16t-38 15.5t-16 38.5q0 22 16 37.5t38 15.5t38 -15.5t16 -37.5zM88 777q0 -23 -16 -38.5t-38 -15.5t-38 16t-16 38t16 37.5t38 15.5t38 -15.5t16 -37.5zM161 0h-104v667h104v-667z" />
    <glyph glyph-name="Eth" unicode="&#xd0;" horiz-adv-x="476" 
d="M228 0h-150v291h-60v76h60v300h149q108 0 160.5 -91t52.5 -243q0 -153 -52 -243t-160 -90zM256 291h-74v-199h45q106 0 106 241q0 242 -106 242h-45v-208h74v-76z" />
    <glyph glyph-name="Ntilde" unicode="&#xd1;" horiz-adv-x="463" 
d="M272 726q-18 0 -31 13t-18.5 28.5t-14 28.5t-18.5 13q-32 0 -32 -77h-50q0 59 21 96.5t59 37.5q18 0 31 -13t18.5 -28.5t14 -28.5t18.5 -13q31 0 31 77h50q0 -60 -20.5 -97t-58.5 -37zM407 0h-99l-147 426v-426h-104v667h104l141 -415v415h105v-667z" />
    <glyph glyph-name="Ograve" unicode="&#xd2;" horiz-adv-x="459" 
d="M287 728h-61l-103 144h85zM229 -12q-98 0 -145.5 95t-47.5 250q0 156 47.5 250.5t145.5 94.5q99 0 146.5 -94.5t47.5 -250.5q0 -155 -47.5 -250t-146.5 -95zM229 81q87 0 87 252t-87 252q-86 0 -86 -252t86 -252z" />
    <glyph glyph-name="Oacute" unicode="&#xd3;" horiz-adv-x="459" 
d="M336 872l-103 -144h-61l79 144h85zM229 -12q-98 0 -145.5 95t-47.5 250q0 156 47.5 250.5t145.5 94.5q99 0 146.5 -94.5t47.5 -250.5q0 -155 -47.5 -250t-146.5 -95zM229 81q87 0 87 252t-87 252q-86 0 -86 -252t86 -252z" />
    <glyph glyph-name="Ocircumflex" unicode="&#xd4;" horiz-adv-x="459" 
d="M339 728h-53l-57 98l-53 -98h-54l64 144h87zM229 -12q-98 0 -145.5 95t-47.5 250q0 156 47.5 250.5t145.5 94.5q99 0 146.5 -94.5t47.5 -250.5q0 -155 -47.5 -250t-146.5 -95zM229 81q87 0 87 252t-87 252q-86 0 -86 -252t86 -252z" />
    <glyph glyph-name="Otilde" unicode="&#xd5;" horiz-adv-x="459" 
d="M273 726q-18 0 -31 13t-18.5 28.5t-14 28.5t-18.5 13q-32 0 -32 -77h-50q0 59 21 96.5t59 37.5q18 0 31 -13t18.5 -28.5t14 -28.5t18.5 -13q31 0 31 77h50q0 -60 -20.5 -97t-58.5 -37zM229 -12q-98 0 -145.5 95t-47.5 250q0 156 47.5 250.5t145.5 94.5q99 0 146.5 -94.5
t47.5 -250.5q0 -155 -47.5 -250t-146.5 -95zM229 81q87 0 87 252t-87 252q-86 0 -86 -252t86 -252z" />
    <glyph glyph-name="Odieresis" unicode="&#xd6;" horiz-adv-x="459" 
d="M361 778q0 -22 -16 -38t-38 -16q-23 0 -38.5 16t-15.5 38t16 37.5t38 15.5t38 -15.5t16 -37.5zM207 778q0 -22 -15.5 -38t-38.5 -16q-22 0 -38 16t-16 38t16 37.5t38 15.5t38 -15.5t16 -37.5zM229 -12q-98 0 -145.5 95t-47.5 250q0 156 47.5 250.5t145.5 94.5
q99 0 146.5 -94.5t47.5 -250.5q0 -155 -47.5 -250t-146.5 -95zM229 81q87 0 87 252t-87 252q-86 0 -86 -252t86 -252z" />
    <glyph glyph-name="multiply" unicode="&#xd7;" horiz-adv-x="381" 
d="M294 187l-104 103l-103 -103l-44 44l104 103l-104 103l44 44l103 -103l104 103l44 -44l-104 -103l104 -103z" />
    <glyph glyph-name="Oslash" unicode="&#xd8;" horiz-adv-x="459" 
d="M229 -12q-63 0 -105 40l-13 -28h-64l37 82q-48 88 -48 251q0 156 47.5 250.5t145.5 94.5q62 0 106 -41l14 30h64l-38 -83q48 -92 48 -251q0 -155 -47.5 -250t-146.5 -95zM143 333q0 -68 5 -109l140 310q-21 51 -59 51q-86 0 -86 -252zM229 81q87 0 87 252q0 59 -6 107
l-140 -309q22 -50 59 -50z" />
    <glyph glyph-name="Ugrave" unicode="&#xd9;" horiz-adv-x="464" 
d="M290 728h-61l-103 144h85zM232 -12q-76 0 -125.5 49.5t-49.5 146.5v483h104v-488q0 -99 71 -99t71 99v488h104v-483q0 -97 -49.5 -146.5t-125.5 -49.5z" />
    <glyph glyph-name="Uacute" unicode="&#xda;" horiz-adv-x="464" 
d="M339 872l-103 -144h-61l79 144h85zM232 -12q-76 0 -125.5 49.5t-49.5 146.5v483h104v-488q0 -99 71 -99t71 99v488h104v-483q0 -97 -49.5 -146.5t-125.5 -49.5z" />
    <glyph glyph-name="Ucircumflex" unicode="&#xdb;" horiz-adv-x="464" 
d="M341 728h-53l-57 98l-53 -98h-54l64 144h87zM232 -12q-76 0 -125.5 49.5t-49.5 146.5v483h104v-488q0 -99 71 -99t71 99v488h104v-483q0 -97 -49.5 -146.5t-125.5 -49.5z" />
    <glyph glyph-name="Udieresis" unicode="&#xdc;" horiz-adv-x="464" 
d="M363 778q0 -22 -16 -38t-38 -16q-23 0 -38.5 16t-15.5 38t16 37.5t38 15.5t38 -15.5t16 -37.5zM209 778q0 -22 -15.5 -38t-38.5 -16q-22 0 -38 16t-16 38t16 37.5t38 15.5t38 -15.5t16 -37.5zM232 -12q-76 0 -125.5 49.5t-49.5 146.5v483h104v-488q0 -99 71 -99t71 99
v488h104v-483q0 -97 -49.5 -146.5t-125.5 -49.5z" />
    <glyph glyph-name="Yacute" unicode="&#xdd;" horiz-adv-x="405" 
d="M312 872l-103 -144h-61l79 144h85zM255 0h-104v279l-154 388h112l94 -285l95 285h110l-153 -388v-279z" />
    <glyph glyph-name="Thorn" unicode="&#xde;" horiz-adv-x="418" 
d="M161 0h-104v667h104v-115h57q87 0 131.5 -59t44.5 -148q0 -88 -44.5 -146.5t-131.5 -58.5h-57v-140zM208 232q38 0 58.5 30.5t20.5 82.5t-20.5 83.5t-58.5 31.5h-47v-228h47z" />
    <glyph glyph-name="germandbls" unicode="&#xdf;" horiz-adv-x="489" 
d="M475 126q0 -56 -40.5 -97t-101.5 -41q-84 0 -138 62l36 66q40 -52 85 -52q25 0 42.5 16.5t17.5 43.5q0 25 -17.5 45t-42.5 35.5t-50 34t-42.5 49t-17.5 71.5q0 31 15 56t33 39.5t33 35t15 42.5q0 26 -20.5 44t-51.5 18q-35 0 -57 -23t-22 -69v-502h-93v502q0 76 47 125.5
t125 49.5q69 0 117.5 -39t48.5 -96q0 -36 -15.5 -64t-33.5 -42.5t-33.5 -33t-15.5 -36.5q0 -20 13 -36.5t33 -27.5t42.5 -27t42.5 -33t33 -47.5t13 -68.5z" />
    <glyph glyph-name="agrave" unicode="&#xe0;" horiz-adv-x="406" 
d="M261 556h-61l-103 144h85zM356 0h-94v62q-15 -35 -41 -54.5t-52 -19.5q-68 0 -103 68t-35 185q0 116 35 185t103 69q28 0 53.5 -19t39.5 -56v63h94v-483zM198 71q20 0 38 20t26 48v204q-8 28 -26 48t-38 20q-70 0 -70 -170t70 -170z" />
    <glyph glyph-name="aacute" unicode="&#xe1;" horiz-adv-x="406" 
d="M310 700l-103 -144h-61l79 144h85zM356 0h-94v62q-15 -35 -41 -54.5t-52 -19.5q-68 0 -103 68t-35 185q0 116 35 185t103 69q28 0 53.5 -19t39.5 -56v63h94v-483zM198 71q20 0 38 20t26 48v204q-8 28 -26 48t-38 20q-70 0 -70 -170t70 -170z" />
    <glyph glyph-name="acircumflex" unicode="&#xe2;" horiz-adv-x="406" 
d="M313 556h-53l-57 98l-53 -98h-54l64 144h87zM356 0h-94v62q-15 -35 -41 -54.5t-52 -19.5q-68 0 -103 68t-35 185q0 116 35 185t103 69q28 0 53.5 -19t39.5 -56v63h94v-483zM198 71q20 0 38 20t26 48v204q-8 28 -26 48t-38 20q-70 0 -70 -170t70 -170z" />
    <glyph glyph-name="atilde" unicode="&#xe3;" horiz-adv-x="406" 
d="M246 554q-18 0 -31 13t-18.5 28.5t-14 28.5t-18.5 13q-32 0 -32 -77h-50q0 59 21 96.5t59 37.5q18 0 31 -13t18.5 -28.5t14 -28.5t18.5 -13q31 0 31 77h50q0 -60 -20.5 -97t-58.5 -37zM356 0h-94v62q-15 -35 -41 -54.5t-52 -19.5q-68 0 -103 68t-35 185q0 116 35 185
t103 69q28 0 53.5 -19t39.5 -56v63h94v-483zM198 71q20 0 38 20t26 48v204q-8 28 -26 48t-38 20q-70 0 -70 -170t70 -170z" />
    <glyph glyph-name="adieresis" unicode="&#xe4;" horiz-adv-x="406" 
d="M334 607q0 -22 -16 -38t-38 -16t-38 15.5t-16 38.5q0 22 16 37.5t38 15.5t38 -15.5t16 -37.5zM180 607q0 -23 -16 -38.5t-38 -15.5t-38 16t-16 38t16 37.5t38 15.5t38 -15.5t16 -37.5zM356 0h-94v62q-15 -35 -41 -54.5t-52 -19.5q-68 0 -103 68t-35 185q0 116 35 185
t103 69q28 0 53.5 -19t39.5 -56v63h94v-483zM198 71q20 0 38 20t26 48v204q-8 28 -26 48t-38 20q-70 0 -70 -170t70 -170z" />
    <glyph glyph-name="aring" unicode="&#xe5;" horiz-adv-x="406" 
d="M205 552q-36 0 -61.5 25.5t-25.5 60.5q0 36 25.5 61.5t61.5 25.5q35 0 60 -25.5t25 -61.5q0 -35 -25 -60.5t-60 -25.5zM205 596q17 0 29.5 12.5t12.5 29.5q0 18 -12.5 30.5t-29.5 12.5q-18 0 -30.5 -12.5t-12.5 -30.5q0 -17 12.5 -29.5t30.5 -12.5zM356 0h-94v62
q-15 -35 -41 -54.5t-52 -19.5q-68 0 -103 68t-35 185q0 116 35 185t103 69q28 0 53.5 -19t39.5 -56v63h94v-483zM198 71q20 0 38 20t26 48v204q-8 28 -26 48t-38 20q-70 0 -70 -170t70 -170z" />
    <glyph glyph-name="ae" unicode="&#xe6;" horiz-adv-x="623" 
d="M356 0h-94v62q-15 -35 -41 -54.5t-52 -19.5q-68 0 -103 68t-35 185q0 116 35 185t103 69q28 0 53.5 -19t39.5 -56v63h94v-63q26 75 96 75q74 0 109 -69t35 -182v-33h-240q1 -66 25.5 -105t73.5 -39q45 0 80 52l48 -58q-44 -73 -114 -73q-85 0 -113 85v-73zM198 71
q20 0 38 20t26 48v204q-8 28 -26 48t-38 20q-70 0 -70 -170t70 -170zM505 278q0 140 -74 140q-40 0 -57.5 -42.5t-17.5 -97.5h149z" />
    <glyph glyph-name="ccedilla" unicode="&#xe7;" horiz-adv-x="333" 
d="M203 -191q-46 0 -82 31l20 41q32 -27 60 -27q18 0 31 10.5t13 27.5q0 30 -26 30q-16 0 -27 -13l-37 21l22 61q-69 12 -107.5 80.5t-38.5 170.5q0 112 46.5 182.5t127.5 70.5q69 0 109 -44l-33 -72q-29 33 -61 33q-45 0 -68.5 -48.5t-23.5 -121.5t23.5 -122t68.5 -49
q32 0 61 33l33 -72q-31 -36 -87 -43l-16 -41q13 10 29 10q24 0 40 -19t16 -48q0 -36 -26.5 -59t-66.5 -23z" />
    <glyph glyph-name="egrave" unicode="&#xe8;" horiz-adv-x="391" 
d="M213 -12q-88 0 -135 70t-47 184q0 111 43.5 182t126.5 71t123 -69.5t40 -181.5v-33h-241q1 -66 26 -106t73 -40q45 0 80 52l49 -51q-56 -78 -138 -78zM272 278q0 140 -74 140q-40 0 -57.5 -42.5t-17.5 -97.5h149zM260 556h-61l-103 144h85z" />
    <glyph glyph-name="eacute" unicode="&#xe9;" horiz-adv-x="391" 
d="M213 -12q-88 0 -135 70t-47 184q0 111 43.5 182t126.5 71t123 -69.5t40 -181.5v-33h-241q1 -66 26 -106t73 -40q45 0 80 52l49 -51q-56 -78 -138 -78zM272 278q0 140 -74 140q-40 0 -57.5 -42.5t-17.5 -97.5h149zM309 700l-103 -144h-61l79 144h85z" />
    <glyph glyph-name="ecircumflex" unicode="&#xea;" horiz-adv-x="391" 
d="M213 -12q-88 0 -135 70t-47 184q0 111 43.5 182t126.5 71t123 -69.5t40 -181.5v-33h-241q1 -66 26 -106t73 -40q45 0 80 52l49 -51q-56 -78 -138 -78zM272 278q0 140 -74 140q-40 0 -57.5 -42.5t-17.5 -97.5h149zM308 556h-53l-57 98l-53 -98h-54l64 144h87z" />
    <glyph glyph-name="edieresis" unicode="&#xeb;" horiz-adv-x="391" 
d="M213 -12q-88 0 -135 70t-47 184q0 111 43.5 182t126.5 71t123 -69.5t40 -181.5v-33h-241q1 -66 26 -106t73 -40q45 0 80 52l49 -51q-56 -78 -138 -78zM272 278q0 140 -74 140q-40 0 -57.5 -42.5t-17.5 -97.5h149zM329 607q0 -22 -16 -38t-38 -16q-23 0 -38.5 15.5
t-15.5 38.5q0 22 16 37.5t38 15.5t38 -15.5t16 -37.5zM175 607q0 -23 -15.5 -38.5t-38.5 -15.5q-22 0 -38 16t-16 38t16 37.5t38 15.5t38 -15.5t16 -37.5z" />
    <glyph glyph-name="igrave" unicode="&#xec;" horiz-adv-x="194" 
d="M155 556h-61l-103 144h85zM144 0h-94v483h94v-483z" />
    <glyph glyph-name="iacute" unicode="&#xed;" horiz-adv-x="194" 
d="M203 700l-103 -144h-61l79 144h85zM144 0h-94v483h94v-483z" />
    <glyph glyph-name="icircumflex" unicode="&#xee;" horiz-adv-x="194" 
d="M206 556h-53l-57 98l-53 -98h-54l64 144h87zM144 0h-94v483h94v-483z" />
    <glyph glyph-name="idieresis" unicode="&#xef;" horiz-adv-x="194" 
d="M228 607q0 -22 -16 -38t-38 -16t-38 15.5t-16 38.5q0 22 16 37.5t38 15.5t38 -15.5t16 -37.5zM74 607q0 -23 -16 -38.5t-38 -15.5t-38 16t-16 38t16 37.5t38 15.5t38 -15.5t16 -37.5zM144 0h-94v483h94v-483z" />
    <glyph glyph-name="eth" unicode="&#xf0;" 
d="M129 504l-22 47l95 42q-20 42 -34 64l83 39q21 -37 35 -66l67 30l20 -46l-66 -30q63 -154 63 -320q0 -127 -41.5 -201.5t-127.5 -74.5q-85 0 -127.5 69.5t-42.5 173.5q0 102 37.5 171.5t107.5 69.5q60 0 89 -65q-12 65 -42 139zM201 71q72 0 72 160q0 158 -72 158
t-72 -158q0 -160 72 -160z" />
    <glyph glyph-name="ntilde" unicode="&#xf1;" 
d="M352 0h-94v356q0 56 -41 56q-23 0 -42.5 -20.5t-30.5 -49.5v-342h-94v483h94v-65q16 31 47.5 54t63.5 23q97 0 97 -108v-387zM245 554q-18 0 -31 13t-18.5 28.5t-14 28.5t-18.5 13q-32 0 -32 -77h-50q0 59 21 96.5t59 37.5q18 0 31 -13t18.5 -28.5t14 -28.5t18.5 -13
q31 0 31 77h50q0 -60 -20.5 -97t-58.5 -37z" />
    <glyph glyph-name="ograve" unicode="&#xf2;" 
d="M201 -12q-85 0 -127.5 72.5t-42.5 181.5t42.5 181t127.5 72t127 -72t42 -181t-42 -181.5t-127 -72.5zM201 71q72 0 72 171q0 170 -72 170t-72 -170q0 -171 72 -171zM259 556h-61l-103 144h85z" />
    <glyph glyph-name="oacute" unicode="&#xf3;" 
d="M201 -12q-85 0 -127.5 72.5t-42.5 181.5t42.5 181t127.5 72t127 -72t42 -181t-42 -181.5t-127 -72.5zM201 71q72 0 72 171q0 170 -72 170t-72 -170q0 -171 72 -171zM308 700l-103 -144h-61l79 144h85z" />
    <glyph glyph-name="ocircumflex" unicode="&#xf4;" 
d="M201 -12q-85 0 -127.5 72.5t-42.5 181.5t42.5 181t127.5 72t127 -72t42 -181t-42 -181.5t-127 -72.5zM201 71q72 0 72 171q0 170 -72 170t-72 -170q0 -171 72 -171zM310 556h-53l-57 98l-53 -98h-54l64 144h87z" />
    <glyph glyph-name="otilde" unicode="&#xf5;" 
d="M201 -12q-85 0 -127.5 72.5t-42.5 181.5t42.5 181t127.5 72t127 -72t42 -181t-42 -181.5t-127 -72.5zM201 71q72 0 72 171q0 170 -72 170t-72 -170q0 -171 72 -171zM243 554q-18 0 -31 13t-18.5 28.5t-14 28.5t-18.5 13q-32 0 -32 -77h-50q0 59 21 96.5t59 37.5
q18 0 31 -13t18.5 -28.5t14 -28.5t18.5 -13q31 0 31 77h50q0 -60 -20.5 -97t-58.5 -37z" />
    <glyph glyph-name="odieresis" unicode="&#xf6;" 
d="M201 -12q-85 0 -127.5 72.5t-42.5 181.5t42.5 181t127.5 72t127 -72t42 -181t-42 -181.5t-127 -72.5zM201 71q72 0 72 171q0 170 -72 170t-72 -170q0 -171 72 -171zM332 607q0 -22 -16 -38t-38 -16t-38 15.5t-16 38.5q0 22 16 37.5t38 15.5t38 -15.5t16 -37.5zM178 607
q0 -23 -16 -38.5t-38 -15.5t-38 16t-16 38t16 37.5t38 15.5t38 -15.5t16 -37.5z" />
    <glyph glyph-name="divide" unicode="&#xf7;" horiz-adv-x="374" 
d="M239 480q0 -21 -15 -36.5t-36 -15.5t-36 15.5t-15 36.5t15 36t36 15t36 -15t15 -36zM345 306h-316v62h316v-62zM239 191q0 -21 -15 -36t-36 -15t-36 15t-15 36q0 22 15 37t36 15t36 -15t15 -37z" />
    <glyph glyph-name="oslash" unicode="&#xf8;" 
d="M95 0h-56l34 61q-42 68 -42 181q0 109 42.5 181t127.5 72q55 0 94 -34l13 22h55l-34 -62q41 -69 41 -179q0 -109 -42 -181.5t-127 -72.5q-56 0 -94 33zM129 242q0 -42 4 -73l117 210q-18 33 -49 33q-72 0 -72 -170zM201 71q72 0 72 171q0 42 -4 71l-117 -210
q18 -32 49 -32z" />
    <glyph glyph-name="ugrave" unicode="&#xf9;" 
d="M352 0h-94v63q-16 -31 -46.5 -53t-64.5 -22q-97 0 -97 107v388h94v-357q0 -55 41 -55q23 0 43 20t30 48v344h94v-483zM260 556h-61l-103 144h85z" />
    <glyph glyph-name="uacute" unicode="&#xfa;" 
d="M352 0h-94v63q-16 -31 -46.5 -53t-64.5 -22q-97 0 -97 107v388h94v-357q0 -55 41 -55q23 0 43 20t30 48v344h94v-483zM308 700l-103 -144h-61l79 144h85z" />
    <glyph glyph-name="ucircumflex" unicode="&#xfb;" 
d="M352 0h-94v63q-16 -31 -46.5 -53t-64.5 -22q-97 0 -97 107v388h94v-357q0 -55 41 -55q23 0 43 20t30 48v344h94v-483zM310 556h-53l-57 98l-53 -98h-54l64 144h87z" />
    <glyph glyph-name="udieresis" unicode="&#xfc;" 
d="M352 0h-94v63q-16 -31 -46.5 -53t-64.5 -22q-97 0 -97 107v388h94v-357q0 -55 41 -55q23 0 43 20t30 48v344h94v-483zM334 607q0 -22 -16 -38t-38 -16t-38 15.5t-16 38.5q0 22 16 37.5t38 15.5t38 -15.5t16 -37.5zM180 607q0 -23 -16 -38.5t-38 -15.5t-38 16t-16 38
t16 37.5t38 15.5t38 -15.5t16 -37.5z" />
    <glyph glyph-name="yacute" unicode="&#xfd;" 
d="M307 700l-103 -144h-61l79 144h85zM188 -196q-90 0 -139 51l34 78q42 -46 97 -46q37 0 57.5 28.5t20.5 81.5v79q-16 -32 -46.5 -53.5t-64.5 -21.5q-97 0 -97 107v375h94v-344q0 -55 41 -55q23 0 43 20t30 48v331h94v-486q0 -92 -41.5 -142.5t-122.5 -50.5z" />
    <glyph glyph-name="thorn" unicode="&#xfe;" horiz-adv-x="406" 
d="M237 -12q-65 0 -93 72v-244h-94v851h94v-243q31 71 93 71q68 0 103 -68t35 -185q0 -116 -35 -185t-103 -69zM209 71q69 0 69 171q0 170 -69 170q-20 0 -38.5 -19t-26.5 -48v-206q9 -28 27 -48t38 -20z" />
    <glyph glyph-name="ydieresis" unicode="&#xff;" 
d="M332 607q0 -22 -16 -38t-38 -16t-38 15.5t-16 38.5q0 22 16 37.5t38 15.5t38 -15.5t16 -37.5zM178 607q0 -23 -16 -38.5t-38 -15.5t-38 16t-16 38t16 37.5t38 15.5t38 -15.5t16 -37.5zM188 -196q-90 0 -139 51l34 78q42 -46 97 -46q37 0 57.5 28.5t20.5 81.5v79
q-16 -32 -46.5 -53.5t-64.5 -21.5q-97 0 -97 107v375h94v-344q0 -55 41 -55q23 0 43 20t30 48v331h94v-486q0 -92 -41.5 -142.5t-122.5 -50.5z" />
    <glyph glyph-name="dotlessi" unicode="&#x131;" horiz-adv-x="194" 
d="M144 0h-94v483h94v-483z" />
    <glyph glyph-name="Lslash" unicode="&#x141;" horiz-adv-x="362" 
d="M18 231v88l50 29v319h104v-259l59 34v-87l-59 -35v-228h169v-92h-273v260z" />
    <glyph glyph-name="lslash" unicode="&#x142;" horiz-adv-x="251" 
d="M18 246v72l52 29v320h94v-266l51 29v-71l-51 -29v-210q0 -49 28 -49q18 0 30 15l22 -72q-26 -26 -75 -26q-52 0 -75.5 28t-23.5 87v173z" />
    <glyph glyph-name="OE" unicode="&#x152;" horiz-adv-x="616" 
d="M580 0h-273v57q-31 -69 -97 -69q-61 0 -101 47t-56.5 122t-16.5 176t16.5 176t56.5 121.5t101 46.5q66 0 97 -67v57h273v-92h-168v-189h161v-92h-161v-202h168v-92zM307 185v296q-22 103 -77 103q-87 0 -87 -251q0 -252 87 -252q26 0 46 27t31 77z" />
    <glyph glyph-name="oe" unicode="&#x153;" horiz-adv-x="632" 
d="M605 211h-240q1 -67 25.5 -106.5t72.5 -39.5q47 0 80 52l49 -51q-54 -78 -137 -78q-91 0 -132 98q-40 -98 -122 -98q-85 0 -127.5 72.5t-42.5 181.5t42.5 181t127.5 72q82 0 121 -95q38 95 120 95q83 0 123 -70t40 -183v-31zM365 278h149q0 140 -74 140
q-40 0 -57.5 -42.5t-17.5 -97.5zM273 242q0 170 -72 170t-72 -170q0 -171 72 -171t72 171z" />
    <glyph glyph-name="Scaron" unicode="&#x160;" horiz-adv-x="369" 
d="M251 728h-87l-67 144h54l56 -98l54 98h53zM175 -12q-100 0 -159 64l47 82q41 -53 106 -53q33 0 54 24t21 62q0 36 -21.5 66t-52.5 53.5t-62 49.5t-52.5 68.5t-21.5 96.5q0 76 47 126.5t125 50.5q81 0 134 -51l-42 -80q-37 38 -89 38q-30 0 -49.5 -21.5t-19.5 -56.5
q0 -31 21.5 -59t52.5 -52t62 -52t52.5 -72t21.5 -99q0 -81 -48 -133t-127 -52z" />
    <glyph glyph-name="scaron" unicode="&#x161;" horiz-adv-x="330" 
d="M162 -12q-97 0 -146 62l41 65q43 -52 97 -52q28 0 46.5 16.5t18.5 43.5q0 25 -19.5 44t-46.5 34.5t-54.5 34t-47 51.5t-19.5 78q0 56 38.5 93t104.5 37q77 0 130 -56l-40 -63q-33 44 -88 44q-25 0 -41 -15t-16 -37q0 -23 19.5 -41.5t47 -33.5t55 -34t47 -53t19.5 -80
q0 -61 -41.5 -99.5t-104.5 -38.5zM215 556h-87l-67 144h54l56 -98l54 98h53z" />
    <glyph glyph-name="Ydieresis" unicode="&#x178;" horiz-adv-x="405" 
d="M336 778q0 -22 -16 -38t-38 -16t-38 16t-16 38t16 37.5t38 15.5t38 -15.5t16 -37.5zM182 778q0 -22 -16 -38t-38 -16t-38 16t-16 38t16 37.5t38 15.5t38 -15.5t16 -37.5zM255 0h-104v279l-154 388h112l94 -285l95 285h110l-153 -388v-279z" />
    <glyph glyph-name="Zcaron" unicode="&#x17d;" horiz-adv-x="360" 
d="M226 728h-87l-67 144h54l56 -98l54 98h53zM330 0h-299v89l175 486h-175v92h292v-85l-178 -490h185v-92z" />
    <glyph glyph-name="zcaron" unicode="&#x17e;" horiz-adv-x="321" 
d="M291 0h-261v72l146 329h-146v82h257v-69l-146 -332h150v-82zM203 556h-87l-67 144h54l56 -98l54 98h53z" />
    <glyph glyph-name="florin" unicode="&#x192;" horiz-adv-x="383" 
d="M123 -161h-106l90 409h-44v84h63l50 225q11 53 51.5 86.5t92.5 33.5q48 0 73 -24l-33 -81q-10 13 -30 13q-42 0 -53 -53l-44 -200h83v-84h-102z" />
    <glyph glyph-name="circumflex" unicode="&#x2c6;" horiz-adv-x="217" 
d="M217 556h-53l-57 98l-53 -98h-54l64 144h87z" />
    <glyph glyph-name="caron" unicode="&#x2c7;" horiz-adv-x="217" 
d="M154 556h-87l-67 144h54l56 -98l54 98h53z" />
    <glyph glyph-name="breve" unicode="&#x2d8;" horiz-adv-x="244" 
d="M244 622q-45 -61 -122 -61t-122 61l46 35q26 -40 76 -40t76 40z" />
    <glyph glyph-name="dotaccent" unicode="&#x2d9;" horiz-adv-x="134" 
d="M67 566q-22 0 -38 16t-16 38t16 38t38 16q23 0 38.5 -16t15.5 -38t-15.5 -38t-38.5 -16z" />
    <glyph glyph-name="ring" unicode="&#x2da;" horiz-adv-x="172" 
d="M87 552q-36 0 -61.5 25.5t-25.5 60.5q0 36 25.5 61.5t61.5 25.5q35 0 60 -25.5t25 -61.5q0 -35 -25 -60.5t-60 -25.5zM87 596q17 0 29.5 12.5t12.5 29.5q0 18 -12.5 30.5t-29.5 12.5q-18 0 -30.5 -12.5t-12.5 -30.5q0 -17 12.5 -29.5t30.5 -12.5z" />
    <glyph glyph-name="ogonek" unicode="&#x2db;" horiz-adv-x="148" 
d="M106 -111l42 -22q-19 -53 -72 -53q-35 0 -55.5 20t-20.5 59q0 74 74 132l38 -25q-61 -43 -61 -104q0 -38 26 -38q22 0 29 31z" />
    <glyph glyph-name="tilde" unicode="&#x2dc;" horiz-adv-x="243" 
d="M164 554q-18 0 -31 13t-18.5 28.5t-14 28.5t-18.5 13q-32 0 -32 -77h-50q0 59 21 96.5t59 37.5q18 0 31 -13t18.5 -28.5t14 -28.5t18.5 -13q31 0 31 77h50q0 -60 -20.5 -97t-58.5 -37z" />
    <glyph glyph-name="hungarumlaut" unicode="&#x2dd;" horiz-adv-x="252" 
d="M129 700l-79 -144h-50l55 144h74zM252 700l-79 -144h-50l55 144h74z" />
    <glyph glyph-name="pi" unicode="&#x3c0;" horiz-adv-x="394" 
d="M338 0h-95v417h-93v-417h-95v417h-37v83h358v-83h-38v-417z" />
    <glyph glyph-name="endash" unicode="&#x2013;" horiz-adv-x="460" 
d="M430 201h-400v82h400v-82z" />
    <glyph glyph-name="emdash" unicode="&#x2014;" horiz-adv-x="640" 
d="M610 201h-580v82h580v-82z" />
    <glyph glyph-name="quoteleft" unicode="&#x2018;" horiz-adv-x="241" 
d="M51 515q0 48 24.5 91t64.5 71l44 -35q-25 -15 -45.5 -42t-24.5 -52q9 3 16 3q23 0 39 -17t16 -42q0 -26 -18.5 -44.5t-44.5 -18.5q-30 0 -50.5 23t-20.5 63z" />
    <glyph glyph-name="quoteright" unicode="&#x2019;" horiz-adv-x="241" 
d="M189 591q0 -48 -24.5 -91t-64.5 -71l-43 35q25 15 45 42t24 52q-6 -3 -15 -3q-24 0 -40 17t-16 42q0 26 18.5 44.5t44.5 18.5q30 0 50.5 -23t20.5 -63z" />
    <glyph glyph-name="quotesinglbase" unicode="&#x201a;" horiz-adv-x="241" 
d="M189 32q0 -48 -24.5 -91t-64.5 -71l-43 35q25 15 45 42t24 52q-4 -2 -15 -2q-24 0 -40 16.5t-16 41.5q0 26 18.5 44.5t44.5 18.5q30 0 50.5 -23t20.5 -63z" />
    <glyph glyph-name="quotedblleft" unicode="&#x201c;" horiz-adv-x="416" 
d="M52 515q0 48 24 91t64 71l44 -35q-25 -15 -45 -42t-24 -52q6 3 15 3q23 0 39 -17t16 -42q0 -26 -18 -44.5t-44 -18.5q-30 0 -50.5 23t-20.5 63zM227 515q0 48 24.5 91t64.5 71l44 -35q-25 -16 -45 -42.5t-24 -51.5q6 3 15 3q23 0 39 -17t16 -42q0 -26 -18.5 -44.5
t-43.5 -18.5q-30 0 -51 23t-21 63z" />
    <glyph glyph-name="quotedblright" unicode="&#x201d;" horiz-adv-x="416" 
d="M365 591q0 -48 -24.5 -91t-64.5 -71l-44 35q25 16 45 42.5t24 51.5q-6 -3 -15 -3q-23 0 -39 17t-16 42q0 26 18.5 44.5t44.5 18.5q30 0 50.5 -23t20.5 -63zM189 591q0 -48 -24.5 -91t-64.5 -71l-43 35q25 15 45 42t24 52q-6 -3 -15 -3q-24 0 -40 17t-16 42
q0 26 18.5 44.5t44.5 18.5q30 0 50.5 -23t20.5 -63z" />
    <glyph glyph-name="quotedblbase" unicode="&#x201e;" horiz-adv-x="416" 
d="M189 32q0 -48 -24.5 -91t-64.5 -71l-43 35q25 15 45 42t24 52q-4 -2 -15 -2q-24 0 -40 16.5t-16 41.5q0 26 18.5 44.5t44.5 18.5q30 0 50.5 -23t20.5 -63zM365 32q0 -48 -24.5 -91t-64.5 -71l-44 35q25 16 45 42.5t24 51.5q-4 -2 -15 -2q-23 0 -39 16.5t-16 41.5
q0 26 18.5 44.5t44.5 18.5q30 0 50.5 -23t20.5 -63z" />
    <glyph glyph-name="dagger" unicode="&#x2020;" horiz-adv-x="268" 
d="M246 528l-89 4l4 -205h-55l5 205l-89 -4v50l89 -3l-5 102h55l-4 -102l89 3v-50z" />
    <glyph glyph-name="daggerdbl" unicode="&#x2021;" horiz-adv-x="268" 
d="M246 578v-50l-89 4v-206l89 4v-50l-89 3l4 -103h-55l4 103l-88 -3v50l88 -4v206l-88 -4v50l88 -3l-4 102h55l-4 -102z" />
    <glyph glyph-name="bullet" unicode="&#x2022;" horiz-adv-x="358" 
d="M292 242q0 -46 -33 -78.5t-79 -32.5t-79 32.5t-33 78.5t33 79t79 33t79 -33t33 -79z" />
    <glyph glyph-name="ellipsis" unicode="&#x2026;" horiz-adv-x="717" 
d="M184 54q0 -26 -19 -45.5t-46 -19.5q-26 0 -45 19.5t-19 45.5t19 45t45 19q27 0 46 -19t19 -45zM423 54q0 -26 -19 -45.5t-46 -19.5q-26 0 -45 19.5t-19 45.5t19 45t45 19q27 0 46 -19t19 -45zM662 54q0 -26 -19 -45.5t-46 -19.5q-26 0 -45 19.5t-19 45.5t19 45t45 19
q27 0 46 -19t19 -45z" />
    <glyph glyph-name="perthousand" unicode="&#x2030;" horiz-adv-x="855" 
d="M276 511q0 -71 -34.5 -117.5t-91.5 -46.5t-91.5 46.5t-34.5 117.5q0 72 34.5 119t91.5 47t91.5 -47t34.5 -119zM452 667l-277 -667h-46l276 667h47zM556 152q0 -71 -34.5 -117.5t-91.5 -46.5t-91.5 46.5t-34.5 117.5q0 72 34.5 119t91.5 47t91.5 -47t34.5 -119zM210 511
q0 47 -16 76t-44 29t-44 -29t-16 -76q0 -46 16 -75t44 -29t44 29t16 75zM490 152q0 47 -16 76t-44 29t-44 -29t-16 -76q0 -46 16 -74.5t44 -28.5t44 28.5t16 74.5zM831 152q0 -71 -34.5 -117.5t-91.5 -46.5t-91 46.5t-34 117.5q0 72 34 119t91 47t91.5 -47t34.5 -119z
M765 152q0 47 -16 76t-44 29t-44 -29t-16 -76q0 -46 16 -74.5t44 -28.5t44 28.5t16 74.5z" />
    <glyph glyph-name="guilsinglleft" unicode="&#x2039;" horiz-adv-x="225" 
d="M195 63h-75l-90 180l90 177h75l-90 -177z" />
    <glyph glyph-name="guilsinglright" unicode="&#x203a;" horiz-adv-x="225" 
d="M195 243l-90 -180h-75l90 180l-90 177h75z" />
    <glyph glyph-name="fraction" unicode="&#x2044;" horiz-adv-x="125" 
d="M224 667l-277 -667h-46l276 667h47z" />
    <glyph glyph-name="Euro" unicode="&#x20ac;" horiz-adv-x="427" 
d="M245 -12q-81 0 -128 65.5t-61 179.5h-41v61h37q-1 12 -1 39t1 41h-37v62h42q13 112 60 177t128 65q35 0 62 -12.5t45 -35.5t28.5 -45t19.5 -52l-84 -31q-12 42 -28 62.5t-43 20.5q-67 0 -82 -149h108v-62h-113v-41v-39h113v-61h-109q17 -152 83 -152q54 0 72 99l85 -31
q-39 -161 -157 -161z" />
    <glyph glyph-name="trademark" unicode="&#x2122;" horiz-adv-x="374" 
d="M339 447h-28v182l-55 -182h-8l-55 182v-182h-28v220h43l44 -157l44 157h43v-220zM129 641h-42v-194h-28v194h-42v26h112v-26z" />
    <glyph glyph-name="Omega" unicode="&#x2126;" horiz-adv-x="447" 
d="M40 0v92h83q-93 91 -93 262q0 151 48.5 237.5t145.5 86.5q96 0 145 -86.5t49 -237.5q0 -170 -94 -262h83v-92h-153v92q21 15 38.5 83t17.5 158q0 251 -86 251q-87 0 -87 -251q0 -91 17.5 -159.5t39.5 -81.5v-92h-154z" />
    <glyph glyph-name="partialdiff" unicode="&#x2202;" 
d="M201 -12q-85 0 -127.5 69.5t-42.5 173.5q0 102 37.5 171.5t107.5 69.5q60 0 89 -65q-26 138 -96 236l80 38q121 -188 121 -439q0 -112 -42 -183t-127 -71zM201 71q72 0 72 160q0 158 -72 158t-72 -158q0 -160 72 -160z" />
    <glyph glyph-name="Delta" unicode="&#x2206;" horiz-adv-x="421" 
d="M418 0h-415l147 667h121zM297 92l-87 456l-86 -456h173z" />
    <glyph glyph-name="product" unicode="&#x220f;" horiz-adv-x="477" 
d="M407 -90h-104v665h-129v-665h-104v665h-52v92h441v-92h-52v-665z" />
    <glyph glyph-name="summation" unicode="&#x2211;" horiz-adv-x="347" 
d="M146 575l113 -277l-116 -296h173v-92h-278v96l114 293l-114 276v92h278v-92h-170z" />
    <glyph glyph-name="minus" unicode="&#x2212;" horiz-adv-x="381" 
d="M352 303h-323v62h323v-62z" />
    <glyph glyph-name="radical" unicode="&#x221a;" horiz-adv-x="465" 
d="M289 0h-68l-68 309l-102 -21l-11 61l158 31l58 -285l128 572h63z" />
    <glyph glyph-name="infinity" unicode="&#x221e;" horiz-adv-x="488" 
d="M141 166q-55 0 -83.5 50t-28.5 119t28.5 119.5t83.5 50.5q67 0 103 -104q15 45 42 74t61 29q55 0 83.5 -50t28.5 -119t-28.5 -119t-83.5 -50q-34 0 -61 29t-42 75q-36 -104 -103 -104zM337 228q29 0 45 29.5t16 77.5q0 49 -16 78.5t-45 29.5q-42 0 -66 -108
q24 -107 66 -107zM151 228q41 0 67 107q-26 108 -67 108q-29 0 -45.5 -29.5t-16.5 -78.5q0 -48 16.5 -77.5t45.5 -29.5z" />
    <glyph glyph-name="integral" unicode="&#x222b;" horiz-adv-x="240" 
d="M46 -100h-29v65h29q17 0 28 13.5t11 33.5v643q0 49 32.5 81t76.5 32h29v-66h-29q-16 0 -27.5 -13t-11.5 -34v-643q0 -49 -32.5 -80.5t-76.5 -31.5z" />
    <glyph glyph-name="approxequal" unicode="&#x2248;" horiz-adv-x="381" 
d="M29 207v66q37 -20 81 -20q33 0 76.5 17t84.5 17q47 0 81 -15v-65q-35 19 -81 19q-33 0 -77 -17.5t-84 -17.5q-44 0 -81 16zM29 396v65q35 -19 81 -19q33 0 76.5 17t84.5 17q47 0 81 -15v-66q-35 19 -81 19q-33 0 -77 -17t-84 -17q-44 0 -81 16z" />
    <glyph glyph-name="notequal" unicode="&#x2260;" horiz-adv-x="381" 
d="M113 93h-46l47 114h-85v62h111l54 130h-165v62h191l47 113h47l-47 -113h85v-62h-111l-55 -130h166v-62h-192z" />
    <glyph glyph-name="lessequal" unicode="&#x2264;" horiz-adv-x="381" 
d="M352 158l-323 143v67l323 143v-73l-249 -104l249 -102v-74zM352 35h-323v61h323v-61z" />
    <glyph glyph-name="greaterequal" unicode="&#x2265;" horiz-adv-x="381" 
d="M352 301l-323 -143v74l249 102l-249 104v73l323 -143v-67zM352 35h-323v61h323v-61z" />
    <glyph glyph-name="lozenge" unicode="&#x25ca;" horiz-adv-x="375" 
d="M198 0h-21l-158 334l158 333h21l158 -333zM188 41l132 293l-133 292l-132 -292z" />
    <glyph glyph-name="apple" unicode="&#xf8ff;" horiz-adv-x="667" 
d="M224 154v71h-71q-29 0 -49.5 -21t-20.5 -50q0 -30 20.5 -51t49.5 -21t50 21t21 51zM224 442v72q0 29 -20.5 50t-49.5 21q-30 0 -50.5 -21t-20.5 -50q0 -30 20.5 -51t50.5 -21h70zM265 265h137v137h-137v-137zM584 154q0 29 -20.5 50t-49.5 21h-71v-71q0 -30 21 -51
t50 -21t49.5 21t20.5 51zM584 514q0 29 -20.5 50t-49.5 21t-50 -21t-21 -50v-72h71q29 0 49.5 21.5t20.5 50.5zM625 154q0 -46 -32.5 -79t-78.5 -33t-79 33t-33 79v71h-137v-71q0 -46 -33 -79t-79 -33t-78.5 33t-32.5 79t32.5 78.5t78.5 32.5h71v137h-70q-46 0 -79 33
t-33 79t33 78.5t79 32.5t78.5 -32.5t32.5 -78.5v-72h137v72q0 46 33 78.5t79 32.5t78.5 -32.5t32.5 -78.5t-32.5 -79t-78.5 -33h-71v-137h71q46 0 78.5 -32.5t32.5 -78.5z" />
    <hkern u1="O" u2="&#xc6;" k="6" />
    <hkern u1="O" u2="&#xc5;" k="6" />
    <hkern u1="O" u2="&#xc4;" k="6" />
    <hkern u1="Q" u2="&#xc6;" k="6" />
    <hkern u1="Q" u2="&#xc5;" k="6" />
    <hkern u1="Q" u2="&#xc4;" k="6" />
    <hkern u1="a" u2="&#x178;" k="39" />
    <hkern u1="a" u2="&#xdd;" k="39" />
    <hkern u1="a" u2="Y" k="39" />
    <hkern u1="a" u2="W" k="14" />
    <hkern u1="a" u2="V" k="13" />
    <hkern u1="a" u2="T" k="32" />
    <hkern u1="a" u2="&#x3f;" k="26" />
    <hkern u1="h" u2="&#x178;" k="49" />
    <hkern u1="h" u2="&#xdd;" k="49" />
    <hkern u1="h" u2="Y" k="49" />
    <hkern u1="h" u2="W" k="17" />
    <hkern u1="h" u2="V" k="23" />
    <hkern u1="h" u2="T" k="44" />
    <hkern u1="h" u2="&#x3f;" k="36" />
    <hkern u1="m" u2="&#x178;" k="49" />
    <hkern u1="m" u2="&#xdd;" k="49" />
    <hkern u1="m" u2="Y" k="49" />
    <hkern u1="m" u2="W" k="17" />
    <hkern u1="m" u2="V" k="23" />
    <hkern u1="m" u2="T" k="44" />
    <hkern u1="m" u2="&#x3f;" k="36" />
    <hkern u1="&#xd0;" u2="&#xc6;" k="6" />
    <hkern u1="&#xd0;" u2="&#xc5;" k="6" />
    <hkern u1="&#xd0;" u2="&#xc4;" k="6" />
    <hkern u1="&#xd2;" u2="&#xc6;" k="6" />
    <hkern u1="&#xd2;" u2="&#xc5;" k="6" />
    <hkern u1="&#xd2;" u2="&#xc4;" k="6" />
    <hkern u1="&#xd3;" u2="&#xc6;" k="6" />
    <hkern u1="&#xd3;" u2="&#xc5;" k="6" />
    <hkern u1="&#xd3;" u2="&#xc4;" k="6" />
    <hkern u1="&#xd4;" u2="&#xc6;" k="6" />
    <hkern u1="&#xd4;" u2="&#xc5;" k="6" />
    <hkern u1="&#xd4;" u2="&#xc4;" k="6" />
    <hkern u1="&#xd5;" u2="&#xc6;" k="6" />
    <hkern u1="&#xd5;" u2="&#xc5;" k="6" />
    <hkern u1="&#xd5;" u2="&#xc4;" k="6" />
    <hkern u1="&#xd6;" u2="&#xc6;" k="6" />
    <hkern u1="&#xd6;" u2="&#xc5;" k="6" />
    <hkern u1="&#xd6;" u2="&#xc4;" k="6" />
    <hkern u1="&#xd8;" u2="&#xc6;" k="6" />
    <hkern u1="&#xd8;" u2="&#xc5;" k="6" />
    <hkern u1="&#xd8;" u2="&#xc4;" k="6" />
    <hkern u1="&#xde;" u2="&#xc6;" k="6" />
    <hkern u1="&#xde;" u2="&#xc5;" k="6" />
    <hkern u1="&#xde;" u2="&#xc4;" k="6" />
    <hkern g1="A,Agrave,Aacute,Acircumflex,Atilde,Adieresis,Aring,Delta"
	g2="asterisk"
	k="39" />
    <hkern g1="A,Agrave,Aacute,Acircumflex,Atilde,Adieresis,Aring,Delta"
	g2="question"
	k="36" />
    <hkern g1="A,Agrave,Aacute,Acircumflex,Atilde,Adieresis,Aring,Delta"
	g2="C,G,O,Q,Ccedilla,Ograve,Oacute,Ocircumflex,Otilde,Odieresis,Oslash,OE"
	k="6" />
    <hkern g1="A,Agrave,Aacute,Acircumflex,Atilde,Adieresis,Aring,Delta"
	g2="T"
	k="29" />
    <hkern g1="A,Agrave,Aacute,Acircumflex,Atilde,Adieresis,Aring,Delta"
	g2="V"
	k="13" />
    <hkern g1="A,Agrave,Aacute,Acircumflex,Atilde,Adieresis,Aring,Delta"
	g2="W"
	k="9" />
    <hkern g1="A,Agrave,Aacute,Acircumflex,Atilde,Adieresis,Aring,Delta"
	g2="Y,Yacute,Ydieresis"
	k="23" />
    <hkern g1="A,Agrave,Aacute,Acircumflex,Atilde,Adieresis,Aring,Delta"
	g2="t"
	k="6" />
    <hkern g1="A,Agrave,Aacute,Acircumflex,Atilde,Adieresis,Aring,Delta"
	g2="v"
	k="9" />
    <hkern g1="A,Agrave,Aacute,Acircumflex,Atilde,Adieresis,Aring,Delta"
	g2="dagger"
	k="39" />
    <hkern g1="A,Agrave,Aacute,Acircumflex,Atilde,Adieresis,Aring,Delta"
	g2="quotedbl,quotesingle,registered,quoteleft,quoteright,quotedblleft,quotedblright,trademark"
	k="37" />
    <hkern g1="A,Agrave,Aacute,Acircumflex,Atilde,Adieresis,Aring,Delta"
	g2="daggerdbl"
	k="9" />
    <hkern g1="B"
	g2="T"
	k="6" />
    <hkern g1="B"
	g2="V"
	k="10" />
    <hkern g1="B"
	g2="Y,Yacute,Ydieresis"
	k="20" />
    <hkern g1="C,Ccedilla"
	g2="question"
	k="6" />
    <hkern g1="C,Ccedilla"
	g2="Y,Yacute,Ydieresis"
	k="14" />
    <hkern g1="C,Ccedilla"
	g2="t"
	k="12" />
    <hkern g1="C,Ccedilla"
	g2="v"
	k="12" />
    <hkern g1="C,Ccedilla"
	g2="comma,period,quotesinglbase,quotedblbase,ellipsis"
	k="10" />
    <hkern g1="C,Ccedilla"
	g2="w"
	k="12" />
    <hkern g1="C,Ccedilla"
	g2="f,fi,fl"
	k="6" />
    <hkern g1="D,O,Q,Eth,Ograve,Oacute,Ocircumflex,Otilde,Odieresis,Oslash,Thorn"
	g2="question"
	k="12" />
    <hkern g1="D,O,Q,Eth,Ograve,Oacute,Ocircumflex,Otilde,Odieresis,Oslash,Thorn"
	g2="T"
	k="10" />
    <hkern g1="D,O,Q,Eth,Ograve,Oacute,Ocircumflex,Otilde,Odieresis,Oslash,Thorn"
	g2="Y,Yacute,Ydieresis"
	k="19" />
    <hkern g1="D,O,Q,Eth,Ograve,Oacute,Ocircumflex,Otilde,Odieresis,Oslash,Thorn"
	g2="quotedbl,quotesingle,registered,quoteleft,quoteright,quotedblleft,quotedblright,trademark"
	k="14" />
    <hkern g1="D,O,Q,Eth,Ograve,Oacute,Ocircumflex,Otilde,Odieresis,Oslash,Thorn"
	g2="comma,period,quotesinglbase,quotedblbase,ellipsis"
	k="20" />
    <hkern g1="D,O,Q,Eth,Ograve,Oacute,Ocircumflex,Otilde,Odieresis,Oslash,Thorn"
	g2="A,Agrave,Aacute,Acircumflex,Atilde,Adieresis,Aring,AE,Delta"
	k="6" />
    <hkern g1="D,O,Q,Eth,Ograve,Oacute,Ocircumflex,Otilde,Odieresis,Oslash,Thorn"
	g2="J"
	k="20" />
    <hkern g1="D,O,Q,Eth,Ograve,Oacute,Ocircumflex,Otilde,Odieresis,Oslash,Thorn"
	g2="X"
	k="14" />
    <hkern g1="D,O,Q,Eth,Ograve,Oacute,Ocircumflex,Otilde,Odieresis,Oslash,Thorn"
	g2="Z,Zcaron"
	k="10" />
    <hkern g1="F"
	g2="comma,period,quotesinglbase,quotedblbase,ellipsis"
	k="60" />
    <hkern g1="F"
	g2="A,Agrave,Aacute,Acircumflex,Atilde,Adieresis,Aring,AE,Delta"
	k="26" />
    <hkern g1="F"
	g2="J"
	k="64" />
    <hkern g1="F"
	g2="ampersand"
	k="26" />
    <hkern g1="G"
	g2="question"
	k="12" />
    <hkern g1="G"
	g2="T"
	k="10" />
    <hkern g1="G"
	g2="Y,Yacute,Ydieresis"
	k="13" />
    <hkern g1="K"
	g2="C,G,O,Q,Ccedilla,Ograve,Oacute,Ocircumflex,Otilde,Odieresis,Oslash,OE"
	k="24" />
    <hkern g1="K"
	g2="t"
	k="24" />
    <hkern g1="K"
	g2="v"
	k="40" />
    <hkern g1="K"
	g2="w"
	k="40" />
    <hkern g1="K"
	g2="f,fi,fl"
	k="20" />
    <hkern g1="K"
	g2="hyphen,periodcentered,endash,emdash"
	k="24" />
    <hkern g1="K"
	g2="c,d,e,g,o,q,ccedilla,eth,oslash,oe"
	k="30" />
    <hkern g1="K"
	g2="u"
	k="16" />
    <hkern g1="K"
	g2="x"
	k="26" />
    <hkern g1="K"
	g2="a,ae"
	k="30" />
    <hkern g1="K"
	g2="y,yacute,ydieresis"
	k="16" />
    <hkern g1="L,Lslash"
	g2="asterisk"
	k="94" />
    <hkern g1="L,Lslash"
	g2="question"
	k="49" />
    <hkern g1="L,Lslash"
	g2="C,G,O,Q,Ccedilla,Ograve,Oacute,Ocircumflex,Otilde,Odieresis,Oslash,OE"
	k="26" />
    <hkern g1="L,Lslash"
	g2="T"
	k="39" />
    <hkern g1="L,Lslash"
	g2="V"
	k="54" />
    <hkern g1="L,Lslash"
	g2="W"
	k="44" />
    <hkern g1="L,Lslash"
	g2="Y,Yacute,Ydieresis"
	k="73" />
    <hkern g1="L,Lslash"
	g2="t"
	k="20" />
    <hkern g1="L,Lslash"
	g2="v"
	k="44" />
    <hkern g1="L,Lslash"
	g2="dagger"
	k="81" />
    <hkern g1="L,Lslash"
	g2="quotedbl,quotesingle,registered,quoteleft,quoteright,quotedblleft,quotedblright,trademark"
	k="108" />
    <hkern g1="L,Lslash"
	g2="daggerdbl"
	k="56" />
    <hkern g1="L,Lslash"
	g2="w"
	k="30" />
    <hkern g1="L,Lslash"
	g2="ampersand"
	k="12" />
    <hkern g1="L,Lslash"
	g2="c,d,e,g,o,q,ccedilla,eth,oslash,oe"
	k="12" />
    <hkern g1="L,Lslash"
	g2="u"
	k="12" />
    <hkern g1="L,Lslash"
	g2="a,ae"
	k="12" />
    <hkern g1="L,Lslash"
	g2="y,yacute,ydieresis"
	k="12" />
    <hkern g1="L,Lslash"
	g2="U,Ugrave,Uacute,Ucircumflex,Udieresis"
	k="20" />
    <hkern g1="P"
	g2="Y,Yacute,Ydieresis"
	k="9" />
    <hkern g1="P"
	g2="comma,period,quotesinglbase,quotedblbase,ellipsis"
	k="90" />
    <hkern g1="P"
	g2="A,Agrave,Aacute,Acircumflex,Atilde,Adieresis,Aring,AE,Delta"
	k="26" />
    <hkern g1="P"
	g2="J"
	k="80" />
    <hkern g1="P"
	g2="X"
	k="17" />
    <hkern g1="P"
	g2="ampersand"
	k="20" />
    <hkern g1="P"
	g2="hyphen,periodcentered,endash,emdash"
	k="26" />
    <hkern g1="P"
	g2="c,d,e,g,o,q,ccedilla,eth,oslash,oe"
	k="20" />
    <hkern g1="P"
	g2="a,ae"
	k="20" />
    <hkern g1="R"
	g2="T"
	k="10" />
    <hkern g1="R"
	g2="Y,Yacute,Ydieresis"
	k="9" />
    <hkern g1="R"
	g2="v"
	k="6" />
    <hkern g1="R"
	g2="w"
	k="6" />
    <hkern g1="R"
	g2="ampersand"
	k="9" />
    <hkern g1="R"
	g2="c,d,e,g,o,q,ccedilla,eth,oslash,oe"
	k="20" />
    <hkern g1="R"
	g2="x"
	k="6" />
    <hkern g1="R"
	g2="a,ae"
	k="20" />
    <hkern g1="R"
	g2="s"
	k="10" />
    <hkern g1="S,Scaron"
	g2="T"
	k="9" />
    <hkern g1="S,Scaron"
	g2="t"
	k="10" />
    <hkern g1="S,Scaron"
	g2="v"
	k="9" />
    <hkern g1="S,Scaron"
	g2="J"
	k="9" />
    <hkern g1="S,Scaron"
	g2="x"
	k="10" />
    <hkern g1="T"
	g2="C,G,O,Q,Ccedilla,Ograve,Oacute,Ocircumflex,Otilde,Odieresis,Oslash,OE"
	k="10" />
    <hkern g1="T"
	g2="v"
	k="23" />
    <hkern g1="T"
	g2="comma,period,quotesinglbase,quotedblbase,ellipsis"
	k="58" />
    <hkern g1="T"
	g2="w"
	k="23" />
    <hkern g1="T"
	g2="f,fi,fl"
	k="14" />
    <hkern g1="T"
	g2="A,Agrave,Aacute,Acircumflex,Atilde,Adieresis,Aring,AE,Delta"
	k="29" />
    <hkern g1="T"
	g2="J"
	k="54" />
    <hkern g1="T"
	g2="ampersand"
	k="34" />
    <hkern g1="T"
	g2="hyphen,periodcentered,endash,emdash"
	k="44" />
    <hkern g1="T"
	g2="c,d,e,g,o,q,ccedilla,eth,oslash,oe"
	k="50" />
    <hkern g1="T"
	g2="u"
	k="32" />
    <hkern g1="T"
	g2="x"
	k="27" />
    <hkern g1="T"
	g2="a,ae"
	k="50" />
    <hkern g1="T"
	g2="y,yacute,ydieresis"
	k="32" />
    <hkern g1="T"
	g2="s"
	k="40" />
    <hkern g1="T"
	g2="colon,semicolon"
	k="46" />
    <hkern g1="T"
	g2="m,n,p,r,z"
	k="32" />
    <hkern g1="J,U,Ugrave,Uacute,Ucircumflex,Udieresis"
	g2="comma,period,quotesinglbase,quotedblbase,ellipsis"
	k="22" />
    <hkern g1="J,U,Ugrave,Uacute,Ucircumflex,Udieresis"
	g2="J"
	k="17" />
    <hkern g1="V"
	g2="t"
	k="10" />
    <hkern g1="V"
	g2="comma,period,quotesinglbase,quotedblbase,ellipsis"
	k="58" />
    <hkern g1="V"
	g2="A,Agrave,Aacute,Acircumflex,Atilde,Adieresis,Aring,AE,Delta"
	k="13" />
    <hkern g1="V"
	g2="J"
	k="43" />
    <hkern g1="V"
	g2="ampersand"
	k="17" />
    <hkern g1="V"
	g2="hyphen,periodcentered,endash,emdash"
	k="21" />
    <hkern g1="V"
	g2="c,d,e,g,o,q,ccedilla,eth,oslash,oe"
	k="23" />
    <hkern g1="V"
	g2="u"
	k="13" />
    <hkern g1="V"
	g2="x"
	k="9" />
    <hkern g1="V"
	g2="a,ae"
	k="23" />
    <hkern g1="V"
	g2="y,yacute,ydieresis"
	k="13" />
    <hkern g1="V"
	g2="s"
	k="29" />
    <hkern g1="V"
	g2="m,n,p,r,z"
	k="13" />
    <hkern g1="W"
	g2="t"
	k="9" />
    <hkern g1="W"
	g2="comma,period,quotesinglbase,quotedblbase,ellipsis"
	k="44" />
    <hkern g1="W"
	g2="f,fi,fl"
	k="9" />
    <hkern g1="W"
	g2="A,Agrave,Aacute,Acircumflex,Atilde,Adieresis,Aring,AE,Delta"
	k="9" />
    <hkern g1="W"
	g2="J"
	k="37" />
    <hkern g1="W"
	g2="ampersand"
	k="19" />
    <hkern g1="W"
	g2="hyphen,periodcentered,endash,emdash"
	k="19" />
    <hkern g1="W"
	g2="c,d,e,g,o,q,ccedilla,eth,oslash,oe"
	k="24" />
    <hkern g1="W"
	g2="u"
	k="14" />
    <hkern g1="W"
	g2="x"
	k="9" />
    <hkern g1="W"
	g2="a,ae"
	k="24" />
    <hkern g1="W"
	g2="y,yacute,ydieresis"
	k="14" />
    <hkern g1="W"
	g2="s"
	k="23" />
    <hkern g1="W"
	g2="m,n,p,r,z"
	k="14" />
    <hkern g1="Y,Yacute,Ydieresis"
	g2="C,G,O,Q,Ccedilla,Ograve,Oacute,Ocircumflex,Otilde,Odieresis,Oslash,OE"
	k="19" />
    <hkern g1="Y,Yacute,Ydieresis"
	g2="t"
	k="19" />
    <hkern g1="Y,Yacute,Ydieresis"
	g2="v"
	k="33" />
    <hkern g1="Y,Yacute,Ydieresis"
	g2="comma,period,quotesinglbase,quotedblbase,ellipsis"
	k="71" />
    <hkern g1="Y,Yacute,Ydieresis"
	g2="w"
	k="29" />
    <hkern g1="Y,Yacute,Ydieresis"
	g2="f,fi,fl"
	k="23" />
    <hkern g1="Y,Yacute,Ydieresis"
	g2="A,Agrave,Aacute,Acircumflex,Atilde,Adieresis,Aring,AE,Delta"
	k="23" />
    <hkern g1="Y,Yacute,Ydieresis"
	g2="J"
	k="57" />
    <hkern g1="Y,Yacute,Ydieresis"
	g2="ampersand"
	k="33" />
    <hkern g1="Y,Yacute,Ydieresis"
	g2="hyphen,periodcentered,endash,emdash"
	k="67" />
    <hkern g1="Y,Yacute,Ydieresis"
	g2="c,d,e,g,o,q,ccedilla,eth,oslash,oe"
	k="63" />
    <hkern g1="Y,Yacute,Ydieresis"
	g2="u"
	k="39" />
    <hkern g1="Y,Yacute,Ydieresis"
	g2="x"
	k="29" />
    <hkern g1="Y,Yacute,Ydieresis"
	g2="a,ae"
	k="63" />
    <hkern g1="Y,Yacute,Ydieresis"
	g2="y,yacute,ydieresis"
	k="39" />
    <hkern g1="Y,Yacute,Ydieresis"
	g2="s"
	k="51" />
    <hkern g1="Y,Yacute,Ydieresis"
	g2="colon,semicolon"
	k="39" />
    <hkern g1="Y,Yacute,Ydieresis"
	g2="m,n,p,r,z"
	k="39" />
    <hkern g1="Z,Zcaron"
	g2="C,G,O,Q,Ccedilla,Ograve,Oacute,Ocircumflex,Otilde,Odieresis,Oslash,OE"
	k="10" />
    <hkern g1="h,m,n"
	g2="question"
	k="36" />
    <hkern g1="h,m,n"
	g2="T"
	k="44" />
    <hkern g1="h,m,n"
	g2="V"
	k="23" />
    <hkern g1="h,m,n"
	g2="W"
	k="17" />
    <hkern g1="h,m,n"
	g2="Y,Yacute,Ydieresis"
	k="49" />
    <hkern g1="ampersand"
	g2="T"
	k="24" />
    <hkern g1="ampersand"
	g2="V"
	k="17" />
    <hkern g1="ampersand"
	g2="W"
	k="9" />
    <hkern g1="ampersand"
	g2="Y,Yacute,Ydieresis"
	k="37" />
    <hkern g1="asterisk"
	g2="A,Agrave,Aacute,Acircumflex,Atilde,Adieresis,Aring,AE,Delta"
	k="39" />
    <hkern g1="asterisk"
	g2="J"
	k="80" />
    <hkern g1="b,o,p,oslash,thorn"
	g2="question"
	k="37" />
    <hkern g1="b,o,p,oslash,thorn"
	g2="T"
	k="50" />
    <hkern g1="b,o,p,oslash,thorn"
	g2="V"
	k="23" />
    <hkern g1="b,o,p,oslash,thorn"
	g2="W"
	k="24" />
    <hkern g1="b,o,p,oslash,thorn"
	g2="Y,Yacute,Ydieresis"
	k="63" />
    <hkern g1="b,o,p,oslash,thorn"
	g2="comma,period,quotesinglbase,quotedblbase,ellipsis"
	k="6" />
    <hkern g1="b,o,p,oslash,thorn"
	g2="x"
	k="14" />
    <hkern g1="c,cent,ccedilla"
	g2="question"
	k="17" />
    <hkern g1="c,cent,ccedilla"
	g2="T"
	k="24" />
    <hkern g1="c,cent,ccedilla"
	g2="V"
	k="9" />
    <hkern g1="c,cent,ccedilla"
	g2="W"
	k="14" />
    <hkern g1="c,cent,ccedilla"
	g2="Y,Yacute,Ydieresis"
	k="34" />
    <hkern g1="colon,semicolon"
	g2="T"
	k="46" />
    <hkern g1="colon,semicolon"
	g2="Y,Yacute,Ydieresis"
	k="39" />
    <hkern g1="e,ae,oe"
	g2="asterisk"
	k="10" />
    <hkern g1="e,ae,oe"
	g2="question"
	k="26" />
    <hkern g1="e,ae,oe"
	g2="T"
	k="40" />
    <hkern g1="e,ae,oe"
	g2="V"
	k="13" />
    <hkern g1="e,ae,oe"
	g2="W"
	k="24" />
    <hkern g1="e,ae,oe"
	g2="Y,Yacute,Ydieresis"
	k="53" />
    <hkern g1="eth"
	g2="comma,period,quotesinglbase,quotedblbase,ellipsis"
	k="6" />
    <hkern g1="f"
	g2="asterisk"
	k="-34" />
    <hkern g1="f"
	g2="question"
	k="-26" />
    <hkern g1="f"
	g2="T"
	k="-34" />
    <hkern g1="f"
	g2="V"
	k="-33" />
    <hkern g1="f"
	g2="W"
	k="-27" />
    <hkern g1="f"
	g2="Y,Yacute,Ydieresis"
	k="-33" />
    <hkern g1="f"
	g2="quotedbl,quotesingle,registered,quoteleft,quoteright,quotedblleft,quotedblright,trademark"
	k="-13" />
    <hkern g1="f"
	g2="comma,period,quotesinglbase,quotedblbase,ellipsis"
	k="30" />
    <hkern g1="f"
	g2="X"
	k="-29" />
    <hkern g1="f"
	g2="Z,Zcaron"
	k="-29" />
    <hkern g1="f"
	g2="ampersand"
	k="6" />
    <hkern g1="f"
	g2="U,Ugrave,Uacute,Ucircumflex,Udieresis"
	k="-17" />
    <hkern g1="f"
	g2="exclam,B,D,E,F,H,I,K,L,M,N,P,R,Egrave,Eacute,Ecircumflex,Edieresis,Igrave,Iacute,Icircumflex,Idieresis,Eth,Ntilde,Lslash"
	k="-17" />
    <hkern g1="f"
	g2="S,Scaron"
	k="-13" />
    <hkern g1="f"
	g2="parenright,bracketright,braceright"
	k="-44" />
    <hkern g1="g,q"
	g2="question"
	k="23" />
    <hkern g1="g,q"
	g2="T"
	k="32" />
    <hkern g1="g,q"
	g2="V"
	k="13" />
    <hkern g1="g,q"
	g2="W"
	k="14" />
    <hkern g1="g,q"
	g2="Y,Yacute,Ydieresis"
	k="39" />
    <hkern g1="hyphen,periodcentered,endash,emdash"
	g2="V"
	k="21" />
    <hkern g1="hyphen,periodcentered,endash,emdash"
	g2="W"
	k="19" />
    <hkern g1="hyphen,periodcentered,endash,emdash"
	g2="Y,Yacute,Ydieresis"
	k="67" />
    <hkern g1="hyphen,periodcentered,endash,emdash"
	g2="X"
	k="19" />
    <hkern g1="k"
	g2="T"
	k="27" />
    <hkern g1="k"
	g2="V"
	k="9" />
    <hkern g1="k"
	g2="W"
	k="9" />
    <hkern g1="k"
	g2="Y,Yacute,Ydieresis"
	k="29" />
    <hkern g1="k"
	g2="hyphen,periodcentered,endash,emdash"
	k="10" />
    <hkern g1="k"
	g2="c,d,e,g,o,q,ccedilla,eth,oslash,oe"
	k="9" />
    <hkern g1="k"
	g2="a,ae"
	k="9" />
    <hkern g1="k"
	g2="bullet"
	k="20" />
    <hkern g1="comma,period,quotesinglbase,quotedblbase,ellipsis"
	g2="T"
	k="58" />
    <hkern g1="comma,period,quotesinglbase,quotedblbase,ellipsis"
	g2="V"
	k="58" />
    <hkern g1="comma,period,quotesinglbase,quotedblbase,ellipsis"
	g2="W"
	k="44" />
    <hkern g1="comma,period,quotesinglbase,quotedblbase,ellipsis"
	g2="Y,Yacute,Ydieresis"
	k="71" />
    <hkern g1="comma,period,quotesinglbase,quotedblbase,ellipsis"
	g2="t"
	k="10" />
    <hkern g1="comma,period,quotesinglbase,quotedblbase,ellipsis"
	g2="v"
	k="39" />
    <hkern g1="comma,period,quotesinglbase,quotedblbase,ellipsis"
	g2="quotedbl,quotesingle,registered,quoteleft,quoteright,quotedblleft,quotedblright,trademark"
	k="74" />
    <hkern g1="comma,period,quotesinglbase,quotedblbase,ellipsis"
	g2="w"
	k="34" />
    <hkern g1="comma,period,quotesinglbase,quotedblbase,ellipsis"
	g2="f,fi,fl"
	k="10" />
    <hkern g1="comma,period,quotesinglbase,quotedblbase,ellipsis"
	g2="c,d,e,g,o,q,ccedilla,eth,oslash,oe"
	k="6" />
    <hkern g1="comma,period,quotesinglbase,quotedblbase,ellipsis"
	g2="a,ae"
	k="6" />
    <hkern g1="comma,period,quotesinglbase,quotedblbase,ellipsis"
	g2="U,Ugrave,Uacute,Ucircumflex,Udieresis"
	k="22" />
    <hkern g1="comma,period,quotesinglbase,quotedblbase,ellipsis"
	g2="zero,six"
	k="20" />
    <hkern g1="comma,period,quotesinglbase,quotedblbase,ellipsis"
	g2="one"
	k="90" />
    <hkern g1="comma,period,quotesinglbase,quotedblbase,ellipsis"
	g2="seven"
	k="34" />
    <hkern g1="questiondown"
	g2="j"
	k="-70" />
    <hkern g1="quotedbl,quotesingle,quoteleft,quoteright,quotedblleft,quotedblright"
	g2="C,G,O,Q,Ccedilla,Ograve,Oacute,Ocircumflex,Otilde,Odieresis,Oslash,OE"
	k="6" />
    <hkern g1="quotedbl,quotesingle,quoteleft,quoteright,quotedblleft,quotedblright"
	g2="comma,period,quotesinglbase,quotedblbase,ellipsis"
	k="74" />
    <hkern g1="quotedbl,quotesingle,quoteleft,quoteright,quotedblleft,quotedblright"
	g2="A,Agrave,Aacute,Acircumflex,Atilde,Adieresis,Aring,AE,Delta"
	k="37" />
    <hkern g1="quotedbl,quotesingle,quoteleft,quoteright,quotedblleft,quotedblright"
	g2="J"
	k="84" />
    <hkern g1="quotedbl,quotesingle,quoteleft,quoteright,quotedblleft,quotedblright"
	g2="s"
	k="36" />
    <hkern g1="r"
	g2="T"
	k="16" />
    <hkern g1="r"
	g2="W"
	k="9" />
    <hkern g1="r"
	g2="Y,Yacute,Ydieresis"
	k="23" />
    <hkern g1="r"
	g2="comma,period,quotesinglbase,quotedblbase,ellipsis"
	k="64" />
    <hkern g1="r"
	g2="X"
	k="13" />
    <hkern g1="s"
	g2="question"
	k="27" />
    <hkern g1="s"
	g2="T"
	k="24" />
    <hkern g1="s"
	g2="V"
	k="9" />
    <hkern g1="s"
	g2="W"
	k="19" />
    <hkern g1="s"
	g2="Y,Yacute,Ydieresis"
	k="33" />
    <hkern g1="s"
	g2="quotedbl,quotesingle,registered,quoteleft,quoteright,quotedblleft,quotedblright,trademark"
	k="14" />
    <hkern g1="t"
	g2="T"
	k="27" />
    <hkern g1="t"
	g2="W"
	k="9" />
    <hkern g1="t"
	g2="Y,Yacute,Ydieresis"
	k="24" />
    <hkern g1="u,z"
	g2="question"
	k="26" />
    <hkern g1="u,z"
	g2="T"
	k="32" />
    <hkern g1="u,z"
	g2="V"
	k="13" />
    <hkern g1="u,z"
	g2="W"
	k="14" />
    <hkern g1="u,z"
	g2="Y,Yacute,Ydieresis"
	k="39" />
    <hkern g1="v"
	g2="T"
	k="23" />
    <hkern g1="v"
	g2="Y,Yacute,Ydieresis"
	k="33" />
    <hkern g1="v"
	g2="comma,period,quotesinglbase,quotedblbase,ellipsis"
	k="39" />
    <hkern g1="v"
	g2="A,Agrave,Aacute,Acircumflex,Atilde,Adieresis,Aring,AE,Delta"
	k="9" />
    <hkern g1="v"
	g2="X"
	k="17" />
    <hkern g1="w"
	g2="T"
	k="23" />
    <hkern g1="w"
	g2="Y,Yacute,Ydieresis"
	k="29" />
    <hkern g1="w"
	g2="comma,period,quotesinglbase,quotedblbase,ellipsis"
	k="34" />
    <hkern g1="w"
	g2="X"
	k="17" />
    <hkern g1="y,yacute,ydieresis"
	g2="question"
	k="23" />
    <hkern g1="y,yacute,ydieresis"
	g2="T"
	k="32" />
    <hkern g1="y,yacute,ydieresis"
	g2="V"
	k="13" />
    <hkern g1="y,yacute,ydieresis"
	g2="W"
	k="14" />
    <hkern g1="y,yacute,ydieresis"
	g2="Y,Yacute,Ydieresis"
	k="39" />
    <hkern g1="X"
	g2="C,G,O,Q,Ccedilla,Ograve,Oacute,Ocircumflex,Otilde,Odieresis,Oslash,OE"
	k="14" />
    <hkern g1="X"
	g2="t"
	k="9" />
    <hkern g1="X"
	g2="v"
	k="17" />
    <hkern g1="X"
	g2="w"
	k="17" />
    <hkern g1="X"
	g2="f,fi,fl"
	k="9" />
    <hkern g1="X"
	g2="hyphen,periodcentered,endash,emdash"
	k="19" />
    <hkern g1="zero,nine"
	g2="comma,period,quotesinglbase,quotedblbase,ellipsis"
	k="20" />
    <hkern g1="seven"
	g2="comma,period,quotesinglbase,quotedblbase,ellipsis"
	k="69" />
    <hkern g1="x"
	g2="question"
	k="12" />
    <hkern g1="x"
	g2="T"
	k="27" />
    <hkern g1="x"
	g2="V"
	k="9" />
    <hkern g1="x"
	g2="W"
	k="9" />
    <hkern g1="x"
	g2="Y,Yacute,Ydieresis"
	k="29" />
    <hkern g1="x"
	g2="c,d,e,g,o,q,ccedilla,eth,oslash,oe"
	k="14" />
    <hkern g1="x"
	g2="a,ae"
	k="14" />
    <hkern g1="parenleft,bracketleft,braceleft"
	g2="j"
	k="-54" />
  </font>
</defs></svg>
